pwm/wave.vcd
$date
	Tue Feb 13 22:00:31 2024
$end
$version
	Icarus Verilog
$end
$timescale
	1ps
$end
$scope module TestPwm $end
$var wire 1 ! pwm_up $end
$var wire 1 " pwm_s $end
$var wire 1 # pwm_lo $end
$var wire 1 $ pwm_fl_p $end
$var wire 1 % pwm_fl_n $end
$var wire 1 & pwm_dt_p $end
$var wire 1 ' pwm_dt_n $end
$var wire 1 ( pwm $end
$var wire 1 ) co_s $end
$var wire 1 * co_fl $end
$var wire 1 + co_dt $end
$var wire 1 , co $end
$var reg 1 - clk $end
$var reg 1 . rst $end
$var reg 4 / sdata [3:0] $end
$var reg 4 0 sdata_dt [3:0] $end
$var reg 5 1 sdata_fl [4:0] $end
$var reg 4 2 udata [3:0] $end
$scope module dtLo $end
$var wire 1 - clk $end
$var wire 1 3 in $end
$var wire 1 . rst $end
$var wire 1 # out $end
$var parameter 32 4 DELAY $end
$var reg 2 5 dly [1:0] $end
$upscope $end
$scope module dtUp $end
$var wire 1 - clk $end
$var wire 1 . rst $end
$var wire 1 ! out $end
$var wire 1 ( in $end
$var parameter 32 6 DELAY $end
$var reg 2 7 dly [1:0] $end
$upscope $end
$scope module thePwm $end
$var wire 1 - clk $end
$var wire 4 8 data [3:0] $end
$var wire 1 . rst $end
$var wire 1 , co $end
$var parameter 32 9 M $end
$var reg 4 : cnt [3:0] $end
$var reg 1 ( pwm $end
$upscope $end
$scope module thePwmDt $end
$var wire 1 - clk $end
$var wire 4 ; data [3:0] $end
$var wire 1 . rst $end
$var wire 1 + co $end
$var parameter 32 < M $end
$var reg 4 = cnt [3:0] $end
$var reg 1 ' pwm_n $end
$var reg 1 & pwm_p $end
$upscope $end
$scope module thePwmFl $end
$var wire 1 - clk $end
$var wire 5 > data [4:0] $end
$var wire 1 . rst $end
$var wire 1 * co $end
$var parameter 32 ? M $end
$var reg 4 @ cnt [3:0] $end
$var reg 1 % pwm_n $end
$var reg 1 $ pwm_p $end
$upscope $end
$scope module thePwmS $end
$var wire 1 - clk $end
$var wire 4 A data [3:0] $end
$var wire 1 . rst $end
$var wire 1 ) co $end
$var parameter 32 B M $end
$var reg 4 C cnt [3:0] $end
$var reg 1 " pwm $end
$upscope $end
$upscope $end
$enddefinitions $end
$comment Show the parameter values. $end
$dumpall
b10000 B
b10000 ?
b10000 <
b10000 9
b10 6
b10 4
$end
#0
$dumpvars
b0 C
b0 A
b0 @
b0 >
b0 =
b0 ;
b0 :
b0 8
b0 7
b0 5
x3
b0 2
b0 1
b0 0
b0 /
1.
0-
0,
0+
0*
0)
x(
x'
x&
x%
x$
0#
x"
0!
$end
#2
0.
#5
13
b1 :
0(
b1 C
0"
b1 =
0&
0'
b1 @
0%
0$
1-
#10
0-
#15
b1 5
b10 @
b10 =
b10 C
b10 :
1-
#20
0-
#25
b11 :
b11 C
b11 =
b11 @
1#
b10 5
1-
#30
0-
#35
b100 @
b100 =
b100 C
b100 :
1-
#40
0-
#45
b101 :
b101 C
b101 =
b101 @
1-
#50
0-
#55
b110 @
b110 =
b110 C
b110 :
1-
#60
0-
#65
b111 :
1)
b111 C
1+
b111 =
b111 @
1-
#70
0-
#75
b1000 @
0+
b1000 =
0)
b1000 C
b1000 :
b1 0
b1 ;
b1 /
b1 A
1-
#80
0-
#85
b1001 :
b1001 C
1"
b1001 =
1&
1'
b1001 @
1-
#90
0-
#95
b1010 @
b1010 =
b1010 C
b1010 :
1-
#100
0-
#105
b1011 :
b1011 C
b1011 =
b1011 @
1-
#110
0-
#115
b1100 @
b1100 =
b1100 C
b1100 :
1-
#120
0-
#125
b1101 :
b1101 C
b1101 =
b1101 @
1-
#130
0-
#135
b1110 @
b1110 =
b1110 C
b1110 :
1-
#140
0-
#145
1,
b1111 :
b1111 C
b1111 =
1*
b1111 @
1-
#150
0-
#155
0*
b0 @
0'
b0 =
b0 C
0,
b0 :
b1 1
b1 >
b1 2
b1 8
1-
#160
0-
#165
03
b1 :
1(
b1 C
b1 =
b1 @
1$
1-
#170
0-
#175
13
0#
b0 5
b1 7
0$
b10 @
0&
b10 =
0"
b10 C
0(
b10 :
1-
#180
0-
#185
b11 :
b11 C
b11 =
b11 @
b0 7
b1 5
1-
#190
0-
#195
1#
b10 5
b100 @
b100 =
b100 C
b100 :
1-
#200
0-
#205
b101 :
b101 C
b101 =
b101 @
1-
#210
0-
#215
b110 @
b110 =
b110 C
b110 :
1-
#220
0-
#225
b111 :
1)
b111 C
1+
b111 =
b111 @
1-
#230
0-
#235
b1000 @
0+
b1000 =
0)
b1000 C
b1000 :
b10 0
b10 ;
b10 /
b10 A
1-
#240
0-
#245
b1001 :
b1001 C
1"
b1001 =
1&
1'
b1001 @
1-
#250
0-
#255
b1010 @
b1010 =
b1010 C
b1010 :
1-
#260
0-
#265
b1011 :
b1011 C
b1011 =
b1011 @
1-
#270
0-
#275
b1100 @
b1100 =
b1100 C
b1100 :
1-
#280
0-
#285
b1101 :
b1101 C
b1101 =
b1101 @
1-
#290
0-
#295
b1110 @
b1110 =
b1110 C
b1110 :
1-
#300
0-
#305
1,
b1111 :
b1111 C
b1111 =
0'
1*
b1111 @
1-
#310
0-
#315
0*
b0 @
b0 =
b0 C
0,
b0 :
b10 1
b10 >
b10 2
b10 8
1-
#320
0-
#325
03
b1 :
1(
b1 C
b1 =
b1 @
1$
1-
#330
0-
#335
0#
b0 5
b1 7
b10 @
b10 =
b10 C
b10 :
1-
#340
0-
#345
13
b11 :
0(
b11 C
0"
b11 =
0&
b11 @
0$
1!
b10 7
1-
#350
0-
#355
b1 5
0!
b0 7
b100 @
b100 =
b100 C
b100 :
1-
#360
0-
#365
b101 :
b101 C
b101 =
b101 @
1#
b10 5
1-
#370
0-
#375
b110 @
b110 =
b110 C
b110 :
1-
#380
0-
#385
b111 :
1)
b111 C
1+
b111 =
b111 @
1-
#390
0-
#395
b1000 @
0+
b1000 =
0)
b1000 C
b1000 :
b11 0
b11 ;
b11 /
b11 A
1-
#400
0-
#405
b1001 :
b1001 C
1"
b1001 =
1&
1'
b1001 @
1-
#410
0-
#415
b1010 @
b1010 =
b1010 C
b1010 :
1-
#420
0-
#425
b1011 :
b1011 C
b1011 =
b1011 @
1-
#430
0-
#435
b1100 @
b1100 =
b1100 C
b1100 :
1-
#440
0-
#445
b1101 :
b1101 C
b1101 =
b1101 @
1-
#450
0-
#455
b1110 @
0'
b1110 =
b1110 C
b1110 :
1-
#460
0-
#465
1,
b1111 :
b1111 C
b1111 =
1*
b1111 @
1-
#470
0-
#475
0*
b0 @
b0 =
b0 C
0,
b0 :
b11 1
b11 >
b11 2
b11 8
1-
#480
0-
#485
03
b1 :
1(
b1 C
b1 =
b1 @
1$
1-
#490
0-
#495
0#
b0 5
b1 7
b10 @
b10 =
b10 C
b10 :
1-
#500
0-
#505
b11 :
b11 C
b11 =
b11 @
1!
b10 7
1-
#510
0-
#515
13
0$
b100 @
0&
b100 =
0"
b100 C
0(
b100 :
1-
#520
0-
#525
b101 :
b101 C
b101 =
b101 @
0!
b0 7
b1 5
1-
#530
0-
#535
1#
b10 5
b110 @
b110 =
b110 C
b110 :
1-
#540
0-
#545
b111 :
1)
b111 C
1+
b111 =
b111 @
1-
#550
0-
#555
b1000 @
0+
b1000 =
0)
b1000 C
b1000 :
b100 0
b100 ;
b100 /
b100 A
1-
#560
0-
#565
b1001 :
b1001 C
1"
b1001 =
1&
1'
b1001 @
1-
#570
0-
#575
b1010 @
b1010 =
b1010 C
b1010 :
1-
#580
0-
#585
b1011 :
b1011 C
b1011 =
b1011 @
1-
#590
0-
#595
b1100 @
b1100 =
b1100 C
b1100 :
1-
#600
0-
#605
b1101 :
b1101 C
b1101 =
0'
b1101 @
1-
#610
0-
#615
b1110 @
b1110 =
b1110 C
b1110 :
1-
#620
0-
#625
1,
b1111 :
b1111 C
b1111 =
1*
b1111 @
1-
#630
0-
#635
0*
b0 @
b0 =
b0 C
0,
b0 :
b100 1
b100 >
b100 2
b100 8
1-
#640
0-
#645
03
b1 :
1(
b1 C
b1 =
b1 @
1$
1-
#650
0-
#655
0#
b0 5
b1 7
b10 @
b10 =
b10 C
b10 :
1-
#660
0-
#665
b11 :
b11 C
b11 =
b11 @
1!
b10 7
1-
#670
0-
#675
b100 @
b100 =
b100 C
b100 :
1-
#680
0-
#685
13
b101 :
0(
b101 C
0"
b101 =
0&
b101 @
0$
1-
#690
0-
#695
b1 5
0!
b0 7
b110 @
b110 =
b110 C
b110 :
1-
#700
0-
#705
b111 :
1)
b111 C
1+
b111 =
b111 @
1#
b10 5
1-
#710
0-
#715
b1000 @
0+
b1000 =
0)
b1000 C
b1000 :
b101 0
b101 ;
b101 /
b101 A
1-
#720
0-
#725
b1001 :
b1001 C
1"
b1001 =
1&
1'
b1001 @
1-
#730
0-
#735
b1010 @
b1010 =
b1010 C
b1010 :
1-
#740
0-
#745
b1011 :
b1011 C
b1011 =
b1011 @
1-
#750
0-
#755
b1100 @
0'
b1100 =
b1100 C
b1100 :
1-
#760
0-
#765
b1101 :
b1101 C
b1101 =
b1101 @
1-
#770
0-
#775
b1110 @
b1110 =
b1110 C
b1110 :
1-
#780
0-
#785
1,
b1111 :
b1111 C
b1111 =
1*
b1111 @
1-
#790
0-
#795
0*
b0 @
b0 =
b0 C
0,
b0 :
b101 1
b101 >
b101 2
b101 8
1-
#800
0-
#805
03
b1 :
1(
b1 C
b1 =
b1 @
1$
1-
#810
0-
#815
0#
b0 5
b1 7
b10 @
b10 =
b10 C
b10 :
1-
#820
0-
#825
b11 :
b11 C
b11 =
b11 @
1!
b10 7
1-
#830
0-
#835
b100 @
b100 =
b100 C
b100 :
1-
#840
0-
#845
b101 :
b101 C
b101 =
b101 @
1-
#850
0-
#855
13
0$
b110 @
0&
b110 =
0"
b110 C
0(
b110 :
1-
#860
0-
#865
b111 :
1)
b111 C
1+
b111 =
b111 @
0!
b0 7
b1 5
1-
#870
0-
#875
1#
b10 5
b1000 @
0+
b1000 =
0)
b1000 C
b1000 :
b110 0
b110 ;
b110 /
b110 A
1-
#880
0-
#885
b1001 :
b1001 C
1"
b1001 =
1&
1'
b1001 @
1-
#890
0-
#895
b1010 @
b1010 =
b1010 C
b1010 :
1-
#900
0-
#905
b1011 :
b1011 C
b1011 =
0'
b1011 @
1-
#910
0-
#915
b1100 @
b1100 =
b1100 C
b1100 :
1-
#920
0-
#925
b1101 :
b1101 C
b1101 =
b1101 @
1-
#930
0-
#935
b1110 @
b1110 =
b1110 C
b1110 :
1-
#940
0-
#945
1,
b1111 :
b1111 C
b1111 =
1*
b1111 @
1-
#950
0-
#955
0*
b0 @
b0 =
b0 C
0,
b0 :
b110 1
b110 >
b110 2
b110 8
1-
#960
0-
#965
03
b1 :
1(
b1 C
b1 =
b1 @
1$
1-
#970
0-
#975
0#
b0 5
b1 7
b10 @
b10 =
b10 C
b10 :
1-
#980
0-
#985
b11 :
b11 C
b11 =
b11 @
1!
b10 7
1-
#990
0-
#995
b100 @
b100 =
b100 C
b100 :
1-
#1000
0-
#1005
b101 :
b101 C
b101 =
b101 @
1-
#1010
0-
#1015
b110 @
b110 =
b110 C
b110 :
1-
#1020
0-
#1025
13
b111 :
0(
1)
b111 C
0"
1+
b111 =
0&
b111 @
0$
1-
#1030
0-
#1035
b1 5
0!
b0 7
b1000 @
0+
b1000 =
0)
b1000 C
b1000 :
b111 0
b111 ;
b111 /
b111 A
1-
#1040
0-
#1045
b1001 :
b1001 C
1"
b1001 =
1&
1'
b1001 @
1#
b10 5
1-
#1050
0-
#1055
b1010 @
0'
b1010 =
b1010 C
b1010 :
1-
#1060
0-
#1065
b1011 :
b1011 C
b1011 =
b1011 @
1-
#1070
0-
#1075
b1100 @
b1100 =
b1100 C
b1100 :
1-
#1080
0-
#1085
b1101 :
b1101 C
b1101 =
b1101 @
1-
#1090
0-
#1095
b1110 @
b1110 =
b1110 C
b1110 :
1-
#1100
0-
#1105
1,
b1111 :
b1111 C
b1111 =
1*
b1111 @
1-
#1110
0-
#1115
0*
b0 @
b0 =
b0 C
0,
b0 :
b111 1
b111 >
b111 2
b111 8
1-
#1120
0-
#1125
03
b1 :
1(
b1 C
b1 =
b1 @
1$
1-
#1130
0-
#1135
0#
b0 5
b1 7
b10 @
b10 =
b10 C
b10 :
1-
#1140
0-
#1145
b11 :
b11 C
b11 =
b11 @
1!
b10 7
1-
#1150
0-
#1155
b100 @
b100 =
b100 C
b100 :
1-
#1160
0-
#1165
b101 :
b101 C
b101 =
b101 @
1-
#1170
0-
#1175
b110 @
b110 =
b110 C
b110 :
1-
#1180
0-
#1185
b111 :
1)
b111 C
1+
b111 =
b111 @
1-
#1190
0-
#1195
13
0$
b1000 @
0&
0+
b1000 =
0"
0)
b1000 C
0(
b1000 :
b1000 0
b1000 ;
b1000 /
b1000 A
1-
#1200
0-
#1205
b1001 :
b1001 C
b1001 =
b1001 @
0!
b0 7
b1 5
1-
#1210
0-
#1215
1#
b10 5
b1010 @
b1010 =
b1010 C
b1010 :
1-
#1220
0-
#1225
b1011 :
b1011 C
b1011 =
b1011 @
1-
#1230
0-
#1235
b1100 @
b1100 =
b1100 C
b1100 :
1-
#1240
0-
#1245
b1101 :
b1101 C
b1101 =
b1101 @
1-
#1250
0-
#1255
b1110 @
b1110 =
b1110 C
b1110 :
1-
#1260
0-
#1265
1,
b1111 :
b1111 C
b1111 =
1*
b1111 @
1-
#1270
0-
#1275
0*
b0 @
b0 =
b0 C
0,
b0 :
b1000 1
b1000 >
b1000 2
b1000 8
1-
#1280
0-
#1285
03
b1 :
1(
b1 C
b1 =
b1 @
1$
1-
#1290
0-
#1295
0#
b0 5
b1 7
b10 @
b10 =
b10 C
b10 :
1-
#1300
0-
#1305
b11 :
b11 C
b11 =
b11 @
1!
b10 7
1-
#1310
0-
#1315
b100 @
b100 =
b100 C
b100 :
1-
#1320
0-
#1325
b101 :
b101 C
b101 =
b101 @
1-
#1330
0-
#1335
b110 @
b110 =
b110 C
b110 :
1-
#1340
0-
#1345
b111 :
1)
b111 C
1+
b111 =
b111 @
1-
#1350
0-
#1355
b1000 @
0+
b1000 =
0)
b1000 C
b1000 :
b1001 0
b1001 ;
b1001 /
b1001 A
1-
#1360
0-
#1365
13
b1001 :
0(
b1001 C
1"
b1001 =
1&
1'
b1001 @
0$
1-
#1370
0-
#1375
b1 5
0!
b0 7
b1010 @
0&
b1010 =
0"
b1010 C
b1010 :
1-
#1380
0-
#1385
b1011 :
b1011 C
b1011 =
b1011 @
1#
b10 5
1-
#1390
0-
#1395
b1100 @
b1100 =
b1100 C
b1100 :
1-
#1400
0-
#1405
b1101 :
b1101 C
b1101 =
b1101 @
1-
#1410
0-
#1415
b1110 @
b1110 =
b1110 C
b1110 :
1-
#1420
0-
#1425
1,
b1111 :
b1111 C
b1111 =
1*
b1111 @
1-
#1430
0-
#1435
0*
b0 @
b0 =
b0 C
0,
b0 :
b1001 1
b1001 >
b1001 2
b1001 8
1-
#1440
0-
#1445
03
b1 :
1(
b1 C
b1 =
b1 @
1$
1-
#1450
0-
#1455
0#
b0 5
b1 7
b10 @
b10 =
b10 C
b10 :
1-
#1460
0-
#1465
b11 :
b11 C
b11 =
b11 @
1!
b10 7
1-
#1470
0-
#1475
b100 @
b100 =
b100 C
b100 :
1-
#1480
0-
#1485
b101 :
b101 C
b101 =
b101 @
1-
#1490
0-
#1495
b110 @
b110 =
b110 C
b110 :
1-
#1500
0-
#1505
b111 :
1)
b111 C
1+
b111 =
b111 @
1-
#1510
0-
#1515
b1000 @
0'
0+
b1000 =
0)
b1000 C
b1000 :
b1010 0
b1010 ;
b1010 /
b1010 A
1-
#1520
0-
#1525
b1001 :
b1001 C
1"
b1001 =
1&
1'
b1001 @
1-
#1530
0-
#1535
13
0$
b1010 @
b1010 =
b1010 C
0(
b1010 :
1-
#1540
0-
#1545
b1011 :
b1011 C
0"
b1011 =
0&
b1011 @
0!
b0 7
b1 5
1-
#1550
0-
#1555
1#
b10 5
b1100 @
b1100 =
b1100 C
b1100 :
1-
#1560
0-
#1565
b1101 :
b1101 C
b1101 =
b1101 @
1-
#1570
0-
#1575
b1110 @
b1110 =
b1110 C
b1110 :
1-
#1580
0-
#1585
1,
b1111 :
b1111 C
b1111 =
1*
b1111 @
1-
#1590
0-
#1595
0*
b0 @
b0 =
b0 C
0,
b0 :
b1010 1
b1010 >
b1010 2
b1010 8
1-
#1600
0-
#1605
03
b1 :
1(
b1 C
b1 =
b1 @
1$
1-
#1610
0-
#1615
0#
b0 5
b1 7
b10 @
b10 =
b10 C
b10 :
1-
#1620
0-
#1625
b11 :
b11 C
b11 =
b11 @
1!
b10 7
1-
#1630
0-
#1635
b100 @
b100 =
b100 C
b100 :
1-
#1640
0-
#1645
b101 :
b101 C
b101 =
b101 @
1-
#1650
0-
#1655
b110 @
b110 =
b110 C
b110 :
1-
#1660
0-
#1665
b111 :
1)
b111 C
1+
b111 =
0'
b111 @
1-
#1670
0-
#1675
b1000 @
0+
b1000 =
0)
b1000 C
b1000 :
b1011 0
b1011 ;
b1011 /
b1011 A
1-
#1680
0-
#1685
b1001 :
b1001 C
1"
b1001 =
1&
1'
b1001 @
1-
#1690
0-
#1695
b1010 @
b1010 =
b1010 C
b1010 :
1-
#1700
0-
#1705
13
b1011 :
0(
b1011 C
b1011 =
b1011 @
0$
1-
#1710
0-
#1715
b1 5
0!
b0 7
b1100 @
0&
b1100 =
0"
b1100 C
b1100 :
1-
#1720
0-
#1725
b1101 :
b1101 C
b1101 =
b1101 @
1#
b10 5
1-
#1730
0-
#1735
b1110 @
b1110 =
b1110 C
b1110 :
1-
#1740
0-
#1745
1,
b1111 :
b1111 C
b1111 =
1*
b1111 @
1-
#1750
0-
#1755
0*
b0 @
b0 =
b0 C
0,
b0 :
b1011 1
b1011 >
b1011 2
b1011 8
1-
#1760
0-
#1765
03
b1 :
1(
b1 C
b1 =
b1 @
1$
1-
#1770
0-
#1775
0#
b0 5
b1 7
b10 @
b10 =
b10 C
b10 :
1-
#1780
0-
#1785
b11 :
b11 C
b11 =
b11 @
1!
b10 7
1-
#1790
0-
#1795
b100 @
b100 =
b100 C
b100 :
1-
#1800
0-
#1805
b101 :
b101 C
b101 =
b101 @
1-
#1810
0-
#1815
b110 @
0'
b110 =
b110 C
b110 :
1-
#1820
0-
#1825
b111 :
1)
b111 C
1+
b111 =
b111 @
1-
#1830
0-
#1835
b1000 @
0+
b1000 =
0)
b1000 C
b1000 :
b1100 0
b1100 ;
b1100 /
b1100 A
1-
#1840
0-
#1845
b1001 :
b1001 C
1"
b1001 =
1&
1'
b1001 @
1-
#1850
0-
#1855
b1010 @
b1010 =
b1010 C
b1010 :
1-
#1860
0-
#1865
b1011 :
b1011 C
b1011 =
b1011 @
1-
#1870
0-
#1875
13
0$
b1100 @
b1100 =
b1100 C
0(
b1100 :
1-
#1880
0-
#1885
b1101 :
b1101 C
0"
b1101 =
0&
b1101 @
0!
b0 7
b1 5
1-
#1890
0-
#1895
1#
b10 5
b1110 @
b1110 =
b1110 C
b1110 :
1-
#1900
0-
#1905
1,
b1111 :
b1111 C
b1111 =
1*
b1111 @
1-
#1910
0-
#1915
0*
b0 @
b0 =
b0 C
0,
b0 :
b1100 1
b1100 >
b1100 2
b1100 8
1-
#1920
0-
#1925
03
b1 :
1(
b1 C
b1 =
b1 @
1$
1-
#1930
0-
#1935
0#
b0 5
b1 7
b10 @
b10 =
b10 C
b10 :
1-
#1940
0-
#1945
b11 :
b11 C
b11 =
b11 @
1!
b10 7
1-
#1950
0-
#1955
b100 @
b100 =
b100 C
b100 :
1-
#1960
0-
#1965
b101 :
b101 C
b101 =
0'
b101 @
1-
#1970
0-
#1975
b110 @
b110 =
b110 C
b110 :
1-
#1980
0-
#1985
b111 :
1)
b111 C
1+
b111 =
b111 @
1-
#1990
0-
#1995
b1000 @
0+
b1000 =
0)
b1000 C
b1000 :
b1101 0
b1101 ;
b1101 /
b1101 A
1-
#2000
0-
#2005
b1001 :
b1001 C
1"
b1001 =
1&
1'
b1001 @
1-
#2010
0-
#2015
b1010 @
b1010 =
b1010 C
b1010 :
1-
#2020
0-
#2025
b1011 :
b1011 C
b1011 =
b1011 @
1-
#2030
0-
#2035
b1100 @
b1100 =
b1100 C
b1100 :
1-
#2040
0-
#2045
13
b1101 :
0(
b1101 C
b1101 =
b1101 @
0$
1-
#2050
0-
#2055
b1 5
0!
b0 7
b1110 @
0&
b1110 =
0"
b1110 C
b1110 :
1-
#2060
0-
#2065
1,
b1111 :
b1111 C
b1111 =
1*
b1111 @
1#
b10 5
1-
#2070
0-
#2075
0*
b0 @
b0 =
b0 C
0,
b0 :
b1101 1
b1101 >
b1101 2
b1101 8
1-
#2080
0-
#2085
03
b1 :
1(
b1 C
b1 =
b1 @
1$
1-
#2090
0-
#2095
0#
b0 5
b1 7
b10 @
b10 =
b10 C
b10 :
1-
#2100
0-
#2105
b11 :
b11 C
b11 =
b11 @
1!
b10 7
1-
#2110
0-
#2115
b100 @
0'
b100 =
b100 C
b100 :
1-
#2120
0-
#2125
b101 :
b101 C
b101 =
b101 @
1-
#2130
0-
#2135
b110 @
b110 =
b110 C
b110 :
1-
#2140
0-
#2145
b111 :
1)
b111 C
1+
b111 =
b111 @
1-
#2150
0-
#2155
b1000 @
0+
b1000 =
0)
b1000 C
b1000 :
b1110 0
b1110 ;
b1110 /
b1110 A
1-
#2160
0-
#2165
b1001 :
b1001 C
1"
b1001 =
1&
1'
b1001 @
1-
#2170
0-
#2175
b1010 @
b1010 =
b1010 C
b1010 :
1-
#2180
0-
#2185
b1011 :
b1011 C
b1011 =
b1011 @
1-
#2190
0-
#2195
b1100 @
b1100 =
b1100 C
b1100 :
1-
#2200
0-
#2205
b1101 :
b1101 C
b1101 =
b1101 @
1-
#2210
0-
#2215
13
0$
b1110 @
b1110 =
b1110 C
0(
b1110 :
1-
#2220
0-
#2225
1,
b1111 :
b1111 C
0"
b1111 =
0&
1*
b1111 @
0!
b0 7
b1 5
1-
#2230
0-
#2235
1#
b10 5
0*
b0 @
b0 =
b0 C
0,
b0 :
b1110 1
b1110 >
b1110 2
b1110 8
1-
#2240
0-
#2245
03
b1 :
1(
b1 C
b1 =
b1 @
1$
1-
#2250
0-
#2255
0#
b0 5
b1 7
b10 @
b10 =
b10 C
b10 :
1-
#2260
0-
#2265
b11 :
b11 C
b11 =
0'
b11 @
1!
b10 7
1-
#2270
0-
#2275
b100 @
b100 =
b100 C
b100 :
1-
#2280
0-
#2285
b101 :
b101 C
b101 =
b101 @
1-
#2290
0-
#2295
b110 @
b110 =
b110 C
b110 :
1-
#2300
0-
#2305
b111 :
1)
b111 C
1+
b111 =
b111 @
1-
#2310
0-
#2315
b1000 @
0+
b1000 =
0)
b1000 C
b1000 :
b1111 0
b1111 ;
b1111 /
b1111 A
1-
#2320
0-
#2325
b1001 :
b1001 C
1"
b1001 =
1&
1'
b1001 @
1-
#2330
0-
#2335
b1010 @
b1010 =
b1010 C
b1010 :
1-
#2340
0-
#2345
b1011 :
b1011 C
b1011 =
b1011 @
1-
#2350
0-
#2355
b1100 @
b1100 =
b1100 C
b1100 :
1-
#2360
0-
#2365
b1101 :
b1101 C
b1101 =
b1101 @
1-
#2370
0-
#2375
b1110 @
b1110 =
b1110 C
b1110 :
1-
#2380
0-
#2385
13
1,
b1111 :
0(
b1111 C
b1111 =
1*
b1111 @
0$
1-
#2390
0-
#2395
b1 5
0!
b0 7
0*
b0 @
0&
b0 =
0"
b0 C
0,
b0 :
b1111 1
b1111 >
b1111 2
b1111 8
1-
#2400
0-
#2405
03
b1 :
1(
b1 C
b1 =
b1 @
1$
1#
b10 5
1-
#2410
0-
#2415
0#
b0 5
b1 7
b10 @
0'
b10 =
b10 C
b10 :
1-
#2420
0-
#2425
b11 :
b11 C
b11 =
b11 @
1!
b10 7
1-
#2430
0-
#2435
b100 @
b100 =
b100 C
b100 :
1-
#2440
0-
#2445
b101 :
b101 C
b101 =
b101 @
1-
#2450
0-
#2455
b110 @
b110 =
b110 C
b110 :
1-
#2460
0-
#2465
b111 :
1)
b111 C
1+
b111 =
b111 @
1-
#2470
0-
#2475
b1000 @
0+
b1000 =
0)
b1000 C
b1000 :
b0 0
b0 ;
b0 /
b0 A
1-
#2480
0-
#2485
b1001 :
b1001 C
1"
b1001 =
1&
1'
b1001 @
1-
#2490
0-
#2495
b1010 @
b1010 =
b1010 C
b1010 :
1-
#2500
0-
#2505
b1011 :
b1011 C
b1011 =
b1011 @
1-
#2510
0-
#2515
b1100 @
b1100 =
b1100 C
b1100 :
1-
#2520
0-
#2525
b1101 :
b1101 C
b1101 =
b1101 @
1-
#2530
0-
#2535
b1110 @
b1110 =
b1110 C
b1110 :
1-
#2540
0-
#2545
1,
b1111 :
b1111 C
b1111 =
1*
b1111 @
1-
#2550
0-
#2555
13
0$
0*
b0 @
b0 =
b0 C
0(
0,
b0 :
b10000 1
b10000 >
b0 2
b0 8
1-
#2560
0-
#2565
b1 :
b1 C
0"
b1 =
0&
0'
b1 @
1%
0!
b0 7
b1 5
1-
#2570
0-
#2575
1#
b10 5
b10 @
b10 =
b10 C
b10 :
1-
#2580
0-
#2585
b11 :
b11 C
b11 =
b11 @
1-
#2590
0-
#2595
b100 @
b100 =
b100 C
b100 :
1-
#2600
0-
#2605
b101 :
b101 C
b101 =
b101 @
1-
#2610
0-
#2615
b110 @
b110 =
b110 C
b110 :
1-
#2620
0-
#2625
b111 :
1)
b111 C
1+
b111 =
b111 @
1-
#2630
0-
#2635
b1000 @
0+
b1000 =
0)
b1000 C
b1000 :
b1 0
b1 ;
b1 /
b1 A
1-
#2640
0-
#2645
b1001 :
b1001 C
1"
b1001 =
1&
1'
b1001 @
1-
#2650
0-
#2655
b1010 @
b1010 =
b1010 C
b1010 :
1-
#2660
0-
#2665
b1011 :
b1011 C
b1011 =
b1011 @
1-
#2670
0-
#2675
b1100 @
b1100 =
b1100 C
b1100 :
1-
#2680
0-
#2685
b1101 :
b1101 C
b1101 =
b1101 @
1-
#2690
0-
#2695
b1110 @
b1110 =
b1110 C
b1110 :
1-
#2700
0-
#2705
1,
b1111 :
b1111 C
b1111 =
1*
b1111 @
1-
#2710
0-
#2715
0*
b0 @
0'
b0 =
b0 C
0,
b0 :
b10001 1
b10001 >
b1 2
b1 8
1-
#2720
0-
#2725
03
b1 :
1(
b1 C
b1 =
b1 @
1-
#2730
0-
#2735
13
0#
b0 5
b1 7
b10 @
0&
b10 =
0"
b10 C
0(
b10 :
1-
#2740
0-
#2745
b11 :
b11 C
b11 =
b11 @
b0 7
b1 5
1-
#2750
0-
#2755
1#
b10 5
b100 @
b100 =
b100 C
b100 :
1-
#2760
0-
#2765
b101 :
b101 C
b101 =
b101 @
1-
#2770
0-
#2775
b110 @
b110 =
b110 C
b110 :
1-
#2780
0-
#2785
b111 :
1)
b111 C
1+
b111 =
b111 @
1-
#2790
0-
#2795
b1000 @
0+
b1000 =
0)
b1000 C
b1000 :
b10 0
b10 ;
b10 /
b10 A
1-
#2800
0-
#2805
b1001 :
b1001 C
1"
b1001 =
1&
1'
b1001 @
1-
#2810
0-
#2815
b1010 @
b1010 =
b1010 C
b1010 :
1-
#2820
0-
#2825
b1011 :
b1011 C
b1011 =
b1011 @
1-
#2830
0-
#2835
b1100 @
b1100 =
b1100 C
b1100 :
1-
#2840
0-
#2845
b1101 :
b1101 C
b1101 =
b1101 @
1-
#2850
0-
#2855
b1110 @
b1110 =
b1110 C
b1110 :
1-
#2860
0-
#2865
1,
b1111 :
b1111 C
b1111 =
0'
1*
b1111 @
1-
#2870
0-
#2875
0%
0*
b0 @
b0 =
b0 C
0,
b0 :
b10010 1
b10010 >
b10 2
b10 8
1-
#2880
0-
#2885
03
b1 :
1(
b1 C
b1 =
b1 @
1%
1-
#2890
0-
#2895
0#
b0 5
b1 7
b10 @
b10 =
b10 C
b10 :
1-
#2900
0-
#2905
13
b11 :
0(
b11 C
0"
b11 =
0&
b11 @
1!
b10 7
1-
#2910
0-
#2915
b1 5
0!
b0 7
b100 @
b100 =
b100 C
b100 :
1-
#2920
0-
#2925
b101 :
b101 C
b101 =
b101 @
1#
b10 5
1-
#2930
0-
#2935
b110 @
b110 =
b110 C
b110 :
1-
#2940
0-
#2945
b111 :
1)
b111 C
1+
b111 =
b111 @
1-
#2950
0-
#2955
b1000 @
0+
b1000 =
0)
b1000 C
b1000 :
b11 0
b11 ;
b11 /
b11 A
1-
#2960
0-
#2965
b1001 :
b1001 C
1"
b1001 =
1&
1'
b1001 @
1-
#2970
0-
#2975
b1010 @
b1010 =
b1010 C
b1010 :
1-
#2980
0-
#2985
b1011 :
b1011 C
b1011 =
b1011 @
1-
#2990
0-
#2995
b1100 @
b1100 =
b1100 C
b1100 :
1-
#3000
0-
#3005
b1101 :
b1101 C
b1101 =
b1101 @
1-
#3010
0-
#3015
b1110 @
0'
b1110 =
b1110 C
b1110 :
1-
#3020
0-
#3025
1,
b1111 :
b1111 C
b1111 =
1*
b1111 @
0%
1-
#3030
0-
#3035
0*
b0 @
b0 =
b0 C
0,
b0 :
b10011 1
b10011 >
b11 2
b11 8
1-
#3040
0-
#3045
03
b1 :
1(
b1 C
b1 =
b1 @
1%
1-
#3050
0-
#3055
0#
b0 5
b1 7
b10 @
b10 =
b10 C
b10 :
1-
#3060
0-
#3065
b11 :
b11 C
b11 =
b11 @
1!
b10 7
1-
#3070
0-
#3075
13
b100 @
0&
b100 =
0"
b100 C
0(
b100 :
1-
#3080
0-
#3085
b101 :
b101 C
b101 =
b101 @
0!
b0 7
b1 5
1-
#3090
0-
#3095
1#
b10 5
b110 @
b110 =
b110 C
b110 :
1-
#3100
0-
#3105
b111 :
1)
b111 C
1+
b111 =
b111 @
1-
