digital_osc_trigger/wave.vcd
$date
	Sun Mar 10 18:22:43 2024
$end
$version
	Icarus Verilog
$end
$timescale
	1ns
$end
$scope module TestOscopeTrigSmp $end
$var wire 1 ! trig_flag $end
$var wire 1 " smpEn $end
$var wire 8 # sig [7:0] $end
$var wire 8 $ dout [7:0] $end
$var wire 1 % busy $end
$var wire 8 & addr [7:0] $end
$var reg 1 ' clk $end
$var reg 10 ( hpos [9:0] $end
$var reg 8 ) level [7:0] $end
$var reg 1 * read $end
$var reg 1 + rst $end
$var reg 1 , start $end
$var reg 27 - to [26:0] $end
$scope module theOscpTrigSmp $end
$var wire 1 ' clk $end
$var wire 10 . hpos [9:0] $end
$var wire 8 / level [7:0] $end
$var wire 1 * read $end
$var wire 1 + rst $end
$var wire 1 , start $end
$var wire 27 0 to [26:0] $end
$var wire 1 1 trig $end
$var wire 1 2 write $end
$var wire 1 ! trig_flag $end
$var wire 10 3 fifo_dc [9:0] $end
$var wire 1 " en $end
$var wire 8 4 dout [7:0] $end
$var wire 8 5 din [7:0] $end
$var wire 1 % busy $end
$var parameter 32 6 DLEN $end
$scope module theFifo $end
$var wire 1 ' clk $end
$var wire 8 7 din [7:0] $end
$var wire 1 8 read $end
$var wire 1 + rst $end
$var wire 1 9 write $end
$var wire 8 : qout_b [7:0] $end
$var wire 1 ; full $end
$var wire 1 < empty $end
$var wire 8 = dout [7:0] $end
$var wire 10 > data_cnt [9:0] $end
$var parameter 32 ? AW $end
$var parameter 33 @ CAPACITY $end
$var parameter 32 A DW $end
$var reg 8 B qout_b_reg [7:0] $end
$var reg 10 C rd_cnt [9:0] $end
$var reg 1 D rd_dly $end
$var reg 10 E wr_cnt [9:0] $end
$scope module theRam $end
$var wire 10 F addr_a [9:0] $end
$var wire 10 G addr_b [9:0] $end
$var wire 1 ' clk $end
$var wire 8 H din_a [7:0] $end
$var wire 1 9 wr_a $end
$var parameter 32 I DW $end
$var parameter 32 J WORDS $end
$var reg 8 K qout_b [7:0] $end
$upscope $end
$upscope $end
$scope module theFsm $end
$var wire 1 % busy $end
$var wire 1 ' clk $end
$var wire 1 L data_cnt_clr $end
$var wire 1 M data_cnting $end
$var wire 1 2 fifo_write $end
$var wire 10 N hpos [9:0] $end
$var wire 1 + rst $end
$var wire 1 , start $end
$var wire 27 O to [26:0] $end
$var wire 1 1 trigger $end
$var wire 1 P trigger_flag_clr $end
$var wire 1 Q trigger_flag_set $end
$var wire 1 " en $end
$var parameter 32 R DLEN $end
$var parameter 5 S S_IDLE $end
$var parameter 5 T S_PRE $end
$var parameter 5 U S_TOUT $end
$var parameter 5 V S_TRIG $end
$var parameter 5 W S_WAIT $end
$var reg 10 X data_cnt [9:0] $end
$var reg 10 Y hpos_reg [9:0] $end
$var reg 5 Z state [4:0] $end
$var reg 5 [ state_nxt [4:0] $end
$var reg 27 \ to_reg [26:0] $end
$var reg 1 ! trigger_flag $end
$upscope $end
$scope begin $ivl_for_loop2 $end
$var integer 32 ] i [31:0] $end
$upscope $end
$upscope $end
$scope module theSig $end
$var wire 1 ' clk $end
$var wire 8 ^ din [7:0] $end
$var wire 1 _ we $end
$var wire 8 ` addr [7:0] $end
$var parameter 32 a DW $end
$var real 1 b PI $end
$var parameter 32 c WORDS $end
$var reg 8 d qout [7:0] $end
$scope begin $ivl_for_loop1 $end
$var integer 32 e i [31:0] $end
$upscope $end
$upscope $end
$scope module theSigGenAddr $end
$var wire 1 ' clk $end
$var wire 1 f co $end
$var wire 1 + rst $end
$var wire 1 " en $end
$var parameter 32 g M $end
$var reg 8 h cnt [7:0] $end
$upscope $end
$scope module theSmpRateGen $end
$var wire 1 ' clk $end
$var wire 1 " co $end
$var wire 1 i en $end
$var wire 1 + rst $end
$var parameter 32 j M $end
$var reg 2 k cnt [1:0] $end
$upscope $end
$upscope $end
$enddefinitions $end
$comment Show the parameter values. $end
$dumpall
b100 j
b100000000 g
b100000000 c
r3.141592653589793 b
b1000 a
b100 W
b1000 V
b10000 U
b10 T
b1 S
b1111101000 R
b10000000000 J
b1000 I
b1000 A
b1111111111 @
b1010 ?
b1111101000 6
$end
#0
$dumpvars
bx k
1i
bx h
xf
b100000000 e
bx d
bx `
0_
b0 ^
bx ]
bx \
bx [
bx Z
bx Y
bx X
xQ
xP
b0 O
b111110100 N
xM
xL
bx K
bx H
b0 G
b0 F
b0 E
xD
b0 C
b0 B
b0 >
bx =
1<
0;
bx :
x9
08
bx 7
bx 5
bx 4
b0 3
x2
x1
b0 0
b0 /
b111110100 .
b0 -
0,
1+
0*
b0 )
b111110100 (
0'
bx &
x%
bx $
bx #
x"
x!
$end
#2
0+
#5
0f
09
01
0"
b0 $
b0 4
b0 =
b0 k
0D
1'
#10
0'
#15
b1 k
1'
#20
0'
#25
b10 k
1'
#30
0'
#35
xf
x9
x1
1"
b11 k
1'
#40
0'
#45
09
01
0"
0f
b0 k
b0 &
b0 `
b0 h
1'
#50
0'
#55
1,
b1100100 )
b1100100 /
b11111010 (
b11111010 .
b11111010 N
b100101100 -
b100101100 0
b100101100 O
b0 #
b0 5
b0 d
b1 k
1'
#60
0'
#65
b10 k
b11111010 Y
b100101100 \
0,
1'
#70
0'
#75
x9
x1
1"
b11 k
1'
#80
0'
#85
09
01
0"
b0 k
b1 &
b1 `
b1 h
1'
#90
0'
#95
b11 #
b11 5
b11 d
b1 k
1'
#100
0'
#105
b10 k
1'
#110
0'
#115
x9
1"
b11 k
1'
#120
0'
#125
09
0"
b0 k
b10 &
b10 `
b10 h
b0 7
b0 H
1'
#130
0'
#135
b110 #
b110 5
b110 d
b1 k
1'
#140
0'
#145
b10 k
1'
#150
0'
#155
x9
1"
b11 k
1'
#160
0'
#165
09
0"
b0 k
b11 &
b11 `
b11 h
b11 7
b11 H
1'
#170
0'
#175
b1001 #
b1001 5
b1001 d
b1 k
1'
#180
0'
#185
b10 k
1'
#190
0'
#195
x9
1"
b11 k
1'
#200
0'
#205
09
0"
b0 k
b100 &
b100 `
b100 h
b110 7
b110 H
1'
#210
0'
#215
b1100 #
b1100 5
b1100 d
b1 k
1'
#220
0'
#225
b10 k
1'
#230
0'
#235
x9
1"
b11 k
1'
#240
0'
#245
09
0"
b0 k
b101 &
b101 `
b101 h
b1001 7
b1001 H
1'
#250
0'
#255
b10000 #
b10000 5
b10000 d
b1 k
1'
#260
0'
#265
b10 k
1'
#270
0'
#275
x9
1"
b11 k
1'
#280
0'
#285
09
0"
b0 k
b110 &
b110 `
b110 h
b1100 7
b1100 H
1'
#290
0'
#295
b10011 #
b10011 5
b10011 d
b1 k
1'
#300
0'
#305
b10 k
1'
#310
0'
#315
x9
1"
b11 k
1'
#320
0'
#325
09
0"
b0 k
b111 &
b111 `
b111 h
b10000 7
b10000 H
1'
#330
0'
#335
b10110 #
b10110 5
b10110 d
b1 k
1'
#340
0'
#345
b10 k
1'
#350
0'
#355
x9
1"
b11 k
1'
#360
0'
#365
09
0"
b0 k
b1000 &
b1000 `
b1000 h
b10011 7
b10011 H
1'
#370
0'
#375
b11001 #
b11001 5
b11001 d
b1 k
1'
#380
0'
#385
b10 k
1'
#390
0'
#395
x9
1"
b11 k
1'
#400
0'
#405
09
0"
b0 k
b1001 &
b1001 `
b1001 h
b10110 7
b10110 H
1'
#410
0'
#415
b11100 #
b11100 5
b11100 d
b1 k
1'
#420
0'
#425
b10 k
1'
#430
0'
#435
x9
1"
b11 k
1'
#440
0'
#445
09
0"
b0 k
b1010 &
b1010 `
b1010 h
b11001 7
b11001 H
1'
#450
0'
#455
b11111 #
b11111 5
b11111 d
b1 k
1'
#460
0'
#465
b10 k
1'
#470
0'
#475
x9
1"
b11 k
1'
#480
0'
#485
09
0"
b0 k
b1011 &
b1011 `
b1011 h
b11100 7
b11100 H
1'
#490
0'
#495
b100010 #
b100010 5
b100010 d
b1 k
1'
#500
0'
#505
b10 k
1'
#510
0'
#515
x9
1"
b11 k
1'
#520
0'
#525
09
0"
b0 k
b1100 &
b1100 `
b1100 h
b11111 7
b11111 H
1'
#530
0'
#535
b100101 #
b100101 5
b100101 d
b1 k
1'
#540
0'
#545
b10 k
1'
#550
0'
#555
x9
1"
b11 k
1'
#560
0'
#565
09
0"
b0 k
b1101 &
b1101 `
b1101 h
b100010 7
b100010 H
1'
#570
0'
#575
b101000 #
b101000 5
b101000 d
b1 k
1'
#580
0'
#585
b10 k
1'
#590
0'
#595
x9
1"
b11 k
1'
#600
0'
#605
09
0"
b0 k
b1110 &
b1110 `
b1110 h
b100101 7
b100101 H
1'
#610
0'
#615
b101011 #
b101011 5
b101011 d
b1 k
1'
#620
0'
#625
b10 k
1'
#630
0'
#635
x9
1"
b11 k
1'
#640
0'
#645
09
0"
b0 k
b1111 &
b1111 `
b1111 h
b101000 7
b101000 H
1'
#650
0'
#655
b101110 #
b101110 5
b101110 d
b1 k
1'
#660
0'
#665
b10 k
1'
#670
0'
#675
x9
1"
b11 k
1'
#680
0'
#685
09
0"
b0 k
b10000 &
b10000 `
b10000 h
b101011 7
b101011 H
1'
#690
0'
#695
b110001 #
b110001 5
b110001 d
b1 k
1'
#700
0'
#705
b10 k
1'
#710
0'
#715
x9
1"
b11 k
1'
#720
0'
#725
09
0"
b0 k
b10001 &
b10001 `
b10001 h
b101110 7
b101110 H
1'
#730
0'
#735
b110011 #
b110011 5
b110011 d
b1 k
1'
#740
0'
#745
b10 k
1'
#750
0'
#755
x9
1"
b11 k
1'
#760
0'
#765
09
0"
b0 k
b10010 &
b10010 `
b10010 h
b110001 7
b110001 H
1'
#770
0'
#775
b110110 #
b110110 5
b110110 d
b1 k
1'
#780
0'
#785
b10 k
1'
#790
0'
#795
x9
1"
b11 k
1'
#800
0'
#805
09
0"
b0 k
b10011 &
b10011 `
b10011 h
b110011 7
b110011 H
1'
#810
0'
#815
b111001 #
b111001 5
b111001 d
b1 k
1'
#820
0'
#825
b10 k
1'
#830
0'
#835
x9
1"
b11 k
1'
#840
0'
#845
09
0"
b0 k
b10100 &
b10100 `
b10100 h
b110110 7
b110110 H
1'
#850
0'
#855
b111100 #
b111100 5
b111100 d
b1 k
1'
#860
0'
#865
b10 k
1'
#870
0'
#875
x9
1"
b11 k
1'
#880
0'
#885
09
0"
b0 k
b10101 &
b10101 `
b10101 h
b111001 7
b111001 H
1'
#890
0'
#895
b111111 #
b111111 5
b111111 d
b1 k
1'
#900
0'
#905
b10 k
1'
#910
0'
#915
x9
1"
b11 k
1'
#920
0'
#925
09
0"
b0 k
b10110 &
b10110 `
b10110 h
b111100 7
b111100 H
1'
#930
0'
#935
b1000001 #
b1000001 5
b1000001 d
b1 k
1'
#940
0'
#945
b10 k
1'
#950
0'
#955
x9
1"
b11 k
1'
#960
0'
#965
09
0"
b0 k
b10111 &
b10111 `
b10111 h
b111111 7
b111111 H
1'
#970
0'
#975
b1000100 #
b1000100 5
b1000100 d
b1 k
1'
#980
0'
#985
b10 k
1'
#990
0'
#995
x9
1"
b11 k
1'
#1000
0'
#1005
09
0"
b0 k
b11000 &
b11000 `
b11000 h
b1000001 7
b1000001 H
1'
#1010
0'
#1015
b1000111 #
b1000111 5
b1000111 d
b1 k
1'
#1020
0'
#1025
b10 k
1'
#1030
0'
#1035
x9
1"
b11 k
1'
#1040
0'
#1045
09
0"
b0 k
b11001 &
b11001 `
b11001 h
b1000100 7
b1000100 H
1'
#1050
0'
#1055
b1001001 #
b1001001 5
b1001001 d
b1 k
1'
#1060
0'
#1065
b10 k
1'
#1070
0'
#1075
x9
1"
b11 k
1'
#1080
0'
#1085
09
0"
b0 k
b11010 &
b11010 `
b11010 h
b1000111 7
b1000111 H
1'
#1090
0'
#1095
b1001100 #
b1001100 5
b1001100 d
b1 k
1'
#1100
0'
#1105
b10 k
1'
#1110
0'
#1115
x9
1"
b11 k
1'
#1120
0'
#1125
09
0"
b0 k
b11011 &
b11011 `
b11011 h
b1001001 7
b1001001 H
1'
#1130
0'
#1135
b1001110 #
b1001110 5
b1001110 d
b1 k
1'
#1140
0'
#1145
b10 k
1'
#1150
0'
#1155
x9
1"
b11 k
1'
#1160
0'
#1165
09
0"
b0 k
b11100 &
b11100 `
b11100 h
b1001100 7
b1001100 H
1'
#1170
0'
#1175
b1010001 #
b1010001 5
b1010001 d
b1 k
1'
#1180
0'
#1185
b10 k
1'
#1190
0'
#1195
x9
1"
b11 k
1'
#1200
0'
#1205
09
0"
b0 k
b11101 &
b11101 `
b11101 h
b1001110 7
b1001110 H
1'
#1210
0'
#1215
b1010011 #
b1010011 5
b1010011 d
b1 k
1'
#1220
0'
#1225
b10 k
1'
#1230
0'
#1235
x9
1"
b11 k
1'
#1240
0'
#1245
09
0"
b0 k
b11110 &
b11110 `
b11110 h
b1010001 7
b1010001 H
1'
#1250
0'
#1255
b1010101 #
b1010101 5
b1010101 d
b1 k
1'
#1260
0'
#1265
b10 k
1'
#1270
0'
#1275
x9
1"
b11 k
1'
#1280
0'
#1285
09
0"
b0 k
b11111 &
b11111 `
b11111 h
b1010011 7
b1010011 H
1'
#1290
0'
#1295
b1011000 #
b1011000 5
b1011000 d
b1 k
1'
#1300
0'
#1305
b10 k
1'
#1310
0'
#1315
x9
1"
b11 k
1'
#1320
0'
#1325
09
0"
b0 k
b100000 &
b100000 `
b100000 h
b1010101 7
b1010101 H
1'
#1330
0'
#1335
b1011010 #
b1011010 5
b1011010 d
b1 k
1'
#1340
0'
#1345
b10 k
1'
#1350
0'
#1355
x9
1"
b11 k
1'
#1360
0'
#1365
09
0"
b0 k
b100001 &
b100001 `
b100001 h
b1011000 7
b1011000 H
1'
#1370
0'
#1375
b1011100 #
b1011100 5
b1011100 d
b1 k
1'
#1380
0'
#1385
b10 k
1'
#1390
0'
#1395
x9
1"
b11 k
1'
#1400
0'
#1405
09
0"
b0 k
b100010 &
b100010 `
b100010 h
b1011010 7
b1011010 H
1'
#1410
0'
#1415
b1011110 #
b1011110 5
b1011110 d
b1 k
1'
#1420
0'
#1425
b10 k
1'
#1430
0'
#1435
x9
1"
b11 k
1'
#1440
0'
#1445
09
0"
b0 k
b100011 &
b100011 `
b100011 h
b1011100 7
b1011100 H
1'
#1450
0'
#1455
b1100000 #
b1100000 5
b1100000 d
b1 k
1'
#1460
0'
#1465
b10 k
1'
#1470
0'
#1475
x9
1"
b11 k
1'
#1480
0'
#1485
09
0"
b0 k
b100100 &
b100100 `
b100100 h
b1011110 7
b1011110 H
1'
#1490
0'
#1495
b1100010 #
b1100010 5
b1100010 d
b1 k
1'
#1500
0'
#1505
b10 k
1'
#1510
0'
#1515
x9
1"
b11 k
1'
#1520
0'
#1525
09
0"
b0 k
b100101 &
b100101 `
b100101 h
b1100000 7
b1100000 H
1'
#1530
0'
#1535
b1100100 #
b1100100 5
b1100100 d
b1 k
1'
#1540
0'
#1545
b10 k
1'
#1550
0'
#1555
x9
1"
b11 k
1'
#1560
0'
#1565
09
0"
b0 k
b100110 &
b100110 `
b100110 h
b1100010 7
b1100010 H
1'
#1570
0'
#1575
b1100110 #
b1100110 5
b1100110 d
b1 k
1'
#1580
0'
#1585
b10 k
1'
#1590
0'
#1595
x9
11
1"
b11 k
1'
#1600
0'
#1605
09
01
0"
b0 k
b100111 &
b100111 `
b100111 h
b1100100 7
b1100100 H
1'
#1610
0'
#1615
b1101000 #
b1101000 5
b1101000 d
b1 k
1'
#1620
0'
#1625
b10 k
1'
#1630
0'
#1635
x9
1"
b11 k
1'
#1640
0'
#1645
09
0"
b0 k
b101000 &
b101000 `
b101000 h
b1100110 7
b1100110 H
1'
#1650
0'
#1655
b1101010 #
b1101010 5
b1101010 d
b1 k
1'
#1660
0'
#1665
b10 k
1'
#1670
0'
#1675
x9
1"
b11 k
1'
#1680
0'
#1685
09
0"
b0 k
b101001 &
b101001 `
b101001 h
b1101000 7
b1101000 H
1'
#1690
0'
#1695
b1101011 #
b1101011 5
b1101011 d
b1 k
1'
#1700
0'
#1705
b10 k
1'
#1710
0'
#1715
x9
1"
b11 k
1'
#1720
0'
#1725
09
0"
b0 k
b101010 &
b101010 `
b101010 h
b1101010 7
b1101010 H
1'
#1730
0'
#1735
b1101101 #
b1101101 5
b1101101 d
b1 k
1'
#1740
0'
#1745
b10 k
1'
#1750
0'
#1755
x9
1"
b11 k
1'
#1760
0'
#1765
09
0"
b0 k
b101011 &
b101011 `
b101011 h
b1101011 7
b1101011 H
1'
#1770
0'
#1775
b1101111 #
b1101111 5
b1101111 d
b1 k
1'
#1780
0'
#1785
b10 k
1'
#1790
0'
#1795
x9
1"
b11 k
1'
#1800
0'
#1805
09
0"
b0 k
b101100 &
b101100 `
b101100 h
b1101101 7
b1101101 H
1'
#1810
0'
#1815
b1110000 #
b1110000 5
b1110000 d
b1 k
1'
#1820
0'
#1825
b10 k
1'
#1830
0'
#1835
x9
1"
b11 k
1'
#1840
0'
#1845
09
0"
b0 k
b101101 &
b101101 `
b101101 h
b1101111 7
b1101111 H
1'
#1850
0'
#1855
b1110001 #
b1110001 5
b1110001 d
b1 k
1'
#1860
0'
#1865
b10 k
1'
#1870
0'
#1875
x9
1"
b11 k
1'
#1880
0'
#1885
09
0"
b0 k
b101110 &
b101110 `
b101110 h
b1110000 7
b1110000 H
1'
#1890
0'
#1895
b1110011 #
b1110011 5
b1110011 d
b1 k
1'
#1900
0'
#1905
b10 k
1'
#1910
0'
#1915
x9
1"
b11 k
1'
#1920
0'
#1925
09
0"
b0 k
b101111 &
b101111 `
b101111 h
b1110001 7
b1110001 H
1'
#1930
0'
#1935
b1110100 #
b1110100 5
b1110100 d
b1 k
1'
#1940
0'
#1945
b10 k
1'
#1950
0'
#1955
x9
1"
b11 k
1'
#1960
0'
#1965
09
0"
b0 k
b110000 &
b110000 `
b110000 h
b1110011 7
b1110011 H
1'
#1970
0'
#1975
b1110101 #
b1110101 5
b1110101 d
b1 k
1'
#1980
0'
#1985
b10 k
1'
#1990
0'
#1995
x9
1"
b11 k
1'
#2000
0'
#2005
09
0"
b0 k
b110001 &
b110001 `
b110001 h
b1110100 7
b1110100 H
1'
#2010
0'
#2015
b1110110 #
b1110110 5
b1110110 d
b1 k
1'
#2020
0'
#2025
b10 k
1'
#2030
0'
#2035
x9
1"
b11 k
1'
#2040
0'
#2045
09
0"
b0 k
b110010 &
b110010 `
b110010 h
b1110101 7
b1110101 H
1'
#2050
0'
#2055
b1111000 #
b1111000 5
b1111000 d
b1 k
1'
#2060
0'
#2065
b10 k
1'
#2070
0'
#2075
x9
1"
b11 k
1'
#2080
0'
#2085
09
0"
b0 k
b110011 &
b110011 `
b110011 h
b1110110 7
b1110110 H
1'
#2090
0'
#2095
b1111001 #
b1111001 5
b1111001 d
b1 k
1'
#2100
0'
#2105
b10 k
1'
#2110
0'
#2115
x9
1"
b11 k
1'
#2120
0'
#2125
09
0"
b0 k
b110100 &
b110100 `
b110100 h
b1111000 7
b1111000 H
1'
#2130
0'
#2135
b1111010 #
b1111010 5
b1111010 d
b1 k
1'
#2140
0'
#2145
b10 k
1'
#2150
0'
#2155
x9
1"
b11 k
1'
#2160
0'
#2165
09
0"
b0 k
b110101 &
b110101 `
b110101 h
b1111001 7
b1111001 H
1'
#2170
0'
#2175
b1 k
1'
#2180
0'
#2185
b10 k
1'
#2190
0'
#2195
x9
1"
b11 k
1'
#2200
0'
#2205
09
0"
b0 k
b110110 &
b110110 `
b110110 h
b1111010 7
b1111010 H
1'
#2210
0'
#2215
b1111011 #
b1111011 5
b1111011 d
b1 k
1'
#2220
0'
#2225
b10 k
1'
#2230
0'
#2235
x9
1"
b11 k
1'
#2240
0'
#2245
09
0"
b0 k
b110111 &
b110111 `
b110111 h
1'
#2250
0'
#2255
b1111100 #
b1111100 5
b1111100 d
b1 k
1'
#2260
0'
#2265
b10 k
1'
#2270
0'
#2275
x9
1"
b11 k
1'
#2280
0'
#2285
09
0"
b0 k
b111000 &
b111000 `
b111000 h
b1111011 7
b1111011 H
1'
#2290
0'
#2295
b1111101 #
b1111101 5
b1111101 d
b1 k
1'
#2300
0'
#2305
b10 k
1'
#2310
0'
#2315
x9
1"
b11 k
1'
#2320
0'
#2325
09
0"
b0 k
b111001 &
b111001 `
b111001 h
b1111100 7
b1111100 H
1'
#2330
0'
#2335
b1 k
1'
#2340
0'
#2345
b10 k
1'
#2350
0'
#2355
x9
1"
b11 k
1'
#2360
0'
#2365
09
0"
b0 k
b111010 &
b111010 `
b111010 h
b1111101 7
b1111101 H
1'
#2370
0'
#2375
b1111110 #
b1111110 5
b1111110 d
b1 k
1'
#2380
0'
#2385
b10 k
1'
#2390
0'
#2395
x9
1"
b11 k
1'
#2400
0'
#2405
09
0"
b0 k
b111011 &
b111011 `
b111011 h
1'
#2410
0'
#2415
b1 k
1'
#2420
0'
#2425
b10 k
1'
#2430
0'
#2435
x9
1"
b11 k
1'
#2440
0'
#2445
09
0"
b0 k
b111100 &
b111100 `
b111100 h
b1111110 7
b1111110 H
1'
#2450
0'
#2455
b1 k
1'
#2460
0'
#2465
b10 k
1'
#2470
0'
#2475
x9
1"
b11 k
1'
#2480
0'
#2485
09
0"
b0 k
b111101 &
b111101 `
b111101 h
1'
#2490
0'
#2495
b1111111 #
b1111111 5
b1111111 d
b1 k
1'
#2500
0'
#2505
b10 k
1'
#2510
0'
#2515
x9
1"
b11 k
1'
#2520
0'
#2525
09
0"
b0 k
b111110 &
b111110 `
b111110 h
1'
#2530
0'
#2535
b1 k
1'
#2540
0'
#2545
b10 k
1'
#2550
0'
#2555
x9
1"
b11 k
1'
#2560
0'
#2565
09
0"
b0 k
b111111 &
b111111 `
b111111 h
b1111111 7
b1111111 H
1'
#2570
0'
#2575
b1 k
1'
#2580
0'
#2585
b10 k
1'
#2590
0'
#2595
x9
1"
b11 k
1'
#2600
0'
#2605
09
0"
b0 k
b1000000 &
b1000000 `
b1000000 h
1'
#2610
0'
#2615
b1 k
1'
#2620
0'
#2625
b10 k
1'
#2630
0'
#2635
x9
1"
b11 k
1'
#2640
0'
#2645
09
0"
b0 k
b1000001 &
b1000001 `
b1000001 h
1'
#2650
0'
#2655
b1 k
1'
#2660
0'
#2665
b10 k
1'
#2670
0'
#2675
x9
1"
b11 k
1'
#2680
0'
#2685
09
0"
b0 k
b1000010 &
b1000010 `
b1000010 h
1'
#2690
0'
#2695
b1 k
1'
#2700
0'
#2705
b10 k
1'
#2710
0'
#2715
x9
1"
b11 k
1'
#2720
0'
#2725
09
0"
b0 k
b1000011 &
b1000011 `
b1000011 h
1'
#2730
0'
#2735
b1 k
1'
#2740
0'
#2745
b10 k
1'
#2750
0'
#2755
x9
1"
b11 k
1'
#2760
0'
#2765
09
0"
b0 k
b1000100 &
b1000100 `
b1000100 h
1'
#2770
0'
#2775
b1111110 #
b1111110 5
b1111110 d
b1 k
1'
#2780
0'
#2785
b10 k
1'
#2790
0'
#2795
x9
1"
b11 k
1'
#2800
0'
#2805
09
0"
b0 k
b1000101 &
b1000101 `
b1000101 h
1'
#2810
0'
#2815
b1 k
1'
#2820
0'
#2825
b10 k
1'
#2830
0'
#2835
x9
1"
b11 k
1'
#2840
0'
#2845
09
0"
b0 k
b1000110 &
b1000110 `
b1000110 h
b1111110 7
b1111110 H
1'
#2850
0'
#2855
b1 k
1'
#2860
0'
#2865
b10 k
1'
#2870
0'
#2875
x9
1"
b11 k
1'
#2880
0'
#2885
09
0"
b0 k
b1000111 &
b1000111 `
b1000111 h
1'
#2890
0'
#2895
b1111101 #
b1111101 5
b1111101 d
b1 k
1'
#2900
0'
#2905
b10 k
1'
#2910
0'
#2915
x9
1"
b11 k
1'
#2920
0'
#2925
09
0"
b0 k
b1001000 &
b1001000 `
b1001000 h
1'
#2930
0'
#2935
b1 k
1'
#2940
0'
#2945
b10 k
1'
#2950
0'
#2955
x9
1"
b11 k
1'
#2960
0'
#2965
09
0"
b0 k
b1001001 &
b1001001 `
b1001001 h
b1111101 7
b1111101 H
1'
#2970
0'
#2975
b1111100 #
b1111100 5
b1111100 d
b1 k
1'
#2980
0'
#2985
b10 k
1'
#2990
0'
#2995
x9
1"
b11 k
1'
#3000
0'
#3005
09
0"
b0 k
b1001010 &
b1001010 `
b1001010 h
1'
#3010
0'
#3015
b1111011 #
b1111011 5
b1111011 d
b1 k
1'
#3020
0'
#3025
b10 k
1'
#3030
0'
#3035
x9
1"
b11 k
1'
#3040
0'
#3045
09
0"
b0 k
b1001011 &
b1001011 `
b1001011 h
b1111100 7
b1111100 H
1'
#3050
0'
#3055
b1111010 #
b1111010 5
b1111010 d
b1 k
1'
#3060
0'
#3065
b10 k
1'
#3070
0'
#3075
x9
1"
b11 k
1'
#3080
0'
#3085
09
0"
b0 k
b1001100 &
b1001100 `
b1001100 h
b1111011 7
b1111011 H
1'
#3090
0'
#3095
b1 k
1'
#3100
0'
#3105
b10 k
1'
#3110
0'
#3115
x9
1"
b11 k
1'
#3120
0'
#3125
09
0"
b0 k
b1001101 &
b1001101 `
b1001101 h
b1111010 7
b1111010 H
1'
#3130
0'
#3135
b1111001 #
b1111001 5
b1111001 d
b1 k
1'
#3140
0'
#3145
b10 k
1'
#3150
0'
#3155
x9
1"
b11 k
1'
#3160
0'
#3165
09
0"
b0 k
b1001110 &
b1001110 `
b1001110 h
1'
#3170
0'
#3175
b1111000 #
b1111000 5
b1111000 d
b1 k
1'
#3180
0'
#3185
b10 k
1'
#3190
0'
#3195
x9
1"
b11 k
1'
#3200
0'
#3205
09
0"
b0 k
b1001111 &
b1001111 `
b1001111 h
b1111001 7
b1111001 H
1'
#3210
0'
#3215
b1110110 #
b1110110 5
b1110110 d
b1 k
1'
#3220
0'
#3225
b10 k
1'
#3230
0'
#3235
x9
1"
b11 k
1'
#3240
0'
#3245
09
0"
b0 k
b1010000 &
b1010000 `
b1010000 h
b1111000 7
b1111000 H
1'
#3250
0'
#3255
b1110101 #
b1110101 5
b1110101 d
b1 k
1'
#3260
0'
#3265
b10 k
1'
#3270
0'
#3275
x9
1"
b11 k
1'
#3280
0'
#3285
09
0"
b0 k
b1010001 &
b1010001 `
b1010001 h
b1110110 7
b1110110 H
1'
#3290
0'
#3295
b1110100 #
b1110100 5
b1110100 d
b1 k
1'
#3300
0'
#3305
b10 k
1'
#3310
0'
#3315
x9
1"
b11 k
1'
#3320
0'
#3325
09
0"
b0 k
b1010010 &
b1010010 `
b1010010 h
b1110101 7
b1110101 H
1'
#3330
0'
#3335
b1110011 #
b1110011 5
b1110011 d
b1 k
1'
#3340
0'
#3345
b10 k
1'
#3350
0'
#3355
x9
1"
b11 k
1'
#3360
0'
#3365
09
0"
b0 k
b1010011 &
b1010011 `
b1010011 h
b1110100 7
b1110100 H
1'
#3370
0'
#3375
b1110001 #
b1110001 5
b1110001 d
b1 k
1'
#3380
0'
#3385
b10 k
1'
#3390
0'
#3395
x9
1"
b11 k
1'
#3400
0'
#3405
09
0"
b0 k
b1010100 &
b1010100 `
b1010100 h
b1110011 7
b1110011 H
1'
#3410
0'
#3415
b1110000 #
b1110000 5
b1110000 d
b1 k
1'
#3420
0'
#3425
b10 k
1'
#3430
0'
#3435
x9
1"
b11 k
1'
#3440
0'
#3445
09
0"
b0 k
b1010101 &
b1010101 `
b1010101 h
b1110001 7
b1110001 H
1'
#3450
0'
#3455
b1101111 #
b1101111 5
b1101111 d
b1 k
1'
#3460
0'
#3465
b10 k
1'
#3470
0'
#3475
x9
1"
b11 k
1'
#3480
0'
#3485
09
0"
b0 k
b1010110 &
b1010110 `
b1010110 h
b1110000 7
b1110000 H
1'
#3490
0'
#3495
b1101101 #
b1101101 5
b1101101 d
b1 k
1'
#3500
0'
#3505
b10 k
1'
#3510
0'
#3515
x9
1"
b11 k
1'
#3520
0'
#3525
09
0"
b0 k
b1010111 &
b1010111 `
b1010111 h
b1101111 7
b1101111 H
1'
#3530
0'
#3535
b1101011 #
b1101011 5
b1101011 d
b1 k
1'
#3540
0'
#3545
b10 k
1'
#3550
0'
#3555
x9
1"
b11 k
1'
#3560
0'
#3565
09
0"
b0 k
b1011000 &
b1011000 `
b1011000 h
b1101101 7
b1101101 H
1'
#3570
0'
#3575
b1101010 #
b1101010 5
b1101010 d
b1 k
1'
#3580
0'
#3585
b10 k
1'
#3590
0'
#3595
x9
1"
b11 k
1'
#3600
0'
#3605
09
0"
b0 k
b1011001 &
b1011001 `
b1011001 h
b1101011 7
b1101011 H
1'
#3610
0'
#3615
b1101000 #
b1101000 5
b1101000 d
b1 k
1'
#3620
0'
#3625
b10 k
1'
#3630
0'
#3635
x9
1"
b11 k
1'
#3640
0'
#3645
09
0"
b0 k
b1011010 &
b1011010 `
b1011010 h
b1101010 7
b1101010 H
1'
#3650
0'
#3655
b1100110 #
b1100110 5
b1100110 d
b1 k
1'
#3660
0'
#3665
b10 k
1'
#3670
0'
#3675
x9
1"
b11 k
1'
#3680
0'
#3685
09
0"
b0 k
b1011011 &
b1011011 `
b1011011 h
b1101000 7
b1101000 H
1'
#3690
0'
#3695
b1100100 #
b1100100 5
b1100100 d
b1 k
1'
#3700
0'
#3705
b10 k
1'
#3710
0'
#3715
x9
1"
b11 k
1'
#3720
0'
#3725
09
0"
b0 k
b1011100 &
b1011100 `
b1011100 h
b1100110 7
b1100110 H
1'
#3730
0'
#3735
b1100010 #
b1100010 5
b1100010 d
b1 k
1'
#3740
0'
#3745
b10 k
1'
#3750
0'
#3755
x9
1"
b11 k
1'
#3760
0'
#3765
09
0"
b0 k
b1011101 &
b1011101 `
b1011101 h
b1100100 7
b1100100 H
1'
#3770
0'
#3775
b1100000 #
b1100000 5
b1100000 d
b1 k
1'
#3780
0'
#3785
b10 k
1'
#3790
0'
#3795
x9
1"
b11 k
1'
#3800
0'
#3805
09
0"
b0 k
b1011110 &
b1011110 `
b1011110 h
b1100010 7
b1100010 H
1'
#3810
0'
