cordic_better/wave.vcd
$date
	Sun Apr 14 12:48:58 2024
$end
$version
	Icarus Verilog
$end
$timescale
	1ns
$end
$scope module TestCordic $end
$var wire 17 ! y_o [16:0] $end
$var wire 17 " x_o [16:0] $end
$var wire 17 # theta_o [16:0] $end
$var reg 1 $ clock $end
$var reg 17 % ex [16:0] $end
$var reg 17 & ey [16:0] $end
$var reg 1 ' init $end
$var reg 1 ( reset $end
$var reg 17 ) theta_i [16:0] $end
$var reg 17 * x_i [16:0] $end
$var reg 17 + y_i [16:0] $end
$var real 1 , a_e $end
$var real 1 - a_i $end
$var real 1 . a_o $end
$var integer 32 / i [31:0] $end
$var integer 32 0 j [31:0] $end
$var real 1 1 rx $end
$var real 1 2 ry $end
$scope module UUT $end
$var wire 1 $ clk $end
$var wire 1 ' init $end
$var wire 1 ( rst $end
$var wire 17 3 theta_i [16:0] $end
$var wire 17 4 x_i [16:0] $end
$var wire 17 5 y_i [16:0] $end
$var wire 17 6 z [16:0] $end
$var wire 17 7 y_o [16:0] $end
$var wire 17 8 y [16:0] $end
$var wire 17 9 x_o [16:0] $end
$var wire 17 : x [16:0] $end
$var wire 17 ; theta_o [16:0] $end
$var reg 5 < iteration [4:0] $end
$scope function tanangle $end
$var reg 4 = i [3:0] $end
$upscope $end
$scope module U $end
$var wire 1 $ clk $end
$var wire 1 ' init $end
$var wire 5 > iteration [4:0] $end
$var wire 1 ( rst $end
$var wire 17 ? tangle [16:0] $end
$var wire 17 @ x_i [16:0] $end
$var wire 17 A x_o [16:0] $end
$var wire 17 B y_i [16:0] $end
$var wire 17 C y_o [16:0] $end
$var wire 17 D z_i [16:0] $end
$var wire 17 E z_o [16:0] $end
$var wire 17 F y_i_shifted [16:0] $end
$var wire 17 G x_i_shifted [16:0] $end
$var reg 17 H x_1 [16:0] $end
$var reg 17 I y_1 [16:0] $end
$var reg 17 J z_1 [16:0] $end
$scope module x_shifter $end
$var wire 17 K D [16:0] $end
$var wire 4 L i [3:0] $end
$var reg 17 M Q [16:0] $end
$var integer 32 N j [31:0] $end
$upscope $end
$scope module y_shifter $end
$var wire 17 O D [16:0] $end
$var wire 4 P i [3:0] $end
$var reg 17 Q Q [16:0] $end
$var integer 32 R j [31:0] $end
$upscope $end
$upscope $end
$upscope $end
$scope task show_results $end
$var reg 17 S ltheta [16:0] $end
$var reg 17 T lx [16:0] $end
$var reg 17 U ly [16:0] $end
$var integer 32 V j [31:0] $end
$upscope $end
$scope task show_rotate_results $end
$var reg 17 W lx [16:0] $end
$var reg 17 X ly [16:0] $end
$var integer 32 Y j [31:0] $end
$upscope $end
$scope task show_vector_results $end
$var reg 17 Z theta [16:0] $end
$var integer 32 [ j [31:0] $end
$upscope $end
$upscope $end
$enddefinitions $end
$comment Show the parameter values. $end
$dumpall
$end
#0
$dumpvars
bx [
bx Z
bx Y
bx X
bx W
bx V
bx U
bx T
bx S
bx R
bx Q
bx P
bx O
bx N
bx M
bx L
bx K
bx J
bx I
bx H
bx G
bx F
bx E
bx D
bx C
bx B
bx A
bx @
bx ?
bx >
bx =
bx <
bx ;
bx :
bx 9
bx 8
bx 7
bx 6
b0 5
b0 4
b0 3
r0 2
r0 1
bx 0
bx /
r0 .
r0 -
r0 ,
b0 +
b0 *
b0 )
1(
0'
bx &
bx %
0$
bx #
bx "
bx !
$end
#1
b0 R
b0 F
b0 Q
b0 N
b0 G
b0 M
b0 6
b0 D
b0 8
b0 B
b0 O
b0 :
b0 @
b0 K
b0 #
b0 ;
b0 E
b0 J
b0 !
b0 7
b0 C
b0 I
b0 "
b0 9
b0 A
b0 H
1$
#2
b110010010000111 ?
b0 =
b0 L
b0 P
b0 <
b0 >
b100110110111000 G
b100110110111000 M
b100110110111000 :
b100110110111000 @
b100110110111000 K
1'
b100110110111000 *
b100110110111000 4
0(
0$
b0 0
#3
b100110110111000 "
b100110110111000 9
b100110110111000 A
b100110110111000 H
1$
#4
0'
0$
b0 /
#5
b11101101011000 ?
b1 =
b1 N
b10011011011100 G
b10011011011100 M
b1 R
b10011011011100 F
b10011011011100 Q
b11001101101111001 6
b11001101101111001 D
b100110110111000 8
b100110110111000 B
b100110110111000 O
b1 L
b1 P
b11001101101111001 #
b11001101101111001 ;
b11001101101111001 E
b11001101101111001 J
b100110110111000 !
b100110110111000 7
b100110110111000 C
b100110110111000 I
b1 <
b1 >
1$
#6
0$
b1 /
#7
b1111101011011 ?
b10 =
b10 N
b1110100100101 G
b1110100100101 M
b100110110111 F
b100110110111 Q
b10 R
b11101011011010001 6
b11101011011010001 D
b10011011011100 8
b10011011011100 B
b10011011011100 O
b111010010010100 :
b111010010010100 @
b111010010010100 K
b10 L
b10 P
b11101011011010001 #
b11101011011010001 ;
b11101011011010001 E
b11101011011010001 J
b10011011011100 !
b10011011011100 7
b10011011011100 C
b10011011011100 I
b111010010010100 "
b111010010010100 9
b111010010010100 A
b111010010010100 H
b10 <
b10 >
1$
#8
0$
b10 /
#9
b111111101011 ?
b11 =
b11 N
b111111001001 G
b111111001001 M
b100110110 F
b100110110 Q
b11 R
b11111011000101100 6
b11111011000101100 D
b100110110111 8
b100110110111 B
b100110110111 O
b111111001001011 :
b111111001001011 @
b111111001001011 K
b11 L
b11 P
b11111011000101100 #
b11111011000101100 ;
b11111011000101100 E
b11111011000101100 J
b100110110111 !
b100110110111 7
b100110110111 C
b100110110111 I
b111111001001011 "
b111111001001011 9
b111111001001011 A
b111111001001011 H
b11 <
b11 >
1$
#10
0$
b11 /
#11
b11111111101 ?
b100 =
b100 N
b11111111000 G
b11111111000 M
b100 R
b11111111110011110 F
b11111111110011110 Q
b11000010111 6
b11000010111 D
b11111100111101110 8
b11111100111101110 B
b11111100111101110 O
b111111110000001 :
b111111110000001 @
b111111110000001 K
b100 L
b100 P
b11000010111 #
b11000010111 ;
b11000010111 E
b11000010111 J
b11111100111101110 !
b11111100111101110 7
b11111100111101110 C
b11111100111101110 I
b111111110000001 "
b111111110000001 9
b111111110000001 A
b111111110000001 H
b100 <
b100 >
1$
#12
0$
b100 /
#13
b10000000000 ?
b101 =
b101 N
b1111111111 G
b1111111111 M
b101 R
b1111 F
b1111 Q
b11111111000011010 6
b11111111000011010 D
b111100110 8
b111100110 B
b111100110 O
b111111111100011 :
b111111111100011 @
b111111111100011 K
b101 L
b101 P
b11111111000011010 #
b11111111000011010 ;
b11111111000011010 E
b11111111000011010 J
b111100110 !
b111100110 7
b111100110 C
b111100110 I
b111111111100011 "
b111111111100011 9
b111111111100011 A
b111111111100011 H
b101 <
b101 >
1$
#14
0$
b101 /
#15
b1000000000 ?
b110 =
b110 N
b111111111 G
b111111111 M
b110 R
b11111111111110111 F
b11111111111110111 Q
b1000011010 6
b1000011010 D
b11111110111100111 8
b11111110111100111 B
b11111110111100111 O
b111111111110010 :
b111111111110010 @
b111111111110010 K
b110 L
b110 P
b1000011010 #
b1000011010 ;
b1000011010 E
b1000011010 J
b11111110111100111 !
b11111110111100111 7
b11111110111100111 C
b11111110111100111 I
b111111111110010 "
b111111111110010 9
b111111111110010 A
b111111111110010 H
b110 <
b110 >
1$
#16
0$
b110 /
#17
b100000000 ?
b111 =
b111 N
b11111111 G
b11111111 M
b111 R
b11111111111111111 F
b11111111111111111 Q
b11010 6
b11010 D
b11111111111100110 8
b11111111111100110 B
b11111111111100110 O
b111111111111011 :
b111111111111011 @
b111111111111011 K
b111 L
b111 P
b11010 #
b11010 ;
b11010 E
b11010 J
b11111111111100110 !
b11111111111100110 7
b11111111111100110 C
b11111111111100110 I
b111111111111011 "
b111111111111011 9
b111111111111011 A
b111111111111011 H
b111 <
b111 >
1$
#18
0$
b111 /
#19
b10000000 ?
b1000 =
b1000 N
b1111111 G
b1111111 M
b1000 R
b0 F
b0 Q
b11111111100011010 6
b11111111100011010 D
b11100101 8
b11100101 B
b11100101 O
b111111111111100 :
b111111111111100 @
b111111111111100 K
b1000 L
b1000 P
b11111111100011010 #
b11111111100011010 ;
b11111111100011010 E
b11111111100011010 J
b11100101 !
b11100101 7
b11100101 C
b11100101 I
b111111111111100 "
b111111111111100 9
b111111111111100 A
b111111111111100 H
b1000 <
b1000 >
1$
#20
0$
b1000 /
#21
b1000000 ?
b1001 =
b1001 N
b111111 G
b111111 M
b1001 R
b0 F
b0 Q
b11111111110011010 6
b11111111110011010 D
b1100110 8
b1100110 B
b1100110 O
b1001 L
b1001 P
b11111111110011010 #
b11111111110011010 ;
b11111111110011010 E
b11111111110011010 J
b1100110 !
b1100110 7
b1100110 C
b1100110 I
b1001 <
b1001 >
1$
#22
0$
b1001 /
#23
b100000 ?
b1010 =
b1010 N
b11111 G
b11111 M
b1010 R
b0 F
b0 Q
b11111111111011010 6
b11111111111011010 D
b100111 8
b100111 B
b100111 O
b1010 L
b1010 P
b11111111111011010 #
b11111111111011010 ;
b11111111111011010 E
b11111111111011010 J
b100111 !
b100111 7
b100111 C
b100111 I
b1010 <
b1010 >
1$
#24
0$
b1010 /
#25
b10000 ?
b1011 =
b1011 N
b1111 G
b1111 M
b1011 R
b0 F
b0 Q
b11111111111111010 6
b11111111111111010 D
b1000 8
b1000 B
b1000 O
b1011 L
b1011 P
b11111111111111010 #
b11111111111111010 ;
b11111111111111010 E
b11111111111111010 J
b1000 !
b1000 7
b1000 C
b1000 I
b1011 <
b1011 >
1$
#26
0$
b1011 /
#27
b1000 ?
b1100 =
b1100 N
b111 G
b111 M
b1100 R
b11111111111111111 F
b11111111111111111 Q
b1010 6
b1010 D
b11111111111111001 8
b11111111111111001 B
b11111111111111001 O
b1100 L
b1100 P
b1010 #
b1010 ;
b1010 E
b1010 J
b11111111111111001 !
b11111111111111001 7
b11111111111111001 C
b11111111111111001 I
b1100 <
b1100 >
1$
#28
0$
b1100 /
#29
b100 ?
b1101 =
b1101 N
b11 G
b11 M
b1101 R
b0 F
b0 Q
b10 6
b10 D
b0 8
b0 B
b0 O
b111111111111101 :
b111111111111101 @
b111111111111101 K
b1101 L
b1101 P
b10 #
b10 ;
b10 E
b10 J
b0 !
b0 7
b0 C
b0 I
b111111111111101 "
b111111111111101 9
b111111111111101 A
b111111111111101 H
b1101 <
b1101 >
1$
#30
0$
b1101 /
#31
b10 ?
b1110 =
b1110 N
b1 G
b1 M
b1110 R
b0 F
b0 Q
b11111111111111110 6
b11111111111111110 D
b11 8
b11 B
b11 O
b1110 L
b1110 P
b11111111111111110 #
b11111111111111110 ;
b11111111111111110 E
b11111111111111110 J
b11 !
b11 7
b11 C
b11 I
b1110 <
b1110 >
1$
#32
0$
b1110 /
#33
b1 ?
b1111 =
b1111 N
b0 G
b0 M
b1111 R
b0 F
b0 Q
b0 6
b0 D
b10 8
b10 B
b10 O
b1111 L
b1111 P
b0 #
b0 ;
b0 E
b0 J
b10 !
b10 7
b10 C
b10 I
b1111 <
b1111 >
1$
#34
0$
b1111 /
#35
b110010010000111 ?
b0 =
b0 N
b111111111111101 G
b111111111111101 M
b0 R
b10 F
b10 Q
b11111111111111111 6
b11111111111111111 D
b0 L
b0 P
b11111111111111111 #
b11111111111111111 ;
b11111111111111111 E
b11111111111111111 J
b10000 <
b10000 >
1$
#36
b0 <
b0 >
b100110110111000 G
b100110110111000 M
b0 F
b0 Q
b100110110111000 :
b100110110111000 @
b100110110111000 K
b0 8
b0 B
b0 O
b1000111011 6
b1000111011 D
1'
b1000111011 )
b1000111011 3
0$
b1 0
b10 &
b11 %
r6.103515625e-05 2
r0.999908447265625 1
b10 X
b111111111111101 W
b0 Y
b11111111111111111 S
b10 U
b111111111111101 T
b0 V
b10000 /
#37
b1000111011 #
b1000111011 ;
b1000111011 E
b1000111011 J
b0 !
b0 7
b0 C
b0 I
b100110110111000 "
b100110110111000 9
b100110110111000 A
b100110110111000 H
1$
#38
0'
0$
b0 /
#39
b11101101011000 ?
b1 =
b1 N
b10011011011100 G
b10011011011100 M
b1 R
b10011011011100 F
b10011011011100 Q
b11001110110110100 6
b11001110110110100 D
b100110110111000 8
b100110110111000 B
b100110110111000 O
b1 L
b1 P
b11001110110110100 #
b11001110110110100 ;
b11001110110110100 E
b11001110110110100 J
b100110110111000 !
b100110110111000 7
b100110110111000 C
b100110110111000 I
b1 <
b1 >
1$
#40
0$
b1 /
#41
b1111101011011 ?
b10 =
b10 N
b1110100100101 G
b1110100100101 M
b100110110111 F
b100110110111 Q
b10 R
b11101100100001100 6
b11101100100001100 D
b10011011011100 8
b10011011011100 B
b10011011011100 O
b111010010010100 :
b111010010010100 @
b111010010010100 K
b10 L
b10 P
b11101100100001100 #
b11101100100001100 ;
b11101100100001100 E
b11101100100001100 J
b10011011011100 !
b10011011011100 7
b10011011011100 C
b10011011011100 I
b111010010010100 "
b111010010010100 9
b111010010010100 A
b111010010010100 H
b10 <
b10 >
1$
#42
0$
b10 /
#43
b111111101011 ?
b11 =
b11 N
b111111001001 G
b111111001001 M
b100110110 F
b100110110 Q
b11 R
b11111100001100111 6
b11111100001100111 D
b100110110111 8
b100110110111 B
b100110110111 O
b111111001001011 :
b111111001001011 @
b111111001001011 K
b11 L
b11 P
b11111100001100111 #
b11111100001100111 ;
b11111100001100111 E
b11111100001100111 J
b100110110111 !
b100110110111 7
b100110110111 C
b100110110111 I
b111111001001011 "
b111111001001011 9
b111111001001011 A
b111111001001011 H
b11 <
b11 >
1$
#44
0$
b11 /
#45
b11111111101 ?
b100 =
b100 N
b11111111000 G
b11111111000 M
b100 R
b11111111110011110 F
b11111111110011110 Q
b100001010010 6
b100001010010 D
b11111100111101110 8
b11111100111101110 B
b11111100111101110 O
b111111110000001 :
b111111110000001 @
b111111110000001 K
b100 L
b100 P
b100001010010 #
b100001010010 ;
b100001010010 E
b100001010010 J
b11111100111101110 !
b11111100111101110 7
b11111100111101110 C
b11111100111101110 I
b111111110000001 "
b111111110000001 9
b111111110000001 A
b111111110000001 H
b100 <
b100 >
1$
#46
0$
b100 /
#47
b10000000000 ?
b101 =
b101 N
b1111111111 G
b1111111111 M
b101 R
b1111 F
b1111 Q
b1010101 6
b1010101 D
b111100110 8
b111100110 B
b111100110 O
b111111111100011 :
b111111111100011 @
b111111111100011 K
b101 L
b101 P
b1010101 #
b1010101 ;
b1010101 E
b1010101 J
b111100110 !
b111100110 7
b111100110 C
b111100110 I
b111111111100011 "
b111111111100011 9
b111111111100011 A
b111111111100011 H
b101 <
b101 >
1$
#48
0$
b101 /
#49
b1000000000 ?
b110 =
b110 N
b111111111 G
b111111111 M
b110 R
b10111 F
b10111 Q
b11111110001010101 6
b11111110001010101 D
b10111100101 8
b10111100101 B
b10111100101 O
b111111111010100 :
b111111111010100 @
b111111111010100 K
b110 L
b110 P
b11111110001010101 #
b11111110001010101 ;
b11111110001010101 E
b11111110001010101 J
b10111100101 !
b10111100101 7
b10111100101 C
b10111100101 I
b111111111010100 "
b111111111010100 9
b111111111010100 A
b111111111010100 H
b110 <
b110 >
1$
#50
0$
b110 /
#51
b100000000 ?
b111 =
b111 N
b11111111 G
b11111111 M
b111 R
b111 F
b111 Q
b11111111001010101 6
b11111111001010101 D
b1111100110 8
b1111100110 B
b1111100110 O
b111111111101011 :
b111111111101011 @
b111111111101011 K
b111 L
b111 P
b11111111001010101 #
b11111111001010101 ;
b11111111001010101 E
b11111111001010101 J
b1111100110 !
b1111100110 7
b1111100110 C
b1111100110 I
b111111111101011 "
b111111111101011 9
b111111111101011 A
b111111111101011 H
b111 <
b111 >
1$
#52
0$
b111 /
#53
b10000000 ?
b1000 =
b1000 N
b1111111 G
b1111111 M
b1000 R
b10 F
b10 Q
b11111111101010101 6
b11111111101010101 D
b1011100111 8
b1011100111 B
b1011100111 O
b111111111110010 :
b111111111110010 @
b111111111110010 K
b1000 L
b1000 P
b11111111101010101 #
b11111111101010101 ;
b11111111101010101 E
b11111111101010101 J
b1011100111 !
b1011100111 7
b1011100111 C
b1011100111 I
b111111111110010 "
b111111111110010 9
b111111111110010 A
b111111111110010 H
b1000 <
b1000 >
1$
#54
0$
b1000 /
#55
b1000000 ?
b1001 =
b1001 N
b111111 G
b111111 M
b1001 R
b1 F
b1 Q
b11111111111010101 6
b11111111111010101 D
b1001101000 8
b1001101000 B
b1001101000 O
b111111111110100 :
b111111111110100 @
b111111111110100 K
b1001 L
b1001 P
b11111111111010101 #
b11111111111010101 ;
b11111111111010101 E
b11111111111010101 J
b1001101000 !
b1001101000 7
b1001101000 C
b1001101000 I
b111111111110100 "
b111111111110100 9
b111111111110100 A
b111111111110100 H
b1001 <
b1001 >
1$
#56
0$
b1001 /
#57
b100000 ?
b1010 =
b1010 N
b11111 G
b11111 M
b1010 R
b0 F
b0 Q
b10101 6
b10101 D
b1000101001 8
b1000101001 B
b1000101001 O
b111111111110101 :
b111111111110101 @
b111111111110101 K
b1010 L
b1010 P
b10101 #
b10101 ;
b10101 E
b10101 J
b1000101001 !
b1000101001 7
b1000101001 C
b1000101001 I
b111111111110101 "
b111111111110101 9
b111111111110101 A
b111111111110101 H
b1010 <
b1010 >
1$
#58
0$
b1010 /
#59
b10000 ?
b1011 =
b1011 N
b1111 G
b1111 M
b1011 R
b0 F
b0 Q
b11111111111110101 6
b11111111111110101 D
b1001001000 8
b1001001000 B
b1001001000 O
b1011 L
b1011 P
b11111111111110101 #
b11111111111110101 ;
b11111111111110101 E
b11111111111110101 J
b1001001000 !
b1001001000 7
b1001001000 C
b1001001000 I
b1011 <
b1011 >
1$
#60
0$
b1011 /
#61
b1000 ?
b1100 =
b1100 N
b111 G
b111 M
b1100 R
b0 F
b0 Q
b101 6
b101 D
b1000111001 8
b1000111001 B
b1000111001 O
b1100 L
b1100 P
b101 #
b101 ;
b101 E
b101 J
b1000111001 !
b1000111001 7
b1000111001 C
b1000111001 I
b1100 <
b1100 >
1$
#62
0$
b1100 /
#63
b100 ?
b1101 =
b1101 N
b11 G
b11 M
b1101 R
b0 F
b0 Q
b11111111111111101 6
b11111111111111101 D
b1001000000 8
b1001000000 B
b1001000000 O
b1101 L
b1101 P
b11111111111111101 #
b11111111111111101 ;
b11111111111111101 E
b11111111111111101 J
b1001000000 !
b1001000000 7
b1001000000 C
b1001000000 I
b1101 <
b1101 >
1$
#64
0$
b1101 /
#65
b10 ?
b1110 =
b1110 N
b1 G
b1 M
b1110 R
b0 F
b0 Q
b1 6
b1 D
b1000111101 8
b1000111101 B
b1000111101 O
b1110 L
b1110 P
b1 #
b1 ;
b1 E
b1 J
b1000111101 !
b1000111101 7
b1000111101 C
b1000111101 I
b1110 <
b1110 >
1$
#66
0$
b1110 /
#67
b1 ?
b1111 =
b1111 N
b0 G
b0 M
b1111 R
b0 F
b0 Q
b11111111111111111 6
b11111111111111111 D
b1000111110 8
b1000111110 B
b1000111110 O
b1111 L
b1111 P
b11111111111111111 #
b11111111111111111 ;
b11111111111111111 E
b11111111111111111 J
b1000111110 !
b1000111110 7
b1000111110 C
b1000111110 I
b1111 <
b1111 >
1$
#68
0$
b1111 /
#69
b110010010000111 ?
b0 =
b0 N
b111111111110101 G
b111111111110101 M
b0 R
b1000111110 F
b1000111110 Q
b0 6
b0 D
b0 L
b0 P
b0 #
b0 ;
b0 E
b0 J
b10000 <
b10000 >
1$
#70
b0 <
b0 >
b100110110111000 G
b100110110111000 M
b0 F
b0 Q
b100110110111000 :
b100110110111000 @
b100110110111000 K
b0 8
b0 B
b0 O
b10001110111 6
b10001110111 D
1'
b10001110111 )
b10001110111 3
0$
b10 0
b11 &
b110 %
r0.01751708984375 2
r0.999664306640625 1
b1000111110 X
b111111111110101 W
b1 Y
b0 S
b1000111110 U
b111111111110101 T
b1 V
b10000 /
#71
b10001110111 #
b10001110111 ;
b10001110111 E
b10001110111 J
b0 !
b0 7
b0 C
b0 I
b100110110111000 "
b100110110111000 9
b100110110111000 A
b100110110111000 H
1$
#72
0'
0$
b0 /
#73
b11101101011000 ?
b1 =
b1 N
b10011011011100 G
b10011011011100 M
b1 R
b10011011011100 F
b10011011011100 Q
b11001111111110000 6
b11001111111110000 D
b100110110111000 8
b100110110111000 B
b100110110111000 O
b1 L
b1 P
b11001111111110000 #
b11001111111110000 ;
b11001111111110000 E
b11001111111110000 J
b100110110111000 !
b100110110111000 7
b100110110111000 C
b100110110111000 I
b1 <
b1 >
1$
#74
0$
b1 /
#75
b1111101011011 ?
b10 =
b10 N
b1110100100101 G
b1110100100101 M
b100110110111 F
b100110110111 Q
b10 R
b11101101101001000 6
b11101101101001000 D
b10011011011100 8
b10011011011100 B
b10011011011100 O
b111010010010100 :
b111010010010100 @
b111010010010100 K
b10 L
b10 P
b11101101101001000 #
b11101101101001000 ;
b11101101101001000 E
b11101101101001000 J
b10011011011100 !
b10011011011100 7
b10011011011100 C
b10011011011100 I
b111010010010100 "
b111010010010100 9
b111010010010100 A
b111010010010100 H
b10 <
b10 >
1$
#76
0$
b10 /
#77
b111111101011 ?
b11 =
b11 N
b111111001001 G
b111111001001 M
b100110110 F
b100110110 Q
b11 R
b11111101010100011 6
b11111101010100011 D
b100110110111 8
b100110110111 B
b100110110111 O
b111111001001011 :
b111111001001011 @
b111111001001011 K
b11 L
b11 P
b11111101010100011 #
b11111101010100011 ;
b11111101010100011 E
b11111101010100011 J
b100110110111 !
b100110110111 7
b100110110111 C
b100110110111 I
b111111001001011 "
b111111001001011 9
b111111001001011 A
b111111001001011 H
b11 <
b11 >
1$
#78
0$
b11 /
#79
b11111111101 ?
b100 =
b100 N
b11111111000 G
b11111111000 M
b100 R
b11111111110011110 F
b11111111110011110 Q
b101010001110 6
b101010001110 D
b11111100111101110 8
b11111100111101110 B
b11111100111101110 O
b111111110000001 :
b111111110000001 @
b111111110000001 K
b100 L
b100 P
b101010001110 #
b101010001110 ;
b101010001110 E
b101010001110 J
b11111100111101110 !
b11111100111101110 7
b11111100111101110 C
b11111100111101110 I
b111111110000001 "
b111111110000001 9
b111111110000001 A
b111111110000001 H
b100 <
b100 >
1$
#80
0$
b100 /
#81
b10000000000 ?
b101 =
b101 N
b1111111111 G
b1111111111 M
b101 R
b1111 F
b1111 Q
b1010010001 6
b1010010001 D
b111100110 8
b111100110 B
b111100110 O
b111111111100011 :
b111111111100011 @
b111111111100011 K
b101 L
b101 P
b1010010001 #
b1010010001 ;
b1010010001 E
b1010010001 J
b111100110 !
b111100110 7
b111100110 C
b111100110 I
b111111111100011 "
b111111111100011 9
b111111111100011 A
b111111111100011 H
b101 <
b101 >
1$
#82
0$
b101 /
#83
b1000000000 ?
b110 =
b110 N
b111111111 G
b111111111 M
b110 R
b10111 F
b10111 Q
b11111111010010001 6
b11111111010010001 D
b10111100101 8
b10111100101 B
b10111100101 O
b111111111010100 :
b111111111010100 @
b111111111010100 K
b110 L
b110 P
b11111111010010001 #
b11111111010010001 ;
b11111111010010001 E
b11111111010010001 J
b10111100101 !
b10111100101 7
b10111100101 C
b10111100101 I
b111111111010100 "
b111111111010100 9
b111111111010100 A
b111111111010100 H
b110 <
b110 >
1$
#84
0$
b110 /
#85
b100000000 ?
b111 =
b111 N
b11111111 G
b11111111 M
b111 R
b111 F
b111 Q
b10010001 6
b10010001 D
b1111100110 8
b1111100110 B
b1111100110 O
b111111111101011 :
b111111111101011 @
b111111111101011 K
b111 L
b111 P
b10010001 #
b10010001 ;
b10010001 E
b10010001 J
b1111100110 !
b1111100110 7
b1111100110 C
b1111100110 I
b111111111101011 "
b111111111101011 9
b111111111101011 A
b111111111101011 H
b111 <
b111 >
1$
#86
0$
b111 /
#87
b10000000 ?
b1000 =
b1000 N
b1111111 G
b1111111 M
b1000 R
b100 F
b100 Q
b11111111110010001 6
b11111111110010001 D
b10011100101 8
b10011100101 B
b10011100101 O
b111111111100100 :
b111111111100100 @
b111111111100100 K
b1000 L
b1000 P
b11111111110010001 #
b11111111110010001 ;
b11111111110010001 E
b11111111110010001 J
b10011100101 !
b10011100101 7
b10011100101 C
b10011100101 I
b111111111100100 "
b111111111100100 9
b111111111100100 A
b111111111100100 H
b1000 <
b1000 >
1$
#88
0$
b1000 /
#89
b1000000 ?
b1001 =
b1001 N
b111111 G
b111111 M
b1001 R
b10 F
b10 Q
b10001 6
b10001 D
b10001100110 8
b10001100110 B
b10001100110 O
b111111111101000 :
b111111111101000 @
b111111111101000 K
b1001 L
b1001 P
b10001 #
b10001 ;
b10001 E
b10001 J
b10001100110 !
b10001100110 7
b10001100110 C
b10001100110 I
b111111111101000 "
b111111111101000 9
b111111111101000 A
b111111111101000 H
b1001 <
b1001 >
1$
#90
0$
b1001 /
#91
b100000 ?
b1010 =
b1010 N
b11111 G
b11111 M
b1010 R
b1 F
b1 Q
b11111111111010001 6
b11111111111010001 D
b10010100101 8
b10010100101 B
b10010100101 O
b111111111100110 :
b111111111100110 @
b111111111100110 K
b1010 L
b1010 P
b11111111111010001 #
b11111111111010001 ;
b11111111111010001 E
b11111111111010001 J
b10010100101 !
b10010100101 7
b10010100101 C
b10010100101 I
b111111111100110 "
b111111111100110 9
b111111111100110 A
b111111111100110 H
b1010 <
b1010 >
1$
#92
0$
b1010 /
#93
b10000 ?
b1011 =
b1011 N
b1111 G
b1111 M
b1011 R
b0 F
b0 Q
b11111111111110001 6
b11111111111110001 D
b10010000110 8
b10010000110 B
b10010000110 O
b111111111100111 :
b111111111100111 @
b111111111100111 K
b1011 L
b1011 P
b11111111111110001 #
b11111111111110001 ;
b11111111111110001 E
b11111111111110001 J
b10010000110 !
b10010000110 7
b10010000110 C
b10010000110 I
b111111111100111 "
b111111111100111 9
b111111111100111 A
b111111111100111 H
b1011 <
b1011 >
1$
#94
0$
b1011 /
#95
b1000 ?
b1100 =
b1100 N
b111 G
b111 M
b1100 R
b0 F
b0 Q
b1 6
b1 D
b10001110111 8
b10001110111 B
b10001110111 O
b1100 L
b1100 P
b1 #
b1 ;
b1 E
b1 J
b10001110111 !
b10001110111 7
b10001110111 C
b10001110111 I
b1100 <
b1100 >
1$
#96
0$
b1100 /
#97
b100 ?
b1101 =
b1101 N
b11 G
b11 M
b1101 R
b0 F
b0 Q
b11111111111111001 6
b11111111111111001 D
b10001111110 8
b10001111110 B
b10001111110 O
b1101 L
b1101 P
b11111111111111001 #
b11111111111111001 ;
b11111111111111001 E
b11111111111111001 J
b10001111110 !
b10001111110 7
b10001111110 C
b10001111110 I
b1101 <
b1101 >
1$
#98
0$
b1101 /
#99
b10 ?
b1110 =
b1110 N
b1 G
b1 M
b1110 R
b0 F
b0 Q
b11111111111111101 6
b11111111111111101 D
b10001111011 8
b10001111011 B
b10001111011 O
b1110 L
b1110 P
b11111111111111101 #
b11111111111111101 ;
b11111111111111101 E
b11111111111111101 J
b10001111011 !
b10001111011 7
b10001111011 C
b10001111011 I
b1110 <
b1110 >
1$
#100
0$
b1110 /
#101
b1 ?
b1111 =
b1111 N
b0 G
b0 M
b1111 R
b0 F
b0 Q
b11111111111111111 6
b11111111111111111 D
b10001111010 8
b10001111010 B
b10001111010 O
b1111 L
b1111 P
b11111111111111111 #
b11111111111111111 ;
b11111111111111111 E
b11111111111111111 J
b10001111010 !
b10001111010 7
b10001111010 C
b10001111010 I
b1111 <
b1111 >
1$
#102
0$
b1111 /
#103
b110010010000111 ?
b0 =
b0 N
b111111111100111 G
b111111111100111 M
b0 R
b10001111010 F
b10001111010 Q
b0 6
b0 D
b0 L
b0 P
b0 #
b0 ;
b0 E
b0 J
b10000 <
b10000 >
1$
#104
b0 <
b0 >
b100110110111000 G
b100110110111000 M
b0 F
b0 Q
b100110110111000 :
b100110110111000 @
b100110110111000 K
b0 8
b0 B
b0 O
b11010110011 6
b11010110011 D
1'
b11010110011 )
b11010110011 3
0$
b11 0
b101 %
r0.03497314453125 2
r0.999237060546875 1
b10001111010 X
b111111111100111 W
b10 Y
b10001111010 U
b111111111100111 T
b10 V
b10000 /
#105
b11010110011 #
b11010110011 ;
b11010110011 E
b11010110011 J
b0 !
b0 7
b0 C
b0 I
b100110110111000 "
b100110110111000 9
b100110110111000 A
b100110110111000 H
1$
#106
0'
0$
b0 /
#107
b11101101011000 ?
b1 =
b1 N
b10011011011100 G
b10011011011100 M
b1 R
b10011011011100 F
b10011011011100 Q
b11010001000101100 6
b11010001000101100 D
b100110110111000 8
b100110110111000 B
b100110110111000 O
b1 L
b1 P
b11010001000101100 #
b11010001000101100 ;
b11010001000101100 E
b11010001000101100 J
b100110110111000 !
b100110110111000 7
b100110110111000 C
b100110110111000 I
b1 <
b1 >
1$
#108
0$
b1 /
#109
b1111101011011 ?
b10 =
b10 N
b1110100100101 G
b1110100100101 M
b100110110111 F
b100110110111 Q
b10 R
b11101110110000100 6
b11101110110000100 D
b10011011011100 8
b10011011011100 B
b10011011011100 O
b111010010010100 :
b111010010010100 @
b111010010010100 K
b10 L
b10 P
b11101110110000100 #
b11101110110000100 ;
b11101110110000100 E
b11101110110000100 J
b10011011011100 !
b10011011011100 7
b10011011011100 C
b10011011011100 I
b111010010010100 "
b111010010010100 9
b111010010010100 A
b111010010010100 H
b10 <
b10 >
1$
#110
0$
b10 /
#111
b111111101011 ?
b11 =
b11 N
b111111001001 G
b111111001001 M
b100110110 F
b100110110 Q
b11 R
b11111110011011111 6
b11111110011011111 D
b100110110111 8
b100110110111 B
b100110110111 O
b111111001001011 :
b111111001001011 @
b111111001001011 K
b11 L
b11 P
b11111110011011111 #
b11111110011011111 ;
b11111110011011111 E
b11111110011011111 J
b100110110111 !
b100110110111 7
b100110110111 C
b100110110111 I
b111111001001011 "
b111111001001011 9
b111111001001011 A
b111111001001011 H
b11 <
b11 >
1$
#112
0$
b11 /
