scfifo/wave.vcd
$date
	Mon Feb 26 14:49:30 2024
$end
$version
	Icarus Verilog
$end
$timescale
	1ns
$end
$scope module TestScFifo $end
$var wire 3 ! wc [2:0] $end
$var wire 3 " rc [2:0] $end
$var wire 1 # fu $end
$var wire 1 $ em $end
$var wire 8 % dout [7:0] $end
$var wire 3 & dc [2:0] $end
$var reg 1 ' clk $end
$var reg 8 ( din [7:0] $end
$var reg 1 ) rd $end
$var reg 1 * wr $end
$scope module theFifo $end
$var wire 1 ' clk $end
$var wire 8 + din [7:0] $end
$var wire 1 , read $end
$var wire 1 - rst $end
$var wire 1 . write $end
$var wire 8 / qout_b [7:0] $end
$var wire 1 # full $end
$var wire 1 $ empty $end
$var wire 8 0 dout [7:0] $end
$var wire 3 1 data_cnt [2:0] $end
$var parameter 32 2 AW $end
$var parameter 33 3 CAPACITY $end
$var parameter 32 4 DW $end
$var reg 8 5 qout_b_reg [7:0] $end
$var reg 3 6 rd_cnt [2:0] $end
$var reg 1 7 rd_dly $end
$var reg 3 8 wr_cnt [2:0] $end
$scope module theRam $end
$var wire 3 9 addr_a [2:0] $end
$var wire 3 : addr_b [2:0] $end
$var wire 1 ' clk $end
$var wire 8 ; din_a [7:0] $end
$var wire 1 . wr_a $end
$var parameter 32 < DW $end
$var parameter 32 = WORDS $end
$var reg 8 > qout_b [7:0] $end
$upscope $end
$upscope $end
$scope begin $ivl_for_loop0 $end
$var integer 32 ? i [31:0] $end
$upscope $end
$scope begin $ivl_for_loop1 $end
$var integer 32 @ i [31:0] $end
$upscope $end
$scope begin $ivl_for_loop2 $end
$var integer 32 A i [31:0] $end
$upscope $end
$scope begin $ivl_for_loop3 $end
$var integer 32 B i [31:0] $end
$upscope $end
$scope begin $ivl_for_loop4 $end
$var integer 32 C i [31:0] $end
$upscope $end
$scope begin $ivl_for_loop5 $end
$var integer 32 D i [31:0] $end
$upscope $end
$upscope $end
$enddefinitions $end
$comment Show the parameter values. $end
$dumpall
b1000 =
b1000 <
b1000 4
b111 3
b11 2
$end
#0
$dumpvars
b0 D
b0 C
b0 B
b0 A
b0 @
b0 ?
bx >
b0 ;
b0 :
b0 9
b0 8
x7
b0 6
b0 5
b0 1
bx 0
bx /
0.
0-
0,
b0 +
0*
0)
b0 (
0'
b0 &
bx %
1$
0#
b0 "
b0 !
$end
#5
b0 %
b0 0
07
1.
b1 ?
1*
b100100 (
b100100 +
b100100 ;
1'
#10
0'
#15
0$
b1 &
b1 1
b1 !
b1 8
b1 9
b10 ?
b10000001 (
b10000001 +
b10000001 ;
1'
#20
0'
#25
b100100 /
b100100 >
b10 &
b10 1
b10 !
b10 8
b10 9
b11 ?
b1001 (
b1001 +
b1001 ;
1'
#30
0'
#35
b11 &
b11 1
b11 !
b11 8
b11 9
b100 ?
b1100011 (
b1100011 +
b1100011 ;
1'
#40
0'
#45
b100 &
b100 1
b100 !
b100 8
b100 9
b101 ?
b1101 (
b1101 +
b1101 ;
1'
#50
0'
#55
b101 &
b101 1
b101 !
b101 8
b101 9
b110 ?
b10001101 (
b10001101 +
b10001101 ;
1'
#60
0'
#65
b110 &
b110 1
b110 !
b110 8
b110 9
b111 ?
b1100101 (
b1100101 +
b1100101 ;
1'
#70
0'
#75
0.
1#
b111 &
b111 1
b111 !
b111 8
b111 9
b1000 ?
b10010 (
b10010 +
b10010 ;
1'
#80
0'
#85
b1001 ?
b1 (
b1 +
b1 ;
1'
#90
0'
#95
b1010 ?
b1101 (
b1101 +
b1101 ;
1'
#100
0'
#105
0*
1'
#110
0'
#115
1,
b1 @
1)
1'
#120
0'
#125
b100100 %
b100100 0
0#
b110 &
b110 1
b1 "
b1 6
b1 :
17
b10 @
1'
#130
0'
#135
b1001 %
b1001 0
b100100 5
b101 &
b101 1
b10 "
b10 6
b10 :
b1001 /
b1001 >
b11 @
1'
#140
0'
#145
b100 &
b100 1
b11 "
b11 6
b11 :
b1001 5
b100 @
1'
#150
0'
#155
b1101 %
b1101 0
b11 &
b11 1
b100 "
b100 6
b100 :
b1101 /
b1101 >
b101 @
1'
#160
0'
#165
b10 &
b10 1
b101 "
b101 6
b101 :
b1101 5
b110 @
1'
#170
0'
#175
b1100101 %
b1100101 0
b1 &
b1 1
b110 "
b110 6
b110 :
b1100101 /
b1100101 >
b111 @
1'
#180
0'
#185
0,
1$
b0 &
b0 1
b111 "
b111 6
b111 :
b1100101 5
b1000 @
1'
#190
0'
#195
07
bx /
bx >
b1001 @
1'
#200
0'
#205
b1010 @
1'
#210
0'
#215
0)
1'
#220
0'
#225
1.
b1 A
1*
b1110110 (
b1110110 +
b1110110 ;
1'
#230
0'
#235
0$
b1 &
b1 1
b0 !
b0 8
b0 9
b10 A
b111101 (
b111101 +
b111101 ;
1'
#240
0'
#245
b1110110 /
b1110110 >
b10 &
b10 1
b1 !
b1 8
b1 9
b11 A
b11101101 (
b11101101 +
b11101101 ;
1'
#250
0'
#255
b11 &
b11 1
b10 !
b10 8
b10 9
b100 A
b10001100 (
b10001100 +
b10001100 ;
1'
#260
0'
#265
b100 &
b100 1
b11 !
b11 8
b11 9
b101 A
b11111001 (
b11111001 +
b11111001 ;
1'
#270
0'
#275
b101 &
b101 1
b100 !
b100 8
b100 9
0.
0*
1'
#280
0'
#285
1,
b1 B
1)
1'
#290
0'
#295
b1110110 %
b1110110 0
17
b100 &
b100 1
b0 "
b0 6
b0 :
b10 B
1'
#300
0'
#305
b11101101 %
b11101101 0
b11101101 /
b11101101 >
b11 &
b11 1
b1 "
b1 6
b1 :
b1110110 5
b11 B
1'
#310
0'
#315
b11101101 5
b10 &
b10 1
b10 "
b10 6
b10 :
b100 B
1'
#320
0'
#325
b11111001 %
b11111001 0
b11111001 /
b11111001 >
b1 &
b1 1
b11 "
b11 6
b11 :
b101 B
1'
#330
0'
#335
b11111001 5
1$
b0 &
b0 1
b100 "
b100 6
b100 :
0,
0)
1'
#340
0'
#345
b1101 /
b1101 >
07
1.
b1 C
1*
b11000110 (
b11000110 +
b11000110 ;
1'
#350
0'
#355
0$
b1 &
b1 1
b101 !
b101 8
b101 9
b10 C
b11000101 (
b11000101 +
b11000101 ;
1'
#360
0'
#365
b11000110 /
b11000110 >
b10 &
b10 1
b110 !
b110 8
b110 9
b11 C
b10101010 (
b10101010 +
b10101010 ;
1'
#370
0'
#375
b11 &
b11 1
b111 !
b111 8
b111 9
b100 C
b11100101 (
b11100101 +
b11100101 ;
1'
#380
0'
#385
b100 &
b100 1
b0 !
b0 8
b0 9
b101 C
b1110111 (
b1110111 +
b1110111 ;
1'
#390
0'
#395
b101 &
b101 1
b1 !
b1 8
b1 9
0.
0*
1'
#400
0'
#405
1,
b1 D
1)
1'
#410
0'
#415
b11000110 %
b11000110 0
17
b100 &
b100 1
b101 "
b101 6
b101 :
b10 D
1'
#420
0'
#425
b10101010 %
b10101010 0
b10101010 /
b10101010 >
b11 &
b11 1
b110 "
b110 6
b110 :
b11000110 5
b11 D
1'
#430
0'
#435
b10101010 5
b10 &
b10 1
b111 "
b111 6
b111 :
b100 D
1'
#440
0'
#445
b1110111 %
b1110111 0
b1110111 /
b1110111 >
b1 &
b1 1
b0 "
b0 6
b0 :
b101 D
1'
#450
0'
#455
b1110111 5
1$
b0 &
b0 1
b1 "
b1 6
b1 :
0,
0)
1'
#460
0'
#465
b11101101 /
b11101101 >
07
1'
