uart/wave.vcd
$date
	Tue Mar 19 10:01:45 2024
$end
$version
	Icarus Verilog
$end
$timescale
	1ns
$end
$scope module TestUart $end
$var wire 1 ! tx_fifo_read $end
$var wire 1 " uart $end
$var wire 1 # tx_fifo_empty $end
$var wire 8 $ tx_fifo_dout [7:0] $end
$var wire 1 % tx_busy $end
$var wire 1 & rx_fifo_write $end
$var wire 9 ' rx_fifo_dout [8:0] $end
$var wire 9 ( rx_fifo_din [8:0] $end
$var wire 4 ) rx_fifo_dc [3:0] $end
$var wire 1 * rx_busy $end
$var reg 1 + clk $end
$var reg 1 , rst $end
$var reg 1 - rx_fifo_read $end
$var reg 1 . start $end
$var reg 8 / tx_fifo_din [7:0] $end
$var reg 1 0 tx_fifo_write $end
$scope module theRxFifo $end
$var wire 1 + clk $end
$var wire 9 1 din [8:0] $end
$var wire 1 - read $end
$var wire 1 , rst $end
$var wire 1 & write $end
$var wire 9 2 qout_b [8:0] $end
$var wire 1 3 full $end
$var wire 1 4 empty $end
$var wire 9 5 dout [8:0] $end
$var wire 4 6 data_cnt [3:0] $end
$var parameter 32 7 AW $end
$var parameter 33 8 CAPACITY $end
$var parameter 32 9 DW $end
$var reg 9 : qout_b_reg [8:0] $end
$var reg 4 ; rd_cnt [3:0] $end
$var reg 1 < rd_dly $end
$var reg 4 = wr_cnt [3:0] $end
$scope module theRam $end
$var wire 4 > addr_a [3:0] $end
$var wire 4 ? addr_b [3:0] $end
$var wire 1 + clk $end
$var wire 9 @ din_a [8:0] $end
$var wire 1 & wr_a $end
$var parameter 32 A DW $end
$var parameter 32 B WORDS $end
$var reg 9 C qout_b [8:0] $end
$upscope $end
$upscope $end
$scope module theTxFifo $end
$var wire 1 + clk $end
$var wire 8 D din [7:0] $end
$var wire 1 ! read $end
$var wire 1 , rst $end
$var wire 1 0 write $end
$var wire 8 E qout_b [7:0] $end
$var wire 1 F full $end
$var wire 1 # empty $end
$var wire 8 G dout [7:0] $end
$var wire 4 H data_cnt [3:0] $end
$var parameter 32 I AW $end
$var parameter 33 J CAPACITY $end
$var parameter 32 K DW $end
$var reg 8 L qout_b_reg [7:0] $end
$var reg 4 M rd_cnt [3:0] $end
$var reg 1 N rd_dly $end
$var reg 4 O wr_cnt [3:0] $end
$scope module theRam $end
$var wire 4 P addr_a [3:0] $end
$var wire 4 Q addr_b [3:0] $end
$var wire 1 + clk $end
$var wire 8 R din_a [7:0] $end
$var wire 1 0 wr_a $end
$var parameter 32 S DW $end
$var parameter 32 T WORDS $end
$var reg 8 U qout_b [7:0] $end
$upscope $end
$upscope $end
$scope module theUartRx $end
$var wire 1 + clk $end
$var wire 1 , rst $end
$var wire 1 V rxd_reg $end
$var wire 1 W rxd_falling $end
$var wire 1 " rxd $end
$var wire 1 X br_en $end
$var wire 7 Y br_cnt [6:0] $end
$var wire 1 Z bit_co $end
$var parameter 4 [ BC_MAX $end
$var parameter 32 \ BR_DIV $end
$var parameter 32 ] PARITY $end
$var reg 1 * busy $end
$var reg 8 ^ dout [7:0] $end
$var reg 1 & dout_valid $end
$var reg 1 _ par_err $end
$var reg 9 ` shift_reg [8:0] $end
$scope module theBitCnt $end
$var wire 1 + clk $end
$var wire 1 Z co $end
$var wire 1 , rst $end
$var wire 1 X en $end
$var parameter 33 a M $end
$var reg 4 b cnt [3:0] $end
$upscope $end
$scope module theBrCnt $end
$var wire 1 + clk $end
$var wire 1 X co $end
$var wire 1 * en $end
$var wire 1 c rst $end
$var parameter 32 d M $end
$var reg 7 e cnt [6:0] $end
$upscope $end
$scope module theFallingDet $end
$var wire 1 + clk $end
$var wire 1 V out $end
$var wire 1 " in $end
$var wire 1 W en $end
$var parameter 32 f SYNC_STG $end
$var reg 3 g dly [2:0] $end
$upscope $end
$upscope $end
$scope module theUartTx $end
$var wire 1 + clk $end
$var wire 8 h din [7:0] $end
$var wire 1 , rst $end
$var wire 1 . start $end
$var wire 1 i br_en $end
$var wire 1 j bit_co $end
$var parameter 4 k BC_MAX $end
$var parameter 32 l BR_DIV $end
$var parameter 32 m PARITY $end
$var reg 1 % busy $end
$var reg 11 n shift_reg [10:0] $end
$var reg 1 " txd $end
$scope module theBitCnt $end
$var wire 1 + clk $end
$var wire 1 j co $end
$var wire 1 , rst $end
$var wire 1 i en $end
$var parameter 33 o M $end
$var reg 4 p cnt [3:0] $end
$upscope $end
$scope module theBrCnt $end
$var wire 1 + clk $end
$var wire 1 i co $end
$var wire 1 q en $end
$var wire 1 , rst $end
$var parameter 32 r M $end
$var reg 7 s cnt [6:0] $end
$upscope $end
$upscope $end
$upscope $end
$enddefinitions $end
$comment Show the parameter values. $end
$dumpall
b1101100 r
b1011 o
b1 m
b1101100 l
b1010 k
b10 f
b1101101 d
b1010 a
b1 ]
b1101101 \
b1001 [
b10000 T
b1000 S
b1000 K
b1111 J
b100 I
b10000 B
b1001 A
b1001 9
b1111 8
b100 7
$end
#0
$dumpvars
bx s
xq
bx p
bx n
xj
xi
bx h
bx g
bx e
1c
bx b
bx `
x_
bx ^
xZ
bx Y
xX
xW
xV
bx U
bx R
b0 Q
b0 P
b0 O
xN
b0 M
b0 L
b0 H
bx G
0F
bx E
bx D
bx C
bx @
b0 ?
b0 >
b0 =
x<
b0 ;
b0 :
b0 6
bx 5
14
03
bx 2
bx 1
00
bx /
x.
0-
1,
0+
x*
b0 )
bx (
bx '
x&
x%
bx $
1#
x"
0!
$end
#5
b0 $
b0 G
b0 h
b0 '
b0 5
0i
0j
0Z
0X
0q
0N
0<
b0 s
b0 p
0%
b11111111111 n
b0 Y
b0 e
b0 b
0*
b0 `
0_
0&
b0 (
b0 1
b0 @
b0 ^
0.
1+
#10
0+
#11
xc
0,
#15
1"
1+
#20
0+
#25
bx1 g
1+
#30
0+
#35
0c
0W
bx11 g
1+
#40
0+
#45
1V
b111 g
1+
#50
0+
#55
1+
#60
0+
#65
1+
#70
0+
#75
1+
#80
0+
#85
1+
#90
0+
#95
1+
#100
0+
#105
1+
#110
0+
#115
1+
#120
0+
#125
1+
#130
0+
#135
1+
#140
0+
#145
1+
#150
0+
#155
1+
#160
0+
#165
1+
#170
0+
#175
1+
#180
0+
#185
1+
#190
0+
#195
1+
#200
0+
#205
1+
#210
0+
#215
1+
#220
0+
#225
1+
#230
0+
#235
1+
#240
0+
#245
1+
#250
0+
#255
1+
#260
0+
#265
1+
#270
0+
#275
1+
#280
0+
#285
1+
#290
0+
#295
1+
#300
0+
#305
1+
#310
0+
#315
1+
#320
0+
#325
1+
#330
0+
#335
1+
#340
0+
#345
1+
#350
0+
#355
1+
#360
0+
#365
1+
#370
0+
#375
1+
#380
0+
#385
1+
#390
0+
#395
1+
#400
0+
#405
1+
#410
0+
#415
1+
#420
0+
#425
1+
#430
0+
#435
1+
#440
0+
#445
1+
#450
0+
#455
1+
#460
0+
#465
1+
#470
0+
#475
1+
#480
0+
#485
1+
#490
0+
#495
1+
#500
0+
#505
1+
#510
0+
#515
1+
#520
0+
#525
1+
#530
0+
#535
1+
#540
0+
#545
1+
#550
0+
#555
1+
#560
0+
#565
1+
#570
0+
#575
1+
#580
0+
#585
1+
#590
0+
#595
1+
#600
0+
#605
1+
#610
0+
#615
1+
#620
0+
#625
1+
#630
0+
#635
1+
#640
0+
#645
1+
#650
0+
#655
1+
#660
0+
#665
1+
#670
0+
#675
1+
#680
0+
#685
1+
#690
0+
#695
1+
#700
0+
#705
1+
#710
0+
#715
1+
#720
0+
#725
1+
#730
0+
#735
1+
#740
0+
#745
1+
#750
0+
#755
1+
#760
0+
#765
1+
#770
0+
#775
1+
#780
0+
#785
1+
#790
0+
#795
1+
#800
0+
#805
1+
#810
0+
#815
1+
#820
0+
#825
1+
#830
0+
#835
1+
#840
0+
#845
1+
#850
0+
#855
1+
#860
0+
#865
1+
#870
0+
#875
1+
#880
0+
#885
1+
#890
0+
#895
1+
#900
0+
#905
1+
#910
0+
#915
1+
#920
0+
#925
1+
#930
0+
#935
1+
#940
0+
#945
1+
#950
0+
#955
1+
#960
0+
#965
1+
#970
0+
#975
1+
#980
0+
#985
1+
#990
0+
#995
1+
#1000
0+
#1005
1!
0#
b1 H
b1 O
b1 P
10
b10100101 /
b10100101 D
b10100101 R
1+
#1010
0+
#1015
0!
1q
b10100101 $
b10100101 G
b10100101 h
1.
1N
b1 M
b1 Q
b1 H
b10 O
b10 P
b10100101 E
b10100101 U
b11000011 /
b11000011 D
b11000011 R
1+
#1020
0+
#1025
0!
0N
b10100101 L
b1 s
1%
b10101001010 n
0.
00
1+
#1030
0+
#1035
0"
b10 s
1+
#1040
0+
#1045
b11 s
b110 g
1+
#1050
0+
#1055
1c
1W
b100 g
b100 s
1+
#1060
0+
#1065
0c
0W
0V
b101 s
b0 g
1*
1+
#1070
0+
#1075
b1 Y
b1 e
b110 s
1+
#1080
0+
#1085
b111 s
b10 Y
b10 e
1+
#1090
0+
#1095
b11 Y
b11 e
b1000 s
1+
#1100
0+
#1105
b1001 s
b100 Y
b100 e
1+
#1110
0+
#1115
b101 Y
b101 e
b1010 s
1+
#1120
0+
#1125
b1011 s
b110 Y
b110 e
1+
#1130
0+
#1135
b111 Y
b111 e
b1100 s
1+
#1140
0+
#1145
b1101 s
b1000 Y
b1000 e
1+
#1150
0+
#1155
b1001 Y
b1001 e
b1110 s
1+
#1160
0+
#1165
b1111 s
b1010 Y
b1010 e
1+
#1170
0+
#1175
b1011 Y
b1011 e
b10000 s
1+
#1180
0+
#1185
b10001 s
b1100 Y
b1100 e
1+
#1190
0+
#1195
b1101 Y
b1101 e
b10010 s
1+
#1200
0+
#1205
b10011 s
b1110 Y
b1110 e
1+
#1210
0+
#1215
b1111 Y
b1111 e
b10100 s
1+
#1220
0+
#1225
b10101 s
b10000 Y
b10000 e
1+
#1230
0+
#1235
b10001 Y
b10001 e
b10110 s
1+
#1240
0+
#1245
b10111 s
b10010 Y
b10010 e
1+
#1250
0+
#1255
b10011 Y
b10011 e
b11000 s
1+
#1260
0+
#1265
b11001 s
b10100 Y
b10100 e
1+
#1270
0+
#1275
b10101 Y
b10101 e
b11010 s
1+
#1280
0+
#1285
b11011 s
b10110 Y
b10110 e
1+
#1290
0+
#1295
b10111 Y
b10111 e
b11100 s
1+
#1300
0+
#1305
b11101 s
b11000 Y
b11000 e
1+
#1310
0+
#1315
b11001 Y
b11001 e
b11110 s
1+
#1320
0+
#1325
b11111 s
b11010 Y
b11010 e
1+
#1330
0+
#1335
b11011 Y
b11011 e
b100000 s
1+
#1340
0+
#1345
b100001 s
b11100 Y
b11100 e
1+
#1350
0+
#1355
b11101 Y
b11101 e
b100010 s
1+
#1360
0+
#1365
b100011 s
b11110 Y
b11110 e
1+
#1370
0+
#1375
b11111 Y
b11111 e
b100100 s
1+
#1380
0+
#1385
b100101 s
b100000 Y
b100000 e
1+
#1390
0+
#1395
b100001 Y
b100001 e
b100110 s
1+
#1400
0+
#1405
b100111 s
b100010 Y
b100010 e
1+
#1410
0+
#1415
b100011 Y
b100011 e
b101000 s
1+
#1420
0+
#1425
b101001 s
b100100 Y
b100100 e
1+
#1430
0+
#1435
b100101 Y
b100101 e
b101010 s
1+
#1440
0+
#1445
b101011 s
b100110 Y
b100110 e
1+
#1450
0+
#1455
b100111 Y
b100111 e
b101100 s
1+
#1460
0+
#1465
b101101 s
b101000 Y
b101000 e
1+
#1470
0+
#1475
b101001 Y
b101001 e
b101110 s
1+
#1480
0+
#1485
b101111 s
b101010 Y
b101010 e
1+
#1490
0+
#1495
b101011 Y
b101011 e
b110000 s
1+
#1500
0+
#1505
b110001 s
b101100 Y
b101100 e
1+
#1510
0+
#1515
b101101 Y
b101101 e
b110010 s
1+
#1520
0+
#1525
b110011 s
b101110 Y
b101110 e
1+
#1530
0+
#1535
b101111 Y
b101111 e
b110100 s
1+
#1540
0+
#1545
b110101 s
b110000 Y
b110000 e
1+
#1550
0+
#1555
b110001 Y
b110001 e
b110110 s
1+
#1560
0+
#1565
b110111 s
b110010 Y
b110010 e
1+
#1570
0+
#1575
b110011 Y
b110011 e
b111000 s
1+
#1580
0+
#1585
b111001 s
b110100 Y
b110100 e
1+
#1590
0+
#1595
b110101 Y
b110101 e
b111010 s
1+
#1600
0+
#1605
b111011 s
b110110 Y
b110110 e
1+
#1610
0+
#1615
b110111 Y
b110111 e
b111100 s
1+
#1620
0+
#1625
b111101 s
b111000 Y
b111000 e
1+
#1630
0+
#1635
b111001 Y
b111001 e
b111110 s
1+
#1640
0+
#1645
b111111 s
b111010 Y
b111010 e
1+
#1650
0+
#1655
b111011 Y
b111011 e
b1000000 s
1+
#1660
0+
#1665
b1000001 s
b111100 Y
b111100 e
1+
#1670
0+
#1675
b111101 Y
b111101 e
b1000010 s
1+
#1680
0+
#1685
b1000011 s
b111110 Y
b111110 e
1+
#1690
0+
#1695
b111111 Y
b111111 e
b1000100 s
1+
#1700
0+
#1705
b1000101 s
b1000000 Y
b1000000 e
1+
#1710
0+
#1715
b1000001 Y
b1000001 e
b1000110 s
1+
#1720
0+
#1725
b1000111 s
b1000010 Y
b1000010 e
1+
#1730
0+
#1735
b1000011 Y
b1000011 e
b1001000 s
1+
#1740
0+
#1745
b1001001 s
b1000100 Y
b1000100 e
1+
#1750
0+
#1755
b1000101 Y
b1000101 e
b1001010 s
1+
#1760
0+
#1765
b1001011 s
b1000110 Y
b1000110 e
1+
#1770
0+
#1775
b1000111 Y
b1000111 e
b1001100 s
1+
#1780
0+
#1785
b1001101 s
b1001000 Y
b1001000 e
1+
#1790
0+
#1795
b1001001 Y
b1001001 e
b1001110 s
1+
#1800
0+
#1805
b1001111 s
b1001010 Y
b1001010 e
1+
#1810
0+
#1815
b1001011 Y
b1001011 e
b1010000 s
1+
#1820
0+
#1825
b1010001 s
b1001100 Y
b1001100 e
1+
#1830
0+
#1835
b1001101 Y
b1001101 e
b1010010 s
1+
#1840
0+
#1845
b1010011 s
b1001110 Y
b1001110 e
1+
#1850
0+
#1855
b1001111 Y
b1001111 e
b1010100 s
1+
#1860
0+
#1865
b1010101 s
b1010000 Y
b1010000 e
1+
#1870
0+
#1875
b1010001 Y
b1010001 e
b1010110 s
1+
#1880
0+
#1885
b1010111 s
b1010010 Y
b1010010 e
1+
#1890
0+
#1895
b1010011 Y
b1010011 e
b1011000 s
1+
#1900
0+
#1905
b1011001 s
b1010100 Y
b1010100 e
1+
#1910
0+
#1915
b1010101 Y
b1010101 e
b1011010 s
1+
#1920
0+
#1925
b1011011 s
b1010110 Y
b1010110 e
1+
#1930
0+
#1935
b1010111 Y
b1010111 e
b1011100 s
1+
#1940
0+
#1945
b1011101 s
b1011000 Y
b1011000 e
1+
#1950
0+
#1955
b1011001 Y
b1011001 e
b1011110 s
1+
#1960
0+
#1965
b1011111 s
b1011010 Y
b1011010 e
1+
#1970
0+
#1975
b1011011 Y
b1011011 e
b1100000 s
1+
#1980
0+
#1985
b1100001 s
b1011100 Y
b1011100 e
1+
#1990
0+
#1995
b1011101 Y
b1011101 e
b1100010 s
1+
#2000
0+
#2005
b1100011 s
b1011110 Y
b1011110 e
1+
#2010
0+
#2015
b1011111 Y
b1011111 e
b1100100 s
1+
#2020
0+
#2025
b1100101 s
b1100000 Y
b1100000 e
1+
#2030
0+
#2035
b1100001 Y
b1100001 e
b1100110 s
1+
#2040
0+
#2045
b1100111 s
b1100010 Y
b1100010 e
1+
#2050
0+
#2055
b1100011 Y
b1100011 e
b1101000 s
1+
#2060
0+
#2065
b1101001 s
b1100100 Y
b1100100 e
1+
#2070
0+
#2075
b1100101 Y
b1100101 e
b1101010 s
1+
#2080
0+
#2085
1i
b1101011 s
b1100110 Y
b1100110 e
1+
#2090
0+
#2095
0i
b1100111 Y
b1100111 e
b1010100101 n
b1 p
b0 s
1+
#2100
0+
#2105
b1 s
1"
b1101000 Y
b1101000 e
1+
#2110
0+
#2115
b1101001 Y
b1101001 e
b1 g
b10 s
1+
#2120
0+
#2125
b11 s
b11 g
b1101010 Y
b1101010 e
1+
#2130
0+
#2135
1V
b1101011 Y
b1101011 e
b111 g
b100 s
1+
#2140
0+
#2145
1X
b101 s
b1101100 Y
b1101100 e
1+
#2150
0+
#2155
0X
b1 b
b0 Y
b0 e
b110 s
1+
#2160
0+
#2165
b111 s
b1 Y
b1 e
1+
#2170
0+
#2175
b10 Y
b10 e
b1000 s
1+
#2180
0+
#2185
b1001 s
b11 Y
b11 e
1+
#2190
0+
#2195
b100 Y
b100 e
b1010 s
1+
#2200
0+
#2205
b1011 s
b101 Y
b101 e
1+
#2210
0+
#2215
b110 Y
b110 e
b1100 s
1+
#2220
0+
#2225
b1101 s
b111 Y
b111 e
1+
#2230
0+
#2235
b1000 Y
b1000 e
b1110 s
1+
#2240
0+
#2245
b1111 s
b1001 Y
b1001 e
1+
#2250
0+
#2255
b1010 Y
b1010 e
b10000 s
1+
#2260
0+
#2265
b10001 s
b1011 Y
b1011 e
1+
#2270
0+
#2275
b1100 Y
b1100 e
b10010 s
1+
#2280
0+
#2285
b10011 s
b1101 Y
b1101 e
1+
#2290
0+
#2295
b1110 Y
b1110 e
b10100 s
1+
#2300
0+
#2305
b10101 s
b1111 Y
b1111 e
1+
#2310
0+
#2315
b10000 Y
b10000 e
b10110 s
1+
#2320
0+
#2325
b10111 s
b10001 Y
b10001 e
1+
#2330
0+
#2335
b10010 Y
b10010 e
b11000 s
1+
#2340
0+
#2345
b11001 s
b10011 Y
b10011 e
1+
#2350
0+
#2355
b10100 Y
b10100 e
b11010 s
1+
#2360
0+
#2365
b11011 s
b10101 Y
b10101 e
1+
#2370
0+
#2375
b10110 Y
b10110 e
b11100 s
1+
#2380
0+
#2385
b11101 s
b10111 Y
b10111 e
1+
#2390
0+
#2395
b11000 Y
b11000 e
b11110 s
1+
#2400
0+
#2405
b11111 s
b11001 Y
b11001 e
1+
#2410
0+
#2415
b11010 Y
b11010 e
b100000 s
1+
#2420
0+
#2425
b100001 s
b11011 Y
b11011 e
1+
#2430
0+
#2435
b11100 Y
b11100 e
b100010 s
1+
#2440
0+
#2445
b100011 s
b11101 Y
b11101 e
1+
#2450
0+
#2455
b11110 Y
b11110 e
b100100 s
1+
#2460
0+
#2465
b100101 s
b11111 Y
b11111 e
1+
#2470
0+
#2475
b100000 Y
b100000 e
b100110 s
1+
#2480
0+
#2485
b100111 s
b100001 Y
b100001 e
1+
#2490
0+
#2495
b100010 Y
b100010 e
b101000 s
1+
#2500
0+
#2505
b101001 s
b100011 Y
b100011 e
1+
#2510
0+
#2515
b100100 Y
b100100 e
b101010 s
1+
#2520
0+
#2525
b101011 s
b100101 Y
b100101 e
1+
#2530
0+
#2535
b100110 Y
b100110 e
b101100 s
1+
#2540
0+
#2545
b101101 s
b100111 Y
b100111 e
1+
#2550
0+
#2555
b101000 Y
b101000 e
b101110 s
1+
#2560
0+
#2565
b101111 s
b101001 Y
b101001 e
1+
#2570
0+
#2575
b101010 Y
b101010 e
b110000 s
1+
#2580
0+
#2585
b110001 s
b101011 Y
b101011 e
1+
#2590
0+
#2595
b101100 Y
b101100 e
b110010 s
1+
#2600
0+
#2605
b110011 s
b101101 Y
b101101 e
1+
#2610
0+
#2615
b101110 Y
b101110 e
b110100 s
1+
#2620
0+
#2625
b110101 s
b101111 Y
b101111 e
1+
#2630
0+
#2635
b110000 Y
b110000 e
b110110 s
1+
#2640
0+
#2645
b110111 s
b110001 Y
b110001 e
1+
#2650
0+
#2655
b110010 Y
b110010 e
b111000 s
1+
#2660
0+
#2665
b111001 s
b110011 Y
b110011 e
1+
#2670
0+
#2675
b110100 Y
b110100 e
b111010 s
1+
#2680
0+
#2685
b111011 s
b110101 Y
b110101 e
1+
#2690
0+
#2695
b110110 Y
b110110 e
b111100 s
1+
#2700
0+
#2705
b111101 s
b110111 Y
b110111 e
b100000000 `
1+
#2710
0+
#2715
b111000 Y
b111000 e
b111110 s
1+
#2720
0+
#2725
b111111 s
b111001 Y
b111001 e
1+
#2730
0+
#2735
b111010 Y
b111010 e
b1000000 s
1+
#2740
0+
#2745
b1000001 s
b111011 Y
b111011 e
1+
#2750
0+
#2755
b111100 Y
b111100 e
b1000010 s
1+
#2760
0+
#2765
b1000011 s
b111101 Y
b111101 e
1+
#2770
0+
#2775
b111110 Y
b111110 e
b1000100 s
1+
#2780
0+
#2785
b1000101 s
b111111 Y
b111111 e
1+
#2790
0+
#2795
b1000000 Y
b1000000 e
b1000110 s
1+
#2800
0+
#2805
b1000111 s
b1000001 Y
b1000001 e
1+
#2810
0+
#2815
b1000010 Y
b1000010 e
b1001000 s
1+
#2820
0+
#2825
b1001001 s
b1000011 Y
b1000011 e
1+
#2830
0+
#2835
b1000100 Y
b1000100 e
b1001010 s
1+
#2840
0+
#2845
b1001011 s
b1000101 Y
b1000101 e
1+
#2850
0+
#2855
b1000110 Y
b1000110 e
b1001100 s
1+
#2860
0+
#2865
b1001101 s
b1000111 Y
b1000111 e
1+
#2870
0+
#2875
b1001000 Y
b1001000 e
b1001110 s
1+
#2880
0+
#2885
b1001111 s
b1001001 Y
b1001001 e
1+
#2890
0+
#2895
b1001010 Y
b1001010 e
b1010000 s
1+
#2900
0+
#2905
b1010001 s
b1001011 Y
b1001011 e
1+
#2910
0+
#2915
b1001100 Y
b1001100 e
b1010010 s
1+
#2920
0+
#2925
b1010011 s
b1001101 Y
b1001101 e
1+
#2930
0+
#2935
b1001110 Y
b1001110 e
b1010100 s
1+
#2940
0+
#2945
b1010101 s
b1001111 Y
b1001111 e
1+
#2950
0+
#2955
b1010000 Y
b1010000 e
b1010110 s
1+
#2960
0+
#2965
b1010111 s
b1010001 Y
b1010001 e
1+
#2970
0+
#2975
b1010010 Y
b1010010 e
b1011000 s
1+
#2980
0+
#2985
b1011001 s
b1010011 Y
b1010011 e
1+
#2990
0+
#2995
b1010100 Y
b1010100 e
b1011010 s
1+
#3000
0+
#3005
b1011011 s
b1010101 Y
b1010101 e
1+
#3010
0+
#3015
b1010110 Y
b1010110 e
b1011100 s
1+
#3020
0+
#3025
b1011101 s
b1010111 Y
b1010111 e
1+
#3030
0+
#3035
b1011000 Y
b1011000 e
b1011110 s
1+
#3040
0+
#3045
b1011111 s
b1011001 Y
b1011001 e
1+
#3050
0+
#3055
b1011010 Y
b1011010 e
b1100000 s
1+
#3060
0+
#3065
b1100001 s
b1011011 Y
b1011011 e
1+
#3070
0+
#3075
b1011100 Y
b1011100 e
b1100010 s
1+
#3080
0+
#3085
b1100011 s
b1011101 Y
b1011101 e
1+
#3090
0+
#3095
b1011110 Y
b1011110 e
b1100100 s
1+
#3100
0+
#3105
b1100101 s
b1011111 Y
b1011111 e
1+
#3110
0+
#3115
b1100000 Y
b1100000 e
b1100110 s
1+
#3120
0+
#3125
b1100111 s
b1100001 Y
b1100001 e
1+
#3130
0+
#3135
b1100010 Y
b1100010 e
b1101000 s
1+
#3140
0+
#3145
b1101001 s
b1100011 Y
b1100011 e
1+
#3150
0+
#3155
b1100100 Y
b1100100 e
b1101010 s
1+
#3160
0+
#3165
1i
b1101011 s
b1100101 Y
b1100101 e
1+
#3170
0+
#3175
0i
b1100110 Y
b1100110 e
b101010010 n
b10 p
b0 s
1+
#3180
0+
#3185
b1 s
0"
b1100111 Y
b1100111 e
1+
#3190
0+
#3195
b1101000 Y
b1101000 e
b110 g
b10 s
1+
#3200
0+
#3205
1W
b11 s
b100 g
b1101001 Y
b1101001 e
1+
#3210
0+
#3215
0W
0V
b1101010 Y
b1101010 e
b0 g
b100 s
1+
#3220
0+
#3225
b101 s
b1101011 Y
b1101011 e
1+
#3230
0+
#3235
1X
b1101100 Y
b1101100 e
b110 s
1+
#3240
0+
#3245
0X
b111 s
b0 Y
b0 e
b10 b
1+
#3250
0+
#3255
b1 Y
b1 e
b1000 s
1+
#3260
0+
#3265
b1001 s
b10 Y
b10 e
1+
#3270
0+
#3275
b11 Y
b11 e
b1010 s
1+
#3280
0+
#3285
b1011 s
b100 Y
b100 e
1+
#3290
0+
#3295
b101 Y
b101 e
b1100 s
1+
#3300
0+
#3305
b1101 s
b110 Y
b110 e
1+
#3310
0+
#3315
b111 Y
b111 e
b1110 s
1+
#3320
0+
#3325
b1111 s
b1000 Y
b1000 e
1+
#3330
0+
#3335
b1001 Y
b1001 e
b10000 s
1+
#3340
0+
#3345
b10001 s
b1010 Y
b1010 e
1+
#3350
0+
#3355
b1011 Y
b1011 e
b10010 s
1+
#3360
0+
#3365
b10011 s
b1100 Y
b1100 e
1+
#3370
0+
#3375
b1101 Y
b1101 e
b10100 s
1+
#3380
0+
#3385
b10101 s
b1110 Y
b1110 e
1+
#3390
0+
#3395
b1111 Y
b1111 e
b10110 s
1+
#3400
0+
#3405
b10111 s
b10000 Y
b10000 e
1+
#3410
0+
#3415
b10001 Y
b10001 e
b11000 s
1+
#3420
0+
#3425
b11001 s
b10010 Y
b10010 e
1+
#3430
0+
#3435
b10011 Y
b10011 e
b11010 s
1+
#3440
0+
#3445
b11011 s
b10100 Y
b10100 e
1+
#3450
0+
#3455
b10101 Y
b10101 e
b11100 s
1+
#3460
0+
#3465
b11101 s
b10110 Y
b10110 e
1+
#3470
0+
#3475
b10111 Y
b10111 e
b11110 s
1+
#3480
0+
#3485
b11111 s
b11000 Y
b11000 e
1+
#3490
0+
#3495
b11001 Y
b11001 e
b100000 s
1+
#3500
0+
#3505
b100001 s
b11010 Y
b11010 e
1+
#3510
0+
#3515
b11011 Y
b11011 e
b100010 s
1+
#3520
0+
#3525
b100011 s
b11100 Y
b11100 e
1+
#3530
0+
#3535
b11101 Y
b11101 e
b100100 s
1+
#3540
0+
#3545
b100101 s
b11110 Y
b11110 e
1+
#3550
0+
#3555
b11111 Y
b11111 e
b100110 s
1+
#3560
0+
#3565
b100111 s
b100000 Y
b100000 e
1+
#3570
0+
#3575
b100001 Y
b100001 e
b101000 s
1+
#3580
0+
#3585
b101001 s
b100010 Y
b100010 e
1+
#3590
0+
#3595
b100011 Y
b100011 e
b101010 s
1+
#3600
0+
#3605
b101011 s
b100100 Y
b100100 e
1+
#3610
0+
#3615
b100101 Y
b100101 e
b101100 s
1+
#3620
0+
#3625
b101101 s
b100110 Y
b100110 e
1+
#3630
0+
#3635
b100111 Y
b100111 e
b101110 s
1+
#3640
0+
#3645
b101111 s
b101000 Y
b101000 e
1+
#3650
0+
#3655
b101001 Y
b101001 e
b110000 s
1+
#3660
0+
#3665
b110001 s
b101010 Y
b101010 e
1+
#3670
0+
#3675
b101011 Y
b101011 e
b110010 s
1+
#3680
0+
#3685
b110011 s
b101100 Y
b101100 e
1+
#3690
0+
#3695
b101101 Y
b101101 e
b110100 s
1+
#3700
0+
#3705
b110101 s
b101110 Y
b101110 e
1+
#3710
0+
#3715
b101111 Y
b101111 e
b110110 s
1+
#3720
0+
#3725
b110111 s
b110000 Y
b110000 e
1+
#3730
0+
#3735
b110001 Y
b110001 e
b111000 s
1+
#3740
0+
#3745
b111001 s
b110010 Y
b110010 e
1+
#3750
0+
#3755
b110011 Y
b110011 e
b111010 s
1+
#3760
0+
#3765
b111011 s
b110100 Y
b110100 e
1+
#3770
0+
#3775
b110101 Y
b110101 e
b111100 s
1+
#3780
0+
#3785
b111101 s
b110110 Y
b110110 e
1+
#3790
0+
#3795
b10000000 `
b110111 Y
b110111 e
b111110 s
1+
#3800
0+
#3805
b111111 s
b111000 Y
b111000 e
1+
#3810
0+
#3815
b111001 Y
b111001 e
b1000000 s
1+
#3820
0+
#3825
b1000001 s
b111010 Y
b111010 e
1+
#3830
0+
#3835
b111011 Y
b111011 e
b1000010 s
1+
#3840
0+
#3845
b1000011 s
b111100 Y
b111100 e
1+
#3850
0+
#3855
b111101 Y
b111101 e
b1000100 s
1+
#3860
0+
#3865
b1000101 s
b111110 Y
b111110 e
1+
#3870
0+
#3875
b111111 Y
b111111 e
b1000110 s
1+
#3880
0+
#3885
b1000111 s
b1000000 Y
b1000000 e
1+
#3890
0+
#3895
b1000001 Y
b1000001 e
b1001000 s
1+
#3900
0+
#3905
b1001001 s
b1000010 Y
b1000010 e
1+
#3910
0+
#3915
b1000011 Y
b1000011 e
b1001010 s
1+
#3920
0+
#3925
b1001011 s
b1000100 Y
b1000100 e
1+
#3930
0+
#3935
b1000101 Y
b1000101 e
b1001100 s
1+
#3940
0+
#3945
b1001101 s
b1000110 Y
b1000110 e
1+
#3950
0+
#3955
b1000111 Y
b1000111 e
b1001110 s
1+
#3960
0+
#3965
b1001111 s
b1001000 Y
b1001000 e
1+
#3970
0+
#3975
b1001001 Y
b1001001 e
b1010000 s
1+
#3980
0+
#3985
b1010001 s
b1001010 Y
b1001010 e
1+
#3990
0+
#3995
b1001011 Y
b1001011 e
b1010010 s
1+
#4000
0+
#4005
b1010011 s
b1001100 Y
b1001100 e
1+
#4010
0+
#4015
b1001101 Y
b1001101 e
b1010100 s
1+
#4020
0+
#4025
b1010101 s
b1001110 Y
b1001110 e
1+
#4030
0+
#4035
b1001111 Y
b1001111 e
b1010110 s
1+
#4040
0+
#4045
b1010111 s
b1010000 Y
b1010000 e
1+
#4050
0+
#4055
b1010001 Y
b1010001 e
b1011000 s
1+
#4060
0+
#4065
b1011001 s
b1010010 Y
b1010010 e
1+
#4070
0+
#4075
b1010011 Y
b1010011 e
b1011010 s
1+
#4080
0+
#4085
b1011011 s
b1010100 Y
b1010100 e
1+
#4090
0+
#4095
b1010101 Y
b1010101 e
b1011100 s
1+
#4100
0+
#4105
b1011101 s
b1010110 Y
b1010110 e
1+
#4110
0+
#4115
b1010111 Y
b1010111 e
b1011110 s
1+
#4120
0+
#4125
b1011111 s
b1011000 Y
b1011000 e
1+
#4130
0+
#4135
b1011001 Y
b1011001 e
b1100000 s
1+
#4140
0+
#4145
b1100001 s
b1011010 Y
b1011010 e
1+
#4150
0+
