accumulator/wave.vcd
$date
	Mon Mar 11 20:58:59 2024
$end
$version
	Icarus Verilog
$end
$timescale
	1ns
$end
$scope module TestAccu $end
$var wire 6 ! accm [5:0] $end
$var wire 16 " acc [15:0] $end
$var reg 1 # clk $end
$var reg 16 $ d [15:0] $end
$var reg 6 % dm [5:0] $end
$var reg 1 & rst $end
$scope module theAcc $end
$var wire 1 # clk $end
$var wire 16 ' d [15:0] $end
$var wire 1 ( en $end
$var wire 1 & rst $end
$var parameter 32 ) DW $end
$var reg 16 * acc [15:0] $end
$upscope $end
$scope module theAccM $end
$var wire 1 # clk $end
$var wire 6 + d [5:0] $end
$var wire 1 , en $end
$var wire 1 & rst $end
$var parameter 32 - M $end
$var reg 6 . acc [5:0] $end
$var reg 6 / acc_next [5:0] $end
$upscope $end
$upscope $end
$enddefinitions $end
$comment Show the parameter values. $end
$dumpall
b110010 -
b10000 )
$end
#0
$dumpvars
bx /
bx .
1,
b0 +
bx *
1(
b0 '
1&
b0 %
b0 $
0#
bx "
bx !
$end
#5
b0 /
b0 "
b0 *
b0 !
b0 .
1#
#10
b1 /
0#
0&
b1 %
b1 +
b1 $
b1 '
#15
b10 /
b1 !
b1 .
b1 "
b1 *
1#
#20
b11 /
0#
b10 %
b10 +
b10 $
b10 '
#25
b101 /
b11 "
b11 *
b11 !
b11 .
1#
#30
b110 /
0#
b11 %
b11 +
b11 $
b11 '
#35
b1001 /
b110 !
b110 .
b110 "
b110 *
1#
#40
b1010 /
0#
b100 %
b100 +
b100 $
b100 '
#45
b1110 /
b1010 "
b1010 *
b1010 !
b1010 .
1#
#50
b1111 /
0#
b101 %
b101 +
b101 $
b101 '
#55
b10100 /
b1111 !
b1111 .
b1111 "
b1111 *
1#
#60
b10101 /
0#
b110 %
b110 +
b110 $
b110 '
#65
b11011 /
b10101 "
b10101 *
b10101 !
b10101 .
1#
#70
b11100 /
0#
b111 %
b111 +
b111 $
b111 '
#75
b100011 /
b11100 !
b11100 .
b11100 "
b11100 *
1#
#80
b100100 /
0#
b1000 %
b1000 +
b1000 $
b1000 '
#85
b101100 /
b100100 "
b100100 *
b100100 !
b100100 .
1#
#90
b101101 /
0#
b1001 %
b1001 +
b1001 $
b1001 '
#95
b100 /
b101101 !
b101101 .
b101101 "
b101101 *
1#
#100
b101 /
0#
b1010 %
b1010 +
b1010 $
b1010 '
#105
b1111 /
b110111 "
b110111 *
b101 !
b101 .
1#
#110
b10000 /
0#
b1011 %
b1011 +
b1011 $
b1011 '
#115
b11011 /
b10000 !
b10000 .
b1000010 "
b1000010 *
1#
#120
b11100 /
0#
b1100 %
b1100 +
b1100 $
b1100 '
#125
b101000 /
b1001110 "
b1001110 *
b11100 !
b11100 .
1#
#130
b101001 /
0#
b1101 %
b1101 +
b1101 $
b1101 '
#135
b100 /
b101001 !
b101001 .
b1011011 "
b1011011 *
1#
#140
b101 /
0#
b1110 %
b1110 +
b1110 $
b1110 '
#145
b10011 /
b1101001 "
b1101001 *
b101 !
b101 .
1#
#150
b10100 /
0#
b1111 %
b1111 +
b1111 $
b1111 '
#155
b100011 /
b10100 !
b10100 .
b1111000 "
b1111000 *
1#
#160
b100100 /
0#
b10000 %
b10000 +
b10000 $
b10000 '
#165
b10 /
b10001000 "
b10001000 *
b100100 !
b100100 .
1#
#170
b11 /
0#
b10001 %
b10001 +
b10001 $
b10001 '
#175
b10100 /
b11 !
b11 .
b10011001 "
b10011001 *
1#
#180
b10101 /
0#
b10010 %
b10010 +
b10010 $
b10010 '
#185
b100111 /
b10101011 "
b10101011 *
b10101 !
b10101 .
1#
#190
b101000 /
0#
b10011 %
b10011 +
b10011 $
b10011 '
#195
b1001 /
b101000 !
b101000 .
b10111110 "
b10111110 *
1#
#200
b1010 /
0#
b10100 %
b10100 +
b10100 $
b10100 '
#205
b11110 /
b11010010 "
b11010010 *
b1010 !
b1010 .
1#
#210
b11111 /
0#
b10101 %
b10101 +
b10101 $
b10101 '
#215
b10 /
b11111 !
b11111 .
b11100111 "
b11100111 *
1#
#220
b11 /
0#
b10110 %
b10110 +
b10110 $
b10110 '
#225
b11001 /
b11111101 "
b11111101 *
b11 !
b11 .
1#
#230
b11010 /
0#
b10111 %
b10111 +
b10111 $
b10111 '
#235
b110001 /
b11010 !
b11010 .
b100010100 "
b100010100 *
1#
#240
b0 /
0#
b11000 %
b11000 +
b11000 $
b11000 '
#245
b11000 /
b100101100 "
b100101100 *
b0 !
b0 .
1#
#250
b11001 /
0#
b11001 %
b11001 +
b11001 $
b11001 '
#255
b0 /
b11001 !
b11001 .
b101000101 "
b101000101 *
1#
#260
b1 /
0#
b11010 %
b11010 +
b11010 $
b11010 '
#265
b11011 /
b101011111 "
b101011111 *
b1 !
b1 .
1#
#270
b11100 /
0#
b11011 %
b11011 +
b11011 $
b11011 '
#275
b101 /
b11100 !
b11100 .
b101111010 "
b101111010 *
1#
#280
b110 /
0#
b11100 %
b11100 +
b11100 $
b11100 '
#285
b100010 /
b110010110 "
b110010110 *
b110 !
b110 .
1#
#290
b100011 /
0#
b11101 %
b11101 +
b11101 $
b11101 '
#295
b1110 /
b100011 !
b100011 .
b110110011 "
b110110011 *
1#
#300
b1111 /
0#
b11110 %
b11110 +
b11110 $
b11110 '
#305
b101101 /
b111010001 "
b111010001 *
b1111 !
b1111 .
1#
#310
b101110 /
0#
b11111 %
b11111 +
b11111 $
b11111 '
#315
b11011 /
b101110 !
b101110 .
b111110000 "
b111110000 *
1#
#320
b11100 /
0#
b100000 %
b100000 +
b100000 $
b100000 '
#325
b1010 /
b1000010000 "
b1000010000 *
b11100 !
b11100 .
1#
#330
b1011 /
0#
b100001 %
b100001 +
b100001 $
b100001 '
#335
b101100 /
b1011 !
b1011 .
b1000110001 "
b1000110001 *
1#
#340
b101101 /
0#
b100010 %
b100010 +
b100010 $
b100010 '
#345
b11101 /
b1001010011 "
b1001010011 *
b101101 !
b101101 .
1#
#350
b11110 /
0#
b100011 %
b100011 +
b100011 $
b100011 '
#355
b1111 /
b11110 !
b11110 .
b1001110110 "
b1001110110 *
1#
#360
b10000 /
0#
b100100 %
b100100 +
b100100 $
b100100 '
#365
b10 /
b1010011010 "
b1010011010 *
b10000 !
b10000 .
1#
#370
b11 /
0#
b100101 %
b100101 +
b100101 $
b100101 '
#375
b101000 /
b11 !
b11 .
b1010111111 "
b1010111111 *
1#
#380
b101001 /
0#
b100110 %
b100110 +
b100110 $
b100110 '
#385
b11101 /
b1011100101 "
b1011100101 *
b101001 !
b101001 .
1#
#390
b11110 /
0#
b100111 %
b100111 +
b100111 $
b100111 '
#395
b10011 /
b11110 !
b11110 .
b1100001100 "
b1100001100 *
1#
#400
b10100 /
0#
b101000 %
b101000 +
b101000 $
b101000 '
#405
b1010 /
b1100110100 "
b1100110100 *
b10100 !
b10100 .
1#
#410
b1011 /
0#
b101001 %
b101001 +
b101001 $
b101001 '
#415
b10 /
b1011 !
b1011 .
b1101011101 "
b1101011101 *
1#
#420
b11 /
0#
b101010 %
b101010 +
b101010 $
b101010 '
#425
b101101 /
b1110000111 "
b1110000111 *
b11 !
b11 .
1#
#430
b101110 /
0#
b101011 %
b101011 +
b101011 $
b101011 '
#435
b100111 /
b101110 !
b101110 .
b1110110010 "
b1110110010 *
1#
#440
b101000 /
0#
b101100 %
b101100 +
b101100 $
b101100 '
#445
b100010 /
b1111011110 "
b1111011110 *
b101000 !
b101000 .
1#
#450
b100011 /
0#
b101101 %
b101101 +
b101101 $
b101101 '
#455
b11110 /
b100011 !
b100011 .
b10000001011 "
b10000001011 *
1#
#460
b11111 /
0#
b101110 %
b101110 +
b101110 $
b101110 '
#465
b11011 /
b10000111001 "
b10000111001 *
b11111 !
b11111 .
1#
#470
b11100 /
0#
b101111 %
b101111 +
b101111 $
b101111 '
#475
b11001 /
b11100 !
b11100 .
b10001101000 "
b10001101000 *
1#
#480
b11010 /
0#
b110000 %
b110000 +
b110000 $
b110000 '
#485
b11000 /
b10010011000 "
b10010011000 *
b11010 !
b11010 .
1#
#490
b11001 /
0#
b110001 %
b110001 +
b110001 $
b110001 '
#495
b11000 /
b11001 !
b11001 .
b10011001001 "
b10011001001 *
1#
#500
b11001 /
0#
b110010 %
b110010 +
b110010 $
b110010 '
#505
b10011111011 "
b10011111011 *
1#
#510
b11010 /
0#
b110011 %
b110011 +
b110011 $
b110011 '
#515
b11011 /
b11010 !
b11010 .
b10100101110 "
b10100101110 *
1#
#520
b11100 /
0#
b110100 %
b110100 +
b110100 $
b110100 '
#525
b11110 /
b10101100010 "
b10101100010 *
b11100 !
b11100 .
1#
#530
b11111 /
0#
b110101 %
b110101 +
b110101 $
b110101 '
#535
b100010 /
b11111 !
b11111 .
b10110010111 "
b10110010111 *
1#
#540
b100011 /
0#
b110110 %
b110110 +
b110110 $
b110110 '
#545
b100111 /
b10111001101 "
b10111001101 *
b100011 !
b100011 .
1#
#550
b101000 /
0#
b110111 %
b110111 +
b110111 $
b110111 '
#555
b101101 /
b101000 !
b101000 .
b11000000100 "
b11000000100 *
1#
#560
b101110 /
0#
b111000 %
b111000 +
b111000 $
b111000 '
#565
b110100 /
b11000111100 "
b11000111100 *
b101110 !
b101110 .
1#
#570
b110101 /
0#
b111001 %
b111001 +
b111001 $
b111001 '
#575
b111100 /
b110101 !
b110101 .
b11001110101 "
b11001110101 *
1#
#580
b111101 /
0#
b111010 %
b111010 +
b111010 $
b111010 '
#585
b101 /
b11010101111 "
b11010101111 *
b111101 !
b111101 .
1#
#590
b110 /
0#
b111011 %
b111011 +
b111011 $
b111011 '
#595
b1111 /
b110 !
b110 .
b11011101010 "
b11011101010 *
1#
#600
b10000 /
0#
b111100 %
b111100 +
b111100 $
b111100 '
#605
b11010 /
b11100100110 "
b11100100110 *
b10000 !
b10000 .
1#
#610
b11011 /
0#
b111101 %
b111101 +
b111101 $
b111101 '
#615
b100110 /
b11011 !
b11011 .
b11101100011 "
b11101100011 *
1#
#620
b100111 /
0#
b111110 %
b111110 +
b111110 $
b111110 '
#625
b110011 /
b11110100001 "
b11110100001 *
b100111 !
b100111 .
1#
#630
b110100 /
0#
b111111 %
b111111 +
b111111 $
b111111 '
#635
b1 /
b110100 !
b110100 .
b11111100000 "
b11111100000 *
1#
#640
b10 /
0#
b0 %
b0 +
b1000000 $
b1000000 '
#645
b100000100000 "
b100000100000 *
b10 !
b10 .
1#
#650
b11 /
0#
b1 %
b1 +
b1000001 $
b1000001 '
#655
b100 /
b11 !
b11 .
b100001100001 "
b100001100001 *
1#
#660
b101 /
0#
b10 %
b10 +
b1000010 $
b1000010 '
#665
b111 /
b100010100011 "
b100010100011 *
b101 !
b101 .
1#
#670
b1000 /
0#
b11 %
b11 +
b1000011 $
b1000011 '
#675
b1011 /
b1000 !
b1000 .
b100011100110 "
b100011100110 *
1#
#680
b1100 /
0#
b100 %
b100 +
b1000100 $
b1000100 '
#685
b10000 /
b100100101010 "
b100100101010 *
b1100 !
b1100 .
1#
#690
b10001 /
0#
b101 %
b101 +
b1000101 $
b1000101 '
#695
b10110 /
b10001 !
b10001 .
b100101101111 "
b100101101111 *
1#
#700
b10111 /
0#
b110 %
b110 +
b1000110 $
b1000110 '
#705
b11101 /
b100110110101 "
b100110110101 *
b10111 !
b10111 .
1#
#710
b11110 /
0#
b111 %
b111 +
b1000111 $
b1000111 '
#715
b100101 /
b11110 !
b11110 .
b100111111100 "
b100111111100 *
1#
#720
b100110 /
0#
b1000 %
b1000 +
b1001000 $
b1001000 '
#725
b101110 /
b101001000100 "
b101001000100 *
b100110 !
b100110 .
1#
#730
b101111 /
0#
b1001 %
b1001 +
b1001001 $
b1001001 '
#735
b110 /
b101111 !
b101111 .
b101010001101 "
b101010001101 *
1#
#740
b111 /
0#
b1010 %
b1010 +
b1001010 $
b1001010 '
#745
b10001 /
b101011010111 "
b101011010111 *
b111 !
b111 .
1#
#750
b10010 /
0#
b1011 %
b1011 +
b1001011 $
b1001011 '
#755
b11101 /
b10010 !
b10010 .
b101100100010 "
b101100100010 *
1#
#760
b11110 /
0#
b1100 %
b1100 +
b1001100 $
b1001100 '
#765
b101010 /
b101101101110 "
b101101101110 *
b11110 !
b11110 .
1#
#770
b101011 /
0#
b1101 %
b1101 +
b1001101 $
b1001101 '
#775
b110 /
b101011 !
b101011 .
b101110111011 "
b101110111011 *
1#
#780
b111 /
0#
b1110 %
b1110 +
b1001110 $
b1001110 '
#785
b10101 /
b110000001001 "
b110000001001 *
b111 !
b111 .
1#
#790
b10110 /
0#
b1111 %
b1111 +
b1001111 $
b1001111 '
#795
b100101 /
b10110 !
b10110 .
b110001011000 "
b110001011000 *
1#
#800
b100110 /
0#
b10000 %
b10000 +
b1010000 $
b1010000 '
#805
b100 /
b110010101000 "
b110010101000 *
b100110 !
b100110 .
1#
#810
b101 /
0#
b10001 %
b10001 +
b1010001 $
b1010001 '
#815
b10110 /
b101 !
b101 .
b110011111001 "
b110011111001 *
1#
#820
b10111 /
0#
b10010 %
b10010 +
b1010010 $
b1010010 '
#825
b101001 /
b110101001011 "
b110101001011 *
b10111 !
b10111 .
1#
#830
b101010 /
0#
b10011 %
b10011 +
b1010011 $
b1010011 '
#835
b1011 /
b101010 !
b101010 .
b110110011110 "
b110110011110 *
1#
#840
b1100 /
0#
b10100 %
b10100 +
b1010100 $
b1010100 '
#845
b100000 /
b110111110010 "
b110111110010 *
b1100 !
b1100 .
1#
#850
b100001 /
0#
b10101 %
b10101 +
b1010101 $
b1010101 '
#855
b100 /
b100001 !
b100001 .
b111001000111 "
b111001000111 *
1#
#860
b101 /
0#
b10110 %
b10110 +
b1010110 $
b1010110 '
#865
b11011 /
b111010011101 "
b111010011101 *
b101 !
b101 .
1#
#870
b11100 /
0#
b10111 %
b10111 +
b1010111 $
b1010111 '
#875
b1 /
b11100 !
b11100 .
b111011110100 "
b111011110100 *
1#
#880
b10 /
0#
b11000 %
b11000 +
b1011000 $
b1011000 '
#885
b11010 /
b111101001100 "
b111101001100 *
b10 !
b10 .
1#
#890
b11011 /
0#
b11001 %
b11001 +
b1011001 $
b1011001 '
#895
b10 /
b11011 !
b11011 .
b111110100101 "
b111110100101 *
1#
#900
b11 /
0#
b11010 %
b11010 +
b1011010 $
b1011010 '
#905
b11101 /
b111111111111 "
b111111111111 *
b11 !
b11 .
1#
#910
b11110 /
0#
b11011 %
b11011 +
b1011011 $
b1011011 '
#915
b111 /
b11110 !
b11110 .
b1000001011010 "
b1000001011010 *
1#
#920
b1000 /
0#
b11100 %
b11100 +
b1011100 $
b1011100 '
#925
b100100 /
b1000010110110 "
b1000010110110 *
b1000 !
b1000 .
1#
#930
b100101 /
0#
b11101 %
b11101 +
b1011101 $
b1011101 '
#935
b10000 /
b100101 !
b100101 .
b1000100010011 "
b1000100010011 *
1#
#940
b10001 /
0#
b11110 %
b11110 +
b1011110 $
b1011110 '
#945
b101111 /
b1000101110001 "
b1000101110001 *
b10001 !
b10001 .
1#
#950
b110000 /
0#
b11111 %
b11111 +
b1011111 $
b1011111 '
#955
b11101 /
b110000 !
b110000 .
b1000111010000 "
b1000111010000 *
1#
#960
b11110 /
0#
b100000 %
b100000 +
b1100000 $
b1100000 '
#965
b1100 /
b1001000110000 "
b1001000110000 *
b11110 !
b11110 .
1#
#970
b1101 /
0#
b100001 %
b100001 +
b1100001 $
b1100001 '
#975
b101110 /
b1101 !
b1101 .
b1001010010001 "
b1001010010001 *
1#
#980
b101111 /
0#
b100010 %
b100010 +
b1100010 $
b1100010 '
#985
b11111 /
b1001011110011 "
b1001011110011 *
b101111 !
b101111 .
1#
#990
b100000 /
0#
b100011 %
b100011 +
b1100011 $
b1100011 '
#995
b10001 /
b100000 !
b100000 .
b1001101010110 "
b1001101010110 *
1#
#1000
b10010 /
0#
b100100 %
b100100 +
b1100100 $
b1100100 '
