spi/wave.vcd
$date
	Wed Mar 20 11:06:06 2024
$end
$version
	Icarus Verilog
$end
$timescale
	1ns
$end
$scope module TestSpi $end
$var wire 1 ! svalid $end
$var wire 24 " ss_n [23:0] $end
$var wire 8 # srx_d [7:0] $end
$var wire 1 $ sread $end
$var wire 1 % smiso_tri $end
$var wire 1 & smiso $end
$var wire 1 ' sclk0 $end
$var wire 1 ( sbusy $end
$var wire 1 ) mvalid $end
$var wire 8 * mrx_d [7:0] $end
$var wire 1 + mread $end
$var wire 1 , mosi $end
$var wire 1 - mmosi_tri $end
$var wire 1 . mmosi $end
$var wire 1 / miso $end
$var wire 1 0 mbusy $end
$var reg 1 1 clk $end
$var reg 3 2 mrx_idx [2:0] $end
$var reg 8 3 mtx_d [7:0] $end
$var reg 3 4 mtx_idx [2:0] $end
$var reg 1 5 rst $end
$var reg 3 6 srx_idx [2:0] $end
$var reg 24 7 ss_mask [23:0] $end
$var reg 1 8 start $end
$var reg 8 9 stx_d [7:0] $end
$var reg 3 : stx_idx [2:0] $end
$var reg 8 ; trans_len [7:0] $end
$scope module theMaster $end
$var wire 1 1 clk $end
$var wire 1 < in_shift $end
$var wire 1 / miso $end
$var wire 1 - mosi_tri $end
$var wire 1 = out_shift $end
$var wire 1 > out_valid $end
$var wire 1 + read $end
$var wire 1 5 rst $end
$var wire 24 ? ss_mask [23:0] $end
$var wire 1 8 start $end
$var wire 8 @ trans_len [7:0] $end
$var wire 8 A tx_data [7:0] $end
$var wire 1 B hbr_co $end
$var wire 1 C hbit_co $end
$var wire 13 D hbit_cnt [12:0] $end
$var parameter 32 E CHPA $end
$var parameter 32 F HBR_DIV $end
$var reg 1 0 busy $end
$var reg 13 G hbit_cnt_max [12:0] $end
$var reg 8 H miso_shift_reg [7:0] $end
$var reg 1 . mosi $end
$var reg 8 I mosi_shift_reg [7:0] $end
$var reg 1 J read_dly $end
$var reg 8 K rx_data [7:0] $end
$var reg 1 ' sclk0 $end
$var reg 1 L sclk1 $end
$var reg 24 M ss_mask_reg [23:0] $end
$var reg 24 N ss_n [23:0] $end
$var reg 1 ) valid $end
$scope module hbitCnt $end
$var wire 1 1 clk $end
$var wire 1 C co $end
$var wire 13 O max [12:0] $end
$var wire 1 5 rst $end
$var wire 1 B en $end
$var parameter 32 P DW $end
$var reg 13 Q cnt [12:0] $end
$upscope $end
$scope module hbrCnt $end
$var wire 1 1 clk $end
$var wire 1 B co $end
$var wire 1 0 en $end
$var wire 1 5 rst $end
$var parameter 32 R M $end
$var reg 2 S cnt [1:0] $end
$upscope $end
$upscope $end
$scope module theSlave $end
$var wire 1 T bit_cnt_en $end
$var wire 1 1 clk $end
$var wire 1 U in_shift $end
$var wire 1 % miso_tri $end
$var wire 1 , mosi $end
$var wire 1 V out_shift $end
$var wire 1 W out_valid $end
$var wire 1 $ read $end
$var wire 1 5 rst $end
$var wire 1 ' sclk0 $end
$var wire 1 X sclk_falling $end
$var wire 1 Y sclk_rising $end
$var wire 1 Z ss_n $end
$var wire 8 [ tx_data [7:0] $end
$var wire 1 \ ss_n_rising $end
$var wire 1 ] ss_n_falling $end
$var wire 1 ^ sclk_r $end
$var wire 1 _ sclk_f $end
$var wire 1 & miso $end
$var wire 12 ` bit_cnt [11:0] $end
$var parameter 32 a CHPA $end
$var reg 1 ( busy $end
$var reg 8 b miso_shift_reg [7:0] $end
$var reg 1 c mosi_reg $end
$var reg 8 d mosi_shift_reg [7:0] $end
$var reg 1 e read_dly $end
$var reg 8 f rx_data [7:0] $end
$var reg 1 g ss_n_reg $end
$var reg 1 ! valid $end
$scope module bitCnt $end
$var wire 1 1 clk $end
$var wire 1 h co $end
$var wire 1 T en $end
$var wire 1 i rst $end
$var parameter 32 j M $end
$var reg 12 k cnt [11:0] $end
$upscope $end
$scope module sclkEdgeDet $end
$var wire 1 1 clk $end
$var wire 1 ' in $end
$var wire 1 ^ rising $end
$var wire 1 l out $end
$var wire 1 _ falling $end
$var parameter 32 m SYNC_STG $end
$var reg 2 n dly [1:0] $end
$upscope $end
$scope module ssnEdgeDet $end
$var wire 1 1 clk $end
$var wire 1 Z in $end
$var wire 1 \ rising $end
$var wire 1 o out $end
$var wire 1 ] falling $end
$var parameter 32 p SYNC_STG $end
$var reg 2 q dly [1:0] $end
$upscope $end
$upscope $end
$upscope $end
$enddefinitions $end
$comment Show the parameter values. $end
$dumpall
b1 p
b1 m
b1000000000000 j
b1 a
b100 R
b1101 P
b100 F
b1 E
$end
#0
$dumpvars
bx q
xo
bx n
xl
bx k
1i
xh
xg
bx f
xe
bx d
xc
bx b
bx `
x_
x^
x]
x\
bx [
xZ
xY
xX
xW
xV
xU
xT
bx S
bx Q
bx O
bx N
bx M
xL
bx K
xJ
bx I
bx H
bx G
bx D
xC
xB
bx A
b0 @
b0 ?
x>
x=
x<
b0 ;
b0 :
bx 9
08
b0 7
b0 6
15
b0 4
bx 3
b0 2
01
x0
x/
x.
x-
x,
x+
bx *
x)
x(
x'
x&
x%
x$
bx #
bx "
x!
$end
#5
0+
0<
0=
z,
0W
0C
0>
0B
1-
1Z
0h
0&
b0 S
b0 D
b0 Q
b0 G
b0 O
00
b0 I
b0 H
b0 *
b0 K
b0 M
1L
0'
b111111111111111111111111 "
b111111111111111111111111 N
b0 `
b0 k
0(
b0 b
b0 d
b0 #
b0 f
11
#10
01
#11
xi
05
#15
0$
0T
0U
0X
0V
0Y
0i
z/
0^
0]
0!
zc
1%
1g
bx0 n
bx1 q
0)
0.
0J
11
#20
01
#25
0\
1o
0_
0l
b11 q
b0 n
0e
11
#30
01
#35
11
#40
01
#45
11
#50
01
#55
11
#60
01
#65
11
#70
01
#75
11
#80
01
#85
11
#90
01
#95
11
#100
01
#105
0,
0-
b10001 G
b10001 O
10
b100 M
18
b100 7
b100 ?
11
#110
01
#115
0c
b111111111111111111111011 "
b111111111111111111111011 N
b1 S
08
b0 7
b0 ?
11
#120
01
#125
b10 S
11
#130
01
#135
1+
1<
1=
1B
b11 S
11
#140
01
#145
0<
0=
0B
0>
0+
b0 S
b1 D
b1 Q
1J
bz0000000 H
b11111111 3
b11111111 A
b1 4
11
#150
01
#155
0L
1'
b11111111 I
0J
b1 S
11
#160
01
#165
1,
1^
b10 S
1.
b1 n
11
#170
01
#175
0^
1l
1B
1c
b11 n
b11 S
11
#180
01
#185
0B
b0 S
b10 D
b10 Q
11
#190
01
#195
1L
0'
b1 S
11
#200
01
#205
1_
b10 S
b10 n
11
#210
01
#215
1<
1=
0_
0l
1B
b0 n
b11 S
11
#220
01
#225
0<
0=
0B
b0 S
b11 D
b11 Q
b1111111 I
bz000000 H
11
#230
01
#235
0L
1'
b1 S
11
#240
01
#245
1^
b10 S
b1 n
11
#250
01
#255
0^
1l
1B
b11 n
b11 S
11
#260
01
#265
0B
b0 S
b100 D
b100 Q
11
#270
01
#275
1L
0'
b1 S
11
#280
01
#285
1_
b10 S
b10 n
11
#290
01
#295
1<
1=
0_
0l
1B
b0 n
b11 S
11
#300
01
#305
0<
0=
0B
b0 S
b101 D
b101 Q
b111111 I
bz00000 H
11
#310
01
#315
0L
1'
b1 S
11
#320
01
#325
1^
b10 S
b1 n
11
#330
01
#335
0^
1l
1B
b11 n
b11 S
11
#340
01
#345
0B
b0 S
b110 D
b110 Q
11
#350
01
#355
1L
0'
b1 S
11
#360
01
#365
1_
b10 S
b10 n
11
#370
01
#375
1<
1=
0_
0l
1B
b0 n
b11 S
11
#380
01
#385
0<
0=
0B
b0 S
b111 D
b111 Q
b11111 I
bz0000 H
11
#390
01
#395
0L
1'
b1 S
11
#400
01
#405
1^
b10 S
b1 n
11
#410
01
#415
0^
1l
1B
b11 n
b11 S
11
#420
01
#425
0B
b0 S
b1000 D
b1000 Q
11
#430
01
#435
1L
0'
b1 S
11
#440
01
#445
1_
b10 S
b10 n
11
#450
01
#455
1<
1=
0_
0l
1B
b0 n
b11 S
11
#460
01
#465
0<
0=
0B
b0 S
b1001 D
b1001 Q
b1111 I
bz000 H
11
#470
01
#475
0L
1'
b1 S
11
#480
01
#485
1^
b10 S
b1 n
11
#490
01
#495
0^
1l
1B
b11 n
b11 S
11
#500
01
#505
0B
b0 S
b1010 D
b1010 Q
11
#510
01
#515
1L
0'
b1 S
11
#520
01
#525
1_
b10 S
b10 n
11
#530
01
#535
1<
1=
0_
0l
1B
b0 n
b11 S
11
#540
01
#545
0<
0=
0B
b0 S
b1011 D
b1011 Q
b111 I
bz00 H
11
#550
01
#555
0L
1'
b1 S
11
#560
01
#565
1^
b10 S
b1 n
11
#570
01
#575
0^
1l
1B
b11 n
b11 S
11
#580
01
#585
0B
b0 S
b1100 D
b1100 Q
11
#590
01
#595
1L
0'
b1 S
11
#600
01
#605
1_
b10 S
b10 n
11
#610
01
#615
1<
1=
0_
0l
1B
b0 n
b11 S
11
#620
01
#625
0<
0=
0B
b0 S
b1101 D
b1101 Q
b11 I
bz0 H
11
#630
01
#635
0L
1'
b1 S
11
#640
01
#645
1^
b10 S
b1 n
11
#650
01
#655
0^
1l
1B
b11 n
b11 S
11
#660
01
#665
0B
b0 S
b1110 D
b1110 Q
11
#670
01
#675
1L
0'
b1 S
11
#680
01
#685
1_
b10 S
b10 n
11
#690
01
#695
1<
1=
0_
0l
1B
b0 n
b11 S
11
#700
01
#705
0<
0=
0B
b0 S
b1111 D
b1111 Q
b1 I
bz H
11
#710
01
#715
0L
1'
b1 S
11
#720
01
#725
1^
b10 S
b1 n
11
#730
01
#735
0^
1l
1B
b11 n
b11 S
11
#740
01
#745
0B
b0 S
b10000 D
b10000 Q
11
#750
01
#755
1L
0'
b1 S
11
#760
01
#765
1_
b10 S
b10 n
11
#770
01
#775
1>
1<
1=
0_
0l
1B
b0 n
b11 S
11
#780
01
#785
0>
0<
0=
0B
0C
b0 S
b10001 D
b10001 Q
b0 I
1)
bz *
bz K
11
#790
01
#795
0,
b111111111111111111111111 "
b111111111111111111111111 N
0)
0.
b1 S
b1 2
11
#800
01
#805
b10 S
0c
11
#810
01
#815
1C
1B
b11 S
11
#820
01
#825
z,
0C
0B
1-
b0 S
b0 D
b0 Q
00
11
#830
01
#835
0,
0-
zc
b1000 M
10
18
b1000 7
b1000 ?
11
#840
01
#845
0Z
b1 S
b111111111111111111110111 "
b111111111111111111110111 N
0c
08
b0 7
b0 ?
11
#850
01
#855
1i
0/
1]
0%
0g
b10 q
b10 S
11
#860
01
#865
1+
1<
1=
0i
1B
0]
0o
b11 S
b0 q
1(
11
#870
01
#875
0<
0=
0>
0+
0B
b0zzzzzzz H
1J
b1 D
b1 Q
b0 S
b10100101 3
b10100101 A
b10 4
11
#880
01
#885
b1 S
0J
b10100101 I
0L
1'
11
#890
01
#895
1$
1V
1Y
1^
1,
b1 n
1.
b10 S
11
#900
01
#905
0$
0V
0Y
1B
0^
1l
b11 S
b11 n
1c
1e
b11111111 9
b11111111 [
b1 :
11
#910
01
#915
1/
1&
0B
b11111111 b
0e
b10 D
b10 Q
b0 S
11
#920
01
#925
b1 S
1L
0'
11
#930
01
#935
1T
1U
1X
1_
b10 n
b10 S
11
#940
01
#945
0T
1<
1=
0U
0X
1B
0_
0l
b11 S
b0 n
b1 `
b1 k
b10000000 d
11
#950
01
#955
0<
0=
0B
b10zzzzzz H
b1010010 I
b11 D
b11 Q
b0 S
11
#960
01
#965
0,
b1 S
0.
0L
1'
11
#970
01
#975
1V
1Y
1^
0c
b1 n
b10 S
11
#980
01
#985
0V
0Y
1B
0^
1l
b11 S
b11 n
b1111111 b
11
#990
01
#995
0B
b100 D
b100 Q
b0 S
11
#1000
01
#1005
b1 S
1L
0'
11
#1010
01
#1015
1T
1U
1X
1_
b10 n
b10 S
11
#1020
01
#1025
0T
1<
1=
0U
0X
1B
0_
0l
b11 S
b0 n
b10 `
b10 k
b1000000 d
11
#1030
01
#1035
0<
0=
0B
b110zzzzz H
b101001 I
b101 D
b101 Q
b0 S
11
#1040
01
#1045
1,
b1 S
1.
0L
1'
11
#1050
01
#1055
1V
1Y
1^
1c
b1 n
b10 S
11
#1060
01
#1065
0V
0Y
1B
0^
1l
b11 S
b11 n
b111111 b
11
#1070
01
#1075
0B
b110 D
b110 Q
b0 S
11
#1080
01
#1085
b1 S
1L
0'
11
#1090
01
#1095
1T
1U
1X
1_
b10 n
b10 S
11
#1100
01
#1105
0T
1<
1=
0U
0X
1B
0_
0l
b11 S
b0 n
b11 `
b11 k
b10100000 d
11
#1110
01
#1115
0<
0=
0B
b1110zzzz H
b10100 I
b111 D
b111 Q
b0 S
11
#1120
01
#1125
0,
b1 S
0.
0L
1'
11
#1130
01
#1135
1V
1Y
1^
0c
b1 n
b10 S
11
#1140
01
#1145
0V
0Y
1B
0^
1l
b11 S
b11 n
b11111 b
11
#1150
01
#1155
0B
b1000 D
b1000 Q
b0 S
11
#1160
01
#1165
b1 S
1L
0'
11
#1170
01
#1175
1T
1U
1X
1_
b10 n
b10 S
11
#1180
01
#1185
0T
1<
1=
0U
0X
1B
0_
0l
b11 S
b0 n
b100 `
b100 k
b1010000 d
11
#1190
01
#1195
0<
0=
0B
b11110zzz H
b1010 I
b1001 D
b1001 Q
b0 S
11
#1200
01
#1205
b1 S
0L
1'
11
#1210
01
#1215
1V
1Y
1^
b1 n
b10 S
11
#1220
01
#1225
0V
0Y
1B
0^
1l
b11 S
b11 n
b1111 b
11
#1230
01
#1235
0B
b1010 D
b1010 Q
b0 S
11
#1240
01
#1245
b1 S
1L
0'
11
#1250
01
#1255
1T
1U
1X
1_
b10 n
b10 S
11
#1260
01
#1265
0T
1<
1=
0U
0X
1B
0_
0l
b11 S
b0 n
b101 `
b101 k
b101000 d
11
#1270
01
#1275
0<
0=
0B
b111110zz H
b101 I
b1011 D
b1011 Q
b0 S
11
#1280
01
#1285
1,
b1 S
1.
0L
1'
11
#1290
01
#1295
1V
1Y
1^
1c
b1 n
b10 S
11
#1300
01
#1305
0V
0Y
1B
0^
1l
b11 S
b11 n
b111 b
11
#1310
01
#1315
0B
b1100 D
b1100 Q
b0 S
11
#1320
01
#1325
b1 S
1L
0'
11
#1330
01
#1335
1T
1U
1X
1_
b10 n
b10 S
11
#1340
01
#1345
0T
1<
1=
0U
0X
1B
0_
0l
b11 S
b0 n
b110 `
b110 k
b10010100 d
11
#1350
01
#1355
0<
0=
0B
b1111110z H
b10 I
b1101 D
b1101 Q
b0 S
11
#1360
01
#1365
0,
b1 S
0.
0L
1'
11
#1370
01
#1375
1V
1Y
1^
0c
b1 n
b10 S
11
#1380
01
#1385
0V
0Y
1B
0^
1l
b11 S
b11 n
b11 b
11
#1390
01
#1395
0B
b1110 D
b1110 Q
b0 S
11
#1400
01
#1405
b1 S
1L
0'
11
#1410
01
#1415
1T
1U
1X
1_
b10 n
b10 S
11
#1420
01
#1425
0T
1<
1=
0U
0X
0W
1B
0_
0l
b11 S
b0 n
b111 `
b111 k
b1001010 d
11
#1430
01
#1435
0<
0=
0B
b11111110 H
b1 I
b1111 D
b1111 Q
b0 S
11
#1440
01
#1445
1,
b1 S
1.
0L
1'
11
#1450
01
#1455
1V
1Y
1^
1c
b1 n
b10 S
11
#1460
01
#1465
0V
0Y
1B
0^
1l
b11 S
b11 n
b1 b
11
#1470
01
#1475
0B
b10000 D
b10000 Q
b0 S
11
#1480
01
#1485
b1 S
1L
0'
11
#1490
01
#1495
1T
1W
1U
1X
1_
b10 n
b10 S
11
#1500
01
#1505
1>
0T
1<
1=
0U
0X
0W
1B
0_
0l
b11 S
b0 n
b1000 `
b1000 k
1!
b10100101 d
b10100101 #
b10100101 f
11
#1510
01
#1515
0>
0<
0=
0B
0!
b11111111 *
b11111111 K
b11111111 H
1)
b0 I
b10001 D
b10001 Q
b0 S
b1 6
11
#1520
01
#1525
0,
1Z
b1 S
0.
0)
b111111111111111111111111 "
b111111111111111111111111 N
b10 2
11
#1530
01
#1535
z/
1\
0c
1%
1g
b1 q
b10 S
11
#1540
01
#1545
1C
1B
0\
1o
b11 S
b11 q
0(
11
#1550
01
#1555
z,
1-
0C
0B
00
b0 D
b0 Q
b0 S
11
#1560
01
#1565
0,
0-
b1000001 G
b1000001 O
10
zc
18
b1000 7
b1000 ?
b11 ;
b11 @
11
#1570
01
#1575
0Z
0c
b111111111111111111110111 "
b111111111111111111110111 N
b1 S
08
b0 7
b0 ?
b0 ;
b0 @
11
#1580
01
#1585
1i
1]
1/
b10 S
b10 q
0%
0g
11
#1590
01
#1595
1+
0i
1<
1=
0]
0o
1B
1(
b0 `
b0 k
b0 q
b11 S
11
#1600
01
#1605
0+
0<
0=
0B
0>
b0 S
b1 D
b1 Q
1J
b111100 3
b111100 A
b11 4
11
#1610
01
#1615
0L
1'
b111100 I
0J
b1 S
11
#1620
01
#1625
1$
1V
1Y
1^
b10 S
b1 n
11
#1630
01
#1635
0$
0V
0Y
0^
1l
1B
1e
b11 n
b11 S
b110011 9
b110011 [
b10 :
11
#1640
01
#1645
0B
b0 S
b10 D
b10 Q
0e
b110011 b
11
#1650
01
#1655
1L
0'
b1 S
11
#1660
01
#1665
1T
1U
1X
1_
b10 S
b10 n
11
#1670
01
#1675
0T
0U
0X
1<
1=
0_
0l
1B
b1010010 d
b1 `
b1 k
b0 n
b11 S
11
#1680
01
#1685
0<
0=
0B
b0 S
b11 D
b11 Q
b11110 I
11
#1690
01
#1695
0L
1'
b1 S
11
#1700
01
#1705
1V
1Y
1^
b10 S
b1 n
11
#1710
01
#1715
0V
0Y
0^
1l
1B
b11001 b
b11 n
b11 S
11
#1720
01
#1725
0B
b0 S
b100 D
b100 Q
11
#1730
01
#1735
1L
0'
b1 S
11
#1740
01
#1745
1T
1U
1X
1_
b10 S
b10 n
11
#1750
01
#1755
0T
0U
0X
1<
1=
0_
0l
1B
b101001 d
b10 `
b10 k
b0 n
b11 S
11
#1760
01
#1765
0<
0=
0B
b0 S
b101 D
b101 Q
b1111 I
11
#1770
01
#1775
1,
0L
1'
1.
b1 S
11
#1780
01
#1785
1V
1Y
1^
b10 S
b1 n
1c
11
#1790
01
#1795
0/
0V
0Y
0&
0^
1l
1B
b1100 b
b11 n
b11 S
11
#1800
01
#1805
0B
b0 S
b110 D
b110 Q
11
#1810
01
#1815
1L
0'
b1 S
11
#1820
01
#1825
1T
1U
1X
1_
b10 S
b10 n
11
#1830
01
#1835
0T
0U
0X
1<
1=
0_
0l
1B
b10010100 d
b11 `
b11 k
b0 n
b11 S
11
#1840
01
#1845
0<
0=
0B
b0 S
b111 D
b111 Q
b111 I
b1111111 H
11
#1850
01
#1855
0L
1'
b1 S
11
#1860
01
#1865
1V
1Y
1^
b10 S
b1 n
11
#1870
01
#1875
0V
0Y
0^
1l
1B
b110 b
b11 n
b11 S
11
#1880
01
#1885
0B
b0 S
b1000 D
b1000 Q
11
#1890
01
#1895
1L
0'
b1 S
11
#1900
01
#1905
1T
1U
1X
1_
b10 S
b10 n
11
#1910
01
#1915
0T
0U
0X
1<
1=
0_
0l
1B
b11001010 d
b100 `
b100 k
b0 n
b11 S
11
#1920
01
#1925
0<
0=
0B
b0 S
b1001 D
b1001 Q
b11 I
b111111 H
11
#1930
01
#1935
0L
1'
b1 S
11
#1940
01
#1945
1V
1Y
1^
b10 S
b1 n
11
#1950
01
#1955
1/
0V
0Y
1&
0^
1l
1B
b11 b
b11 n
b11 S
11
#1960
01
#1965
0B
b0 S
b1010 D
b1010 Q
11
#1970
01
#1975
1L
0'
b1 S
11
#1980
01
#1985
1T
1U
1X
1_
b10 S
b10 n
11
#1990
01
#1995
0T
0U
0X
1<
1=
0_
0l
1B
b11100101 d
b101 `
b101 k
b0 n
b11 S
11
#2000
01
#2005
0<
0=
0B
b0 S
b1011 D
b1011 Q
b1 I
b10011111 H
11
#2010
01
#2015
0L
1'
b1 S
11
#2020
01
#2025
1V
1Y
1^
b10 S
b1 n
11
#2030
01
#2035
0V
0Y
0^
1l
1B
b1 b
b11 n
b11 S
11
#2040
01
#2045
0B
b0 S
b1100 D
b1100 Q
11
#2050
01
#2055
1L
0'
b1 S
11
#2060
01
#2065
1T
1U
1X
1_
b10 S
b10 n
11
#2070
01
#2075
0T
0U
0X
1<
1=
0_
0l
1B
b11110010 d
b110 `
b110 k
b0 n
b11 S
11
#2080
01
#2085
0<
0=
0B
b0 S
b1101 D
b1101 Q
b0 I
b11001111 H
11
#2090
01
#2095
0,
0L
1'
0.
b1 S
11
#2100
01
#2105
1V
1Y
1^
b10 S
b1 n
0c
11
#2110
01
#2115
0/
0V
0Y
0&
0^
1l
1B
b0 b
b11 n
b11 S
11
#2120
01
#2125
0B
b0 S
b1110 D
b1110 Q
11
#2130
01
#2135
1L
0'
b1 S
11
#2140
01
#2145
1T
1U
1X
1_
b10 S
b10 n
11
#2150
01
#2155
0T
0U
0X
1<
1=
0_
0l
1B
b1111001 d
b111 `
b111 k
b0 n
b11 S
11
#2160
01
#2165
0<
0=
0B
b0 S
b1111 D
b1111 Q
b1100111 H
11
#2170
01
#2175
0L
1'
b1 S
11
#2180
01
#2185
1V
1Y
1^
b10 S
b1 n
11
#2190
01
#2195
0V
0Y
0^
1l
1B
b11 n
b11 S
11
#2200
01
#2205
0B
b0 S
b10000 D
b10000 Q
11
#2210
01
#2215
1L
0'
b1 S
11
#2220
01
#2225
1T
1W
1U
1X
1_
b10 S
b10 n
11
#2230
01
#2235
0T
1>
1+
0W
0U
0X
1<
1=
0_
0l
1B
b111100 #
b111100 f
b111100 d
1!
b1000 `
b1000 k
b0 n
b11 S
11
#2240
01
#2245
0>
0+
0<
0=
0B
b0 S
b10001 D
b10001 Q
1J
1)
b110011 H
b110011 *
b110011 K
0!
b1011010 3
b1011010 A
b100 4
b10 6
11
#2250
01
#2255
0L
1'
0)
b1011010 I
0J
b1 S
b11 2
11
#2260
01
#2265
1$
1V
1Y
1^
b10 S
b1 n
11
#2270
01
#2275
0$
0V
0Y
0^
1l
1B
1e
b11 n
b11 S
b10101010 9
b10101010 [
b11 :
11
#2280
01
#2285
0B
b0 S
b10010 D
b10010 Q
0e
b10101010 b
11
#2290
01
#2295
1L
0'
b1 S
11
#2300
01
#2305
1T
1U
1X
1_
b10 S
b10 n
11
#2310
01
#2315
0T
0U
0X
1<
1=
0_
0l
1B
b11110 d
b1001 `
b1001 k
b0 n
b11 S
11
#2320
01
#2325
0<
0=
0B
b0 S
b10011 D
b10011 Q
b101101 I
b11001 H
11
#2330
01
#2335
1,
0L
1'
1.
b1 S
11
#2340
01
#2345
1V
1Y
1^
b10 S
b1 n
1c
11
#2350
01
#2355
1/
0V
0Y
1&
0^
1l
1B
b1010101 b
b11 n
b11 S
11
#2360
01
#2365
0B
b0 S
b10100 D
b10100 Q
11
#2370
01
#2375
1L
0'
b1 S
11
#2380
01
#2385
1T
1U
1X
1_
b10 S
b10 n
11
#2390
01
#2395
0T
0U
0X
1<
1=
0_
0l
1B
b10001111 d
b1010 `
b1010 k
b0 n
b11 S
11
#2400
01
#2405
0<
0=
0B
b0 S
b10101 D
b10101 Q
b10110 I
b10001100 H
11
#2410
01
#2415
0,
0L
1'
0.
b1 S
11
#2420
01
#2425
1V
1Y
1^
b10 S
b1 n
0c
11
#2430
01
#2435
0/
0V
0Y
0&
0^
1l
1B
b101010 b
b11 n
b11 S
11
#2440
01
#2445
0B
b0 S
b10110 D
b10110 Q
11
#2450
01
#2455
1L
0'
b1 S
11
#2460
01
#2465
1T
1U
1X
1_
b10 S
b10 n
11
#2470
01
#2475
0T
0U
0X
1<
1=
0_
0l
1B
b1000111 d
b1011 `
b1011 k
b0 n
b11 S
11
#2480
01
#2485
0<
0=
0B
b0 S
b10111 D
b10111 Q
b1011 I
b1000110 H
11
#2490
01
#2495
1,
0L
1'
1.
b1 S
11
#2500
01
#2505
1V
1Y
1^
b10 S
b1 n
1c
11
#2510
01
#2515
1/
0V
0Y
1&
0^
1l
1B
b10101 b
b11 n
b11 S
11
#2520
01
#2525
0B
b0 S
b11000 D
b11000 Q
11
#2530
01
#2535
1L
0'
b1 S
11
#2540
01
#2545
1T
1U
1X
1_
b10 S
b10 n
11
#2550
01
#2555
0T
0U
0X
1<
1=
0_
0l
1B
b10100011 d
b1100 `
b1100 k
b0 n
b11 S
11
#2560
01
#2565
0<
0=
0B
b0 S
b11001 D
b11001 Q
b101 I
b10100011 H
11
#2570
01
#2575
0L
1'
b1 S
11
#2580
01
#2585
1V
1Y
1^
b10 S
b1 n
11
#2590
01
#2595
0/
0V
0Y
0&
0^
1l
1B
b1010 b
b11 n
b11 S
11
#2600
01
#2605
0B
b0 S
b11010 D
b11010 Q
11
#2610
01
#2615
1L
0'
b1 S
11
#2620
01
#2625
1T
1U
1X
1_
b10 S
b10 n
11
#2630
01
#2635
0T
0U
0X
1<
1=
0_
0l
1B
b11010001 d
b1101 `
b1101 k
b0 n
b11 S
11
#2640
01
#2645
0<
0=
0B
b0 S
b11011 D
b11011 Q
b10 I
b1010001 H
11
#2650
01
#2655
0,
0L
1'
0.
b1 S
11
#2660
01
#2665
1V
1Y
1^
b10 S
b1 n
0c
11
#2670
01
#2675
1/
0V
0Y
1&
0^
1l
1B
b101 b
b11 n
b11 S
11
#2680
01
#2685
0B
b0 S
b11100 D
b11100 Q
11
#2690
01
#2695
1L
0'
b1 S
11
#2700
01
#2705
1T
1U
1X
1_
b10 S
b10 n
11
#2710
01
#2715
0T
0U
0X
1<
1=
0_
0l
1B
b1101000 d
b1110 `
b1110 k
b0 n
b11 S
11
#2720
01
#2725
0<
0=
0B
b0 S
b11101 D
b11101 Q
b1 I
b10101000 H
11
#2730
01
#2735
1,
0L
1'
1.
b1 S
11
#2740
01
#2745
1V
1Y
1^
b10 S
b1 n
1c
11
#2750
01
#2755
0/
0V
0Y
0&
0^
1l
1B
b10 b
b11 n
b11 S
11
#2760
01
#2765
0B
b0 S
b11110 D
b11110 Q
11
#2770
01
#2775
1L
0'
b1 S
11
#2780
01
#2785
1T
1U
1X
1_
b10 S
b10 n
11
#2790
01
#2795
0T
0U
0X
1<
1=
0_
0l
1B
b10110100 d
b1111 `
b1111 k
b0 n
b11 S
11
#2800
01
#2805
0<
0=
0B
b0 S
b11111 D
b11111 Q
b0 I
b1010100 H
11
#2810
01
#2815
0,
0L
1'
0.
b1 S
11
#2820
01
#2825
1V
1Y
1^
b10 S
b1 n
0c
11
#2830
01
#2835
1/
0V
0Y
1&
0^
1l
1B
b1 b
b11 n
b11 S
11
#2840
01
#2845
0B
b0 S
b100000 D
b100000 Q
11
#2850
01
#2855
1L
0'
b1 S
11
#2860
01
#2865
1T
1W
1U
1X
1_
b10 S
b10 n
11
#2870
01
#2875
0T
1>
1+
0W
0U
0X
1<
1=
0_
0l
1B
b1011010 #
b1011010 f
b1011010 d
1!
b10000 `
b10000 k
b0 n
b11 S
11
#2880
01
#2885
0>
0+
0<
0=
0B
b0 S
b100001 D
b100001 Q
1J
1)
b10101010 H
b10101010 *
b10101010 K
0!
b1111 3
b1111 A
b101 4
b11 6
11
#2890
01
#2895
0L
1'
0)
b1111 I
0J
b1 S
b100 2
11
#2900
01
#2905
1$
1V
1Y
1,
1^
b10 S
1.
b1 n
11
#2910
01
#2915
0$
0V
0Y
0^
1l
1B
1e
1c
b11 n
b11 S
b1010101 9
b1010101 [
b100 :
11
#2920
01
#2925
0B
b0 S
b100010 D
b100010 Q
0e
b1010101 b
11
#2930
01
#2935
1L
0'
b1 S
11
#2940
01
#2945
1T
1U
1X
1_
b10 S
b10 n
11
#2950
01
#2955
0T
0U
0X
1<
1=
0_
0l
1B
b10101101 d
b10001 `
b10001 k
b0 n
b11 S
11
#2960
01
#2965
0<
0=
0B
b0 S
b100011 D
b100011 Q
b111 I
b11010101 H
11
#2970
01
#2975
0L
1'
b1 S
11
#2980
01
#2985
1V
1Y
1^
b10 S
b1 n
11
#2990
01
#2995
0/
0V
0Y
0&
0^
1l
1B
b101010 b
b11 n
b11 S
11
#3000
01
#3005
0B
b0 S
b100100 D
b100100 Q
11
#3010
01
#3015
1L
0'
b1 S
11
#3020
01
#3025
1T
1U
1X
1_
b10 S
b10 n
11
#3030
01
#3035
0T
0U
0X
1<
1=
0_
0l
1B
b11010110 d
b10010 `
b10010 k
b0 n
b11 S
11
#3040
01
#3045
0<
0=
0B
b0 S
b100101 D
b100101 Q
b11 I
b1101010 H
11
#3050
01
#3055
0L
1'
b1 S
11
#3060
01
#3065
1V
1Y
1^
b10 S
b1 n
11
#3070
01
#3075
1/
0V
0Y
1&
0^
1l
1B
b10101 b
b11 n
b11 S
11
#3080
01
#3085
0B
b0 S
b100110 D
b100110 Q
11
#3090
01
#3095
1L
0'
b1 S
11
#3100
01
#3105
1T
1U
1X
1_
b10 S
b10 n
11
#3110
01
#3115
0T
0U
0X
1<
1=
0_
0l
1B
b11101011 d
b10011 `
b10011 k
b0 n
b11 S
11
#3120
01
#3125
0<
0=
0B
b0 S
b100111 D
b100111 Q
b1 I
b10110101 H
11
#3130
01
#3135
0L
1'
b1 S
11
#3140
01
#3145
1V
1Y
1^
b10 S
b1 n
11
#3150
01
#3155
0/
0V
0Y
0&
0^
1l
1B
b1010 b
b11 n
b11 S
11
#3160
01
#3165
0B
b0 S
b101000 D
b101000 Q
11
#3170
01
#3175
1L
0'
b1 S
11
#3180
01
#3185
1T
1U
1X
1_
b10 S
b10 n
11
#3190
01
#3195
0T
0U
0X
1<
1=
0_
0l
1B
b11110101 d
b10100 `
b10100 k
b0 n
b11 S
11
#3200
01
#3205
0<
0=
0B
b0 S
b101001 D
b101001 Q
b0 I
b1011010 H
11
#3210
01
#3215
0,
0L
1'
0.
b1 S
11
#3220
01
#3225
1V
1Y
1^
b10 S
b1 n
0c
11
#3230
01
#3235
1/
0V
0Y
1&
0^
1l
1B
b101 b
b11 n
b11 S
11
#3240
01
